<?xml version="1.0" encoding="utf-8"?>
<!-- Generator: Adobe Illustrator 24.0.0, SVG Export Plug-In . SVG Version: 6.00 Build 0)  -->
<svg version="1.1" id="GRAPHIC" xmlns="http://www.w3.org/2000/svg" xmlns:xlink="http://www.w3.org/1999/xlink" x="0px" y="0px"
	 viewBox="0 0 130.06 130.06" enable-background="new 0 0 130.06 130.06" xml:space="preserve">
<g>
	
		<circle fill="none" stroke="#F2F2F2" stroke-width="14" stroke-linecap="round" stroke-miterlimit="10" cx="65.03" cy="65.03" r="58.03"/>
	
		<circle fill="none" stroke="#EDEDED" stroke-width="14" stroke-linecap="round" stroke-miterlimit="10" cx="65.18" cy="65.16" r="49.75"/>
	<g>
		<path fill="#FFFFFF" stroke="#F6BE00" stroke-width="14" stroke-linecap="round" stroke-miterlimit="10" d="M77.31,16.86"/>
	</g>
	<g>
		
			<circle fill="none" stroke="#F6F8F9" stroke-width="14" stroke-linecap="round" stroke-miterlimit="10" cx="65.18" cy="65.16" r="46.37"/>
	</g>
	<path fill="none" stroke="#506D85" stroke-width="14" stroke-linecap="round" stroke-miterlimit="10" d="M65.03,7
		c32.05,0,58.03,25.98,58.03,58.03"/>
</g>
<rect x="35.41" y="50.93" fill="none" width="83.79" height="28.47"/>
<text transform="matrix(1 0 0 1 35.4082 73.7005)"><tspan x="0" y="0" fill="#506D85" font-family="'AvantGarde-Demi'" font-size="36.7124px">25</tspan><tspan x="37.67" y="0" fill="#506D85" font-family="'AvantGarde-Demi'" font-size="28.0742px">%</tspan></text>
</svg>
