<svg version="1.1" id="Layer_1" xmlns="http://www.w3.org/2000/svg" xmlns:xlink="http://www.w3.org/1999/xlink" x="0px"
	y="0px" viewBox="0 0 858.6 582" enable-background="new 0 0 858.6 582" xml:space="preserve">
	<rect x="227.6" y="158.3" fill="#F8E3D6" width="104.1" height="43.9" />
	<text transform="matrix(1 0 0 1 267.8509 189.0535)" fill="#6D6E70" font-family="'MyriadPro-Regular'"
		font-size="18px">8%</text>
	<rect y="158.2" fill="#F1F1F1" width="226.3" height="43.9" />
	<text transform="matrix(1 0 0 1 9.9997 185.979)" fill="#6D6E70" font-family="'MyriadPro-Semibold'"
		font-size="18px">Pyrexia</text>
	<text transform="matrix(0.583 0 0 0.583 68.0305 179.9849)" fill="#6D6E70" font-family="'MyriadPro-Semibold'"
		font-size="18px">‡</text>
	<rect y="203.2" fill="#F1F1F1" width="226.3" height="43.9" />
	<text transform="matrix(1 0 0 1 9.9997 230.959)" fill="#6D6E70" font-family="'MyriadPro-Semibold'"
		font-size="18px">Fatigue</text>
	<text transform="matrix(0.583 0 0 0.583 69.0744 224.9648)" fill="#6D6E70" font-family="'MyriadPro-Semibold'"
		font-size="18px">§</text>
	<rect y="248.1" fill="#F1F1F1" width="226.3" height="46.9" />
	<text transform="matrix(1 0 0 1 9.9997 275.9377)" fill="#6D6E70" font-family="'MyriadPro-Semibold'"
		font-size="18px">Headache</text>
	<rect y="61.8" fill="#555555" width="226.3" height="50.4" />
	<text transform="matrix(1.0181 0 0 1 9.9999 93.5735)" fill="#FFFFFF" font-family="'MyriadPro-Bold'"
		font-size="18px">Adverse Reactions</text>
	<rect x="227.6" y="203.2" fill="#FFEFE6" width="104.1" height="43.9" />
	<text transform="matrix(1 0 0 1 267.8509 234.0202)" fill="#6D6E70" font-family="'MyriadPro-Regular'"
		font-size="18px">5%</text>
	<rect x="227.6" y="248.2" fill="#F8E3D6" width="104.1" height="46.9" />
	<text transform="matrix(1 0 0 1 267.8509 278.986)" fill="#6D6E70" font-family="'MyriadPro-Regular'"
		font-size="18px">4%</text>
	<rect x="333" y="158.3" fill="#F8E3D6" width="104.1" height="43.9" />
	<text transform="matrix(1 0 0 1 373.2718 189.0535)" fill="#6D6E70" font-family="'MyriadPro-Regular'"
		font-size="18px">8%</text>
	<rect x="333" y="203.2" fill="#FFEFE6" width="104.1" height="43.9" />
	<text transform="matrix(1 0 0 1 373.2718 234.0202)" fill="#6D6E70" font-family="'MyriadPro-Regular'"
		font-size="18px">6%</text>
	<rect x="333" y="248.2" fill="#F8E3D6" width="104.1" height="46.9" />
	<text transform="matrix(1 0 0 1 373.2718 278.986)" fill="#6D6E70" font-family="'MyriadPro-Regular'"
		font-size="18px">4%</text>
	<rect x="438.2" y="158.3" fill="#F8E3D6" width="104.1" height="43.9" />
	<text transform="matrix(1 0 0 1 473.1336 189.0535)" fill="#6D6E70" font-family="'MyriadPro-Regular'"
		font-size="18px">&lt;1%</text>
	<rect x="438.2" y="203.2" fill="#FFEFE6" width="104.1" height="43.9" />
	<text transform="matrix(1 0 0 1 478.4973 234.0202)" fill="#6D6E70" font-family="'MyriadPro-Regular'"
		font-size="18px">0%</text>
	<rect x="438.2" y="248.2" fill="#F8E3D6" width="104.1" height="46.9" />
	<text transform="matrix(1 0 0 1 473.1336 278.986)" fill="#6D6E70" font-family="'MyriadPro-Regular'"
		font-size="18px">&lt;1%</text>
	<rect x="543.6" y="158.3" fill="#E3E3E4" width="104.1" height="43.9" />
	<text transform="matrix(1 0 0 1 583.9236 189.0535)" fill="#6D6E70" font-family="'MyriadPro-Regular'"
		font-size="18px">0%</text>
	<linearGradient id="SVGID_1_" gradientUnits="userSpaceOnUse" x1="393.9414" y1="60.4085" x2="393.9414" y2="0">
		<stop offset="5.890377e-03" style="stop-color:#E47426" />
		<stop offset="0.9954" style="stop-color:#E99051" />
	</linearGradient>
	<rect x="227.6" fill="url(#SVGID_1_)" width="332.7" height="60.4" />
	<text transform="matrix(1 0 0 1 344.1121 25.6999)">
		<tspan x="0" y="0" fill="#FFFFFF" font-family="'MyriadPro-Bold'" font-size="20px">CABENUVA </tspan>
		<tspan x="16.8" y="22" fill="#FFFFFF" font-family="'MyriadPro-Regular'" font-size="20px">(N=591)</tspan>
	</text>
	<rect x="543.6" fill="#D9D9DA" width="315.1" height="60.4" />
	<text transform="matrix(1 0 0 1 610.6863 25.6999)">
		<tspan x="0" y="0" fill="#6D6E70" font-family="'MyriadPro-Bold'" font-size="20px">ORAL COMPARATOR </tspan>
		<tspan x="57.4" y="22" fill="#6D6E70" font-family="'MyriadPro-Regular'" font-size="20px">(N=591)</tspan>
	</text>
	<rect x="543.6" y="203.2" fill="#EDEEEE" width="104.1" height="43.9" />
	<text transform="matrix(1 0 0 1 578.47 234.0202)" fill="#6D6E70" font-family="'MyriadPro-Regular'"
		font-size="18px">&lt;1%</text>
	<rect x="543.6" y="248.2" fill="#E3E3E4" width="104.1" height="46.9" />
	<text transform="matrix(1 0 0 1 578.47 278.986)" fill="#6D6E70" font-family="'MyriadPro-Regular'"
		font-size="18px">&lt;1%</text>
	<rect x="649.1" y="158.3" fill="#E3E3E4" width="104.1" height="43.9" />
	<text transform="matrix(1 0 0 1 689.5188 189.0535)" fill="#6D6E70" font-family="'MyriadPro-Regular'"
		font-size="18px">0%</text>
	<rect x="649.1" y="203.2" fill="#EDEEEE" width="104.1" height="43.9" />
	<text transform="matrix(1 0 0 1 684.0647 234.0202)" fill="#6D6E70" font-family="'MyriadPro-Regular'"
		font-size="18px">&lt;1%</text>
	<rect x="649.1" y="248.2" fill="#E3E3E4" width="104.1" height="46.9" />
	<text transform="matrix(1 0 0 1 684.0647 278.986)" fill="#6D6E70" font-family="'MyriadPro-Regular'"
		font-size="18px">&lt;1%</text>
	<rect x="754.6" y="158.3" fill="#E3E3E4" width="104.1" height="43.9" />
	<text transform="matrix(1 0 0 1 794.9397 189.0535)" fill="#6D6E70" font-family="'MyriadPro-Regular'"
		font-size="18px">0%</text>
	<rect x="227.6" y="61.8" fill="#555555" width="104.1" height="50.4" />
	<text transform="matrix(1 0 0 1 238.5921 91.5734)" fill="#FFFFFF" font-family="'MyriadPro-Bold'" font-size="18px">All
		Grades</text>
	<rect x="333" y="61.8" fill="#555555" width="104.1" height="50.4" />
	<text transform="matrix(1 0 0 1 341.9788 91.5734)" fill="#FFFFFF" font-family="'MyriadPro-Bold'"
		font-size="18px">Grades 1-2</text>
	<rect x="438.2" y="61.8" fill="#555555" width="104.1" height="50.4" />
	<text transform="matrix(1 0 0 1 447.2049 91.5734)" fill="#FFFFFF" font-family="'MyriadPro-Bold'"
		font-size="18px">Grades 3-4</text>
	<rect x="543.6" y="61.8" fill="#555555" width="104.1" height="50.4" />
	<text transform="matrix(1 0 0 1 554.575 91.5734)" fill="#FFFFFF" font-family="'MyriadPro-Bold'" font-size="18px">All
		Grades</text>
	<rect x="649.1" y="61.8" fill="#555555" width="104.1" height="50.4" />
	<text transform="matrix(1 0 0 1 658.136 91.5734)" fill="#FFFFFF" font-family="'MyriadPro-Bold'"
		font-size="18px">Grades 1-2</text>
	<rect x="754.6" y="61.8" fill="#555555" width="104.1" height="50.4" />
	<text transform="matrix(1 0 0 1 763.5569 91.5734)" fill="#FFFFFF" font-family="'MyriadPro-Bold'"
		font-size="18px">Grades 3-4</text>
	<rect y="113.2" fill="#F1F1F1" width="226.3" height="43.9" />
	<text transform="matrix(1 0 0 1 9.9997 141)" fill="#6D6E70" font-family="'MyriadPro-Semibold'"
		font-size="18px">Injection site reactions</text>
	<rect x="227.6" y="113.3" fill="#FFEFE6" width="104.1" height="43.9" />
	<text transform="matrix(1 0 0 1 263.2337 144.0878)" fill="#6D6E70" font-family="'MyriadPro-Regular'"
		font-size="18px">83%</text>
	<rect x="333" y="113.3" fill="#FFEFE6" width="104.1" height="43.9" />
	<text transform="matrix(1 0 0 1 368.6546 144.0878)" fill="#6D6E70" font-family="'MyriadPro-Regular'"
		font-size="18px">77%</text>
	<rect x="438.2" y="113.3" fill="#FFEFE6" width="104.1" height="43.9" />
	<text transform="matrix(1 0 0 1 478.4973 144.0878)" fill="#6D6E70" font-family="'MyriadPro-Regular'"
		font-size="18px">4%</text>
	<rect x="543.6" y="113.3" fill="#EDEEEE" width="104.1" height="43.9" />
	<text transform="matrix(1 0 0 1 583.9236 144.0878)" fill="#6D6E70" font-family="'MyriadPro-Regular'"
		font-size="18px">0%</text>
	<rect x="649.1" y="113.3" fill="#EDEEEE" width="104.1" height="43.9" />
	<text transform="matrix(1 0 0 1 689.5188 144.0878)" fill="#6D6E70" font-family="'MyriadPro-Regular'"
		font-size="18px">0%</text>
	<rect x="754.6" y="113.3" fill="#EDEEEE" width="104.1" height="43.9" />
	<text transform="matrix(1 0 0 1 794.9397 144.0878)" fill="#6D6E70" font-family="'MyriadPro-Regular'"
		font-size="18px">0%</text>
	<rect x="754.6" y="203.2" fill="#EDEEEE" width="104.1" height="43.9" />
	<text transform="matrix(1 0 0 1 794.8499 234.0202)" fill="#6D6E70" font-family="'MyriadPro-Regular'"
		font-size="18px">0%</text>
	<rect x="754.6" y="248.2" fill="#E3E3E4" width="104.1" height="46.9" />
	<text transform="matrix(1 0 0 1 794.8499 278.986)" fill="#6D6E70" font-family="'MyriadPro-Regular'"
		font-size="18px">0%</text>
	<rect x="227.6" y="341.1" fill="#F8E3D6" width="104.1" height="43.9" />
	<text transform="matrix(1 0 0 1 267.8509 371.8958)" fill="#6D6E70" font-family="'MyriadPro-Regular'"
		font-size="18px">3%</text>
	<rect y="341.1" fill="#F1F1F1" width="226.3" height="43.9" />
	<text transform="matrix(1 0 0 1 9.9997 368.874)" fill="#6D6E70" font-family="'MyriadPro-Semibold'"
		font-size="18px">Nausea</text>
	<rect y="386.1" fill="#F1F1F1" width="226.3" height="43.9" />
	<text transform="matrix(1 0 0 1 9.9997 413.8533)" fill="#6D6E70" font-family="'MyriadPro-Semibold'"
		font-size="18px">Sleep disorders</text>
	<text transform="matrix(0.583 0 0 0.583 129.5896 407.8591)" fill="#6D6E70" font-family="'MyriadPro-Semibold'"
		font-size="18px">¶</text>
	<rect y="431" fill="#F1F1F1" width="226.3" height="46.9" />
	<text transform="matrix(1 0 0 1 9.9997 458.8337)" fill="#6D6E70" font-family="'MyriadPro-Semibold'"
		font-size="18px">Dizziness</text>
	<rect y="527.2" fill="#808080" width="226.3" height="54.8" />
	<text transform="matrix(1 0 0 1 11.9997 549.9594)">
		<tspan x="0" y="0" fill="#FFFFFF" font-family="'MyriadPro-Semibold'" font-size="18px">Patients with ARs leading
		</tspan>
		<tspan x="0" y="21" fill="#FFFFFF" font-family="'MyriadPro-Semibold'" font-size="18px">to withdrawal</tspan>
	</text>
	<rect x="227.6" y="527.2" fill="#808080" width="314.6" height="54.8" />
	<text transform="matrix(1 0 0 1 372.5647 562.9594)" fill="#FFFFFF" font-family="'MyriadPro-Semibold'"
		font-size="18px">4%</text>
	<rect x="543.6" y="527.2" fill="#808080" width="315.1" height="54.8" />
	<text transform="matrix(1 0 0 1 688.7048 562.9594)" fill="#FFFFFF" font-family="'MyriadPro-Semibold'"
		font-size="18px">2%</text>
	<rect x="227.6" y="386.1" fill="#FFEFE6" width="104.1" height="43.9" />
	<text transform="matrix(1 0 0 1 267.8509 416.8625)" fill="#6D6E70" font-family="'MyriadPro-Regular'"
		font-size="18px">2%</text>
	<rect x="227.6" y="431" fill="#F8E3D6" width="104.1" height="46.9" />
	<text transform="matrix(1 0 0 1 267.8509 461.8284)" fill="#6D6E70" font-family="'MyriadPro-Regular'"
		font-size="18px">2%</text>
	<rect x="333" y="341.1" fill="#F8E3D6" width="104.1" height="43.9" />
	<text transform="matrix(1 0 0 1 373.2718 371.8958)" fill="#6D6E70" font-family="'MyriadPro-Regular'"
		font-size="18px">2%</text>
	<rect x="333" y="386.1" fill="#FFEFE6" width="104.1" height="43.9" />
	<text transform="matrix(1 0 0 1 373.2718 416.8625)" fill="#6D6E70" font-family="'MyriadPro-Regular'"
		font-size="18px">2%</text>
	<rect x="333" y="431" fill="#F8E3D6" width="104.1" height="46.9" />
	<text transform="matrix(1 0 0 1 373.2718 461.8284)" fill="#6D6E70" font-family="'MyriadPro-Regular'"
		font-size="18px">2%</text>
	<rect x="438.2" y="341.1" fill="#F8E3D6" width="104.1" height="43.9" />
	<text transform="matrix(1 0 0 1 473.1336 371.8958)" fill="#6D6E70" font-family="'MyriadPro-Regular'"
		font-size="18px">&lt;1%</text>
	<rect x="438.2" y="386.1" fill="#FFEFE6" width="104.1" height="43.9" />
	<text transform="matrix(1 0 0 1 473.1336 416.8625)" fill="#6D6E70" font-family="'MyriadPro-Regular'"
		font-size="18px">&lt;1%</text>
	<rect x="438.2" y="431" fill="#F8E3D6" width="104.1" height="46.9" />
	<text transform="matrix(1 0 0 1 478.4973 461.8284)" fill="#6D6E70" font-family="'MyriadPro-Regular'"
		font-size="18px">0%</text>
	<rect x="543.6" y="341.1" fill="#E3E3E4" width="104.1" height="43.9" />
	<text transform="matrix(1 0 0 1 583.8337 371.8958)" fill="#6D6E70" font-family="'MyriadPro-Regular'"
		font-size="18px">1%</text>
	<rect x="543.6" y="386.1" fill="#EDEEEE" width="104.1" height="43.9" />
	<text transform="matrix(1 0 0 1 578.47 416.8625)" fill="#6D6E70" font-family="'MyriadPro-Regular'"
		font-size="18px">&lt;1%</text>
	<rect x="543.6" y="431" fill="#E3E3E4" width="104.1" height="46.9" />
	<text transform="matrix(1 0 0 1 578.47 461.8284)" fill="#6D6E70" font-family="'MyriadPro-Regular'"
		font-size="18px">&lt;1%</text>
	<rect x="649.1" y="341.1" fill="#E3E3E4" width="104.1" height="43.9" />
	<text transform="matrix(1 0 0 1 689.429 371.8958)" fill="#6D6E70" font-family="'MyriadPro-Regular'"
		font-size="18px">1%</text>
	<rect x="649.1" y="386.1" fill="#EDEEEE" width="104.1" height="43.9" />
	<text transform="matrix(1 0 0 1 684.0647 416.8625)" fill="#6D6E70" font-family="'MyriadPro-Regular'"
		font-size="18px">&lt;1%</text>
	<rect x="649.1" y="431" fill="#E3E3E4" width="104.1" height="46.9" />
	<text transform="matrix(1 0 0 1 684.0647 461.8284)" fill="#6D6E70" font-family="'MyriadPro-Regular'"
		font-size="18px">&lt;1%</text>
	<rect x="754.6" y="341.1" fill="#E3E3E4" width="104.1" height="43.9" />
	<text transform="matrix(1 0 0 1 794.8499 371.8958)" fill="#6D6E70" font-family="'MyriadPro-Regular'"
		font-size="18px">0%</text>
	<rect y="296.1" fill="#F1F1F1" width="226.3" height="43.9" />
	<text transform="matrix(1 0 0 1 9.9997 323.8943)" fill="#6D6E70" font-family="'MyriadPro-Semibold'"
		font-size="18px">Musculoskeletal pain</text>
	<text transform="matrix(0.583 0 0 0.583 173.9948 317.9001)" fill="#6D6E70" font-family="'MyriadPro-Semibold'"
		font-size="18px">||</text>
	<rect x="227.6" y="296.1" fill="#FFEFE6" width="104.1" height="43.9" />
	<text transform="matrix(1 0 0 1 267.8509 326.9294)" fill="#6D6E70" font-family="'MyriadPro-Regular'"
		font-size="18px">3%</text>
	<rect x="333" y="296.1" fill="#FFEFE6" width="104.1" height="43.9" />
	<text transform="matrix(1 0 0 1 373.2718 326.9294)" fill="#6D6E70" font-family="'MyriadPro-Regular'"
		font-size="18px">3%</text>
	<rect x="438.2" y="296.1" fill="#FFEFE6" width="104.1" height="43.9" />
	<text transform="matrix(1 0 0 1 478.4973 326.9294)" fill="#6D6E70" font-family="'MyriadPro-Regular'"
		font-size="18px">0%</text>
	<rect x="543.6" y="296.1" fill="#EDEEEE" width="104.1" height="43.9" />
	<text transform="matrix(1 0 0 1 578.47 326.9294)" fill="#6D6E70" font-family="'MyriadPro-Regular'"
		font-size="18px">&lt;1%</text>
	<rect x="649.1" y="296.1" fill="#EDEEEE" width="104.1" height="43.9" />
	<text transform="matrix(1 0 0 1 684.0647 326.9294)" fill="#6D6E70" font-family="'MyriadPro-Regular'"
		font-size="18px">&lt;1%</text>
	<rect x="754.6" y="296.1" fill="#EDEEEE" width="104.1" height="43.9" />
	<text transform="matrix(1 0 0 1 794.8499 326.9294)" fill="#6D6E70" font-family="'MyriadPro-Regular'"
		font-size="18px">0%</text>
	<rect x="754.6" y="386.1" fill="#EDEEEE" width="104.1" height="43.9" />
	<text transform="matrix(1 0 0 1 794.8499 416.8625)" fill="#6D6E70" font-family="'MyriadPro-Regular'"
		font-size="18px">0%</text>
	<rect x="754.6" y="431" fill="#E3E3E4" width="104.1" height="46.9" />
	<text transform="matrix(1 0 0 1 794.8499 461.8284)" fill="#6D6E70" font-family="'MyriadPro-Regular'"
		font-size="18px">0%</text>
	<rect y="478.9" fill="#F1F1F1" width="226.3" height="46.9" />
	<text transform="matrix(1 0 0 1 9.9997 506.7208)" fill="#6D6E70" font-family="'MyriadPro-Semibold'"
		font-size="18px">Rash</text>
	<text transform="matrix(0.583 0 0 0.583 47.1872 500.7266)" fill="#6D6E70" font-family="'MyriadPro-Semibold'"
		font-size="18px">#</text>
	<rect x="227.6" y="478.9" fill="#F8E3D6" width="104.1" height="46.9" />
	<text transform="matrix(1 0 0 1 267.8509 509.7154)" fill="#6D6E70" font-family="'MyriadPro-Regular'"
		font-size="18px">2%</text>
	<rect x="333" y="478.9" fill="#F8E3D6" width="104.1" height="46.9" />
	<text transform="matrix(1 0 0 1 373.2718 509.7154)" fill="#6D6E70" font-family="'MyriadPro-Regular'"
		font-size="18px">2%</text>
	<rect x="438.2" y="478.9" fill="#F8E3D6" width="104.1" height="46.9" />
	<text transform="matrix(1 0 0 1 478.4973 509.7154)" fill="#6D6E70" font-family="'MyriadPro-Regular'"
		font-size="18px">0%</text>
	<rect x="543.6" y="478.9" fill="#E3E3E4" width="104.1" height="46.9" />
	<text transform="matrix(1 0 0 1 583.8337 509.7154)" fill="#6D6E70" font-family="'MyriadPro-Regular'"
		font-size="18px">0%</text>
	<rect x="649.1" y="478.9" fill="#E3E3E4" width="104.1" height="46.9" />
	<text transform="matrix(1 0 0 1 689.429 509.7154)" fill="#6D6E70" font-family="'MyriadPro-Regular'"
		font-size="18px">0%</text>
	<rect x="754.6" y="478.9" fill="#E3E3E4" width="104.1" height="46.9" />
	<text transform="matrix(1 0 0 1 794.8499 509.7154)" fill="#6D6E70" font-family="'MyriadPro-Regular'"
		font-size="18px">0%</text>
</svg>