<svg version="1.1" xmlns="http://www.w3.org/2000/svg" xmlns:xlink="http://www.w3.org/1999/xlink" x="0px" y="0px"
	viewBox="0 0 1106.6 428.7" enable-background="new 0 0 1106.6 428.7" xml:space="preserve">
	<g id="CHART">
		<path fill="#FAFAFA" stroke="#000000" stroke-width="0.273" stroke-miterlimit="10" d="M579.3,74.2V379c0,0,42.5,0.2,61.8,0.3
				h271.8V74.2H579.3z" />
		<g>
			<g>
				<line fill="none" stroke="#A6A4A5" stroke-width="0.3476" stroke-miterlimit="10" x1="579.2" y1="88.4"
					x2="580.4" y2="88.4" />

				<line fill="none" stroke="#A6A4A5" stroke-width="0.3476" stroke-miterlimit="10"
					stroke-dasharray="2.5667,2.5667" x1="583" y1="88.4" x2="910.3" y2="88.4" />
				<line fill="none" stroke="#A6A4A5" stroke-width="0.3476" stroke-miterlimit="10" x1="911.5" y1="88.4"
					x2="912.8" y2="88.4" />
			</g>
		</g>
		<g>
			<g>
				<line fill="none" stroke="#A6A4A5" stroke-width="0.3476" stroke-miterlimit="10" x1="579.2" y1="146.9"
					x2="580.4" y2="146.9" />

				<line fill="none" stroke="#A6A4A5" stroke-width="0.3476" stroke-miterlimit="10"
					stroke-dasharray="2.5667,2.5667" x1="583" y1="146.9" x2="910.3" y2="146.9" />
				<line fill="none" stroke="#A6A4A5" stroke-width="0.3476" stroke-miterlimit="10" x1="911.5" y1="146.9"
					x2="912.8" y2="146.9" />
			</g>
		</g>
		<g>
			<g>
				<line fill="none" stroke="#A6A4A5" stroke-width="0.3476" stroke-miterlimit="10" x1="579.2" y1="205.1"
					x2="580.4" y2="205.1" />

				<line fill="none" stroke="#A6A4A5" stroke-width="0.3476" stroke-miterlimit="10"
					stroke-dasharray="2.5667,2.5667" x1="583" y1="205.1" x2="910.3" y2="205.1" />
				<line fill="none" stroke="#A6A4A5" stroke-width="0.3476" stroke-miterlimit="10" x1="911.5" y1="205.1"
					x2="912.8" y2="205.1" />
			</g>
		</g>
		<g>
			<g>
				<line fill="none" stroke="#A6A4A5" stroke-width="0.3476" stroke-miterlimit="10" x1="579.2" y1="263.4"
					x2="580.4" y2="263.4" />

				<line fill="none" stroke="#A6A4A5" stroke-width="0.3476" stroke-miterlimit="10"
					stroke-dasharray="2.5667,2.5667" x1="583" y1="263.4" x2="910.3" y2="263.4" />
				<line fill="none" stroke="#A6A4A5" stroke-width="0.3476" stroke-miterlimit="10" x1="911.5" y1="263.4"
					x2="912.8" y2="263.4" />
			</g>
		</g>
		<g>
			<g>
				<line fill="none" stroke="#A6A4A5" stroke-width="0.3476" stroke-miterlimit="10" x1="579.2" y1="321.6"
					x2="580.4" y2="321.6" />

				<line fill="none" stroke="#A6A4A5" stroke-width="0.3476" stroke-miterlimit="10"
					stroke-dasharray="2.5667,2.5667" x1="583" y1="321.6" x2="910.3" y2="321.6" />
				<line fill="none" stroke="#A6A4A5" stroke-width="0.3476" stroke-miterlimit="10" x1="911.5" y1="321.6"
					x2="912.8" y2="321.6" />
			</g>
		</g>

		<rect x="41.6" y="88.8" fill="#FAFAFA" stroke="#000000" stroke-width="0.273" stroke-miterlimit="10"
			width="323.2" height="291.2" />
		<g>
			<g>
				<line fill="none" stroke="#A6A4A5" stroke-width="0.3" stroke-miterlimit="10" x1="41.8" y1="147.3"
					x2="42.9" y2="147.3" />

				<line fill="none" stroke="#A6A4A5" stroke-width="0.3" stroke-miterlimit="10"
					stroke-dasharray="2.212,2.212" x1="45.2" y1="147.3" x2="362.6" y2="147.3" />
				<line fill="none" stroke="#A6A4A5" stroke-width="0.3" stroke-miterlimit="10" x1="363.7" y1="147.3"
					x2="364.8" y2="147.3" />
			</g>
		</g>
		<g>
			<g>
				<line fill="none" stroke="#A6A4A5" stroke-width="0.3" stroke-miterlimit="10" x1="41.8" y1="205.5"
					x2="42.9" y2="205.5" />

				<line fill="none" stroke="#A6A4A5" stroke-width="0.3" stroke-miterlimit="10"
					stroke-dasharray="2.212,2.212" x1="45.2" y1="205.5" x2="362.6" y2="205.5" />
				<line fill="none" stroke="#A6A4A5" stroke-width="0.3" stroke-miterlimit="10" x1="363.7" y1="205.5"
					x2="364.8" y2="205.5" />
			</g>
		</g>
		<g>
			<g>
				<line fill="none" stroke="#A6A4A5" stroke-width="0.3" stroke-miterlimit="10" x1="41.8" y1="263.8"
					x2="42.9" y2="263.8" />

				<line fill="none" stroke="#A6A4A5" stroke-width="0.3" stroke-miterlimit="10"
					stroke-dasharray="2.212,2.212" x1="45.2" y1="263.8" x2="362.6" y2="263.8" />
				<line fill="none" stroke="#A6A4A5" stroke-width="0.3" stroke-miterlimit="10" x1="363.7" y1="263.8"
					x2="364.8" y2="263.8" />
			</g>
		</g>
		<g>
			<g>
				<line fill="none" stroke="#A6A4A5" stroke-width="0.3" stroke-miterlimit="10" x1="41.8" y1="322"
					x2="42.9" y2="322" />

				<line fill="none" stroke="#A6A4A5" stroke-width="0.3" stroke-miterlimit="10"
					stroke-dasharray="2.212,2.212" x1="45.2" y1="322" x2="362.6" y2="322" />
				<line fill="none" stroke="#A6A4A5" stroke-width="0.3" stroke-miterlimit="10" x1="363.7" y1="322"
					x2="364.8" y2="322" />
			</g>
		</g>
	</g>
	<g id="Layer_4">
		<g>
			<defs>
				<path id="SVGID_1_"
					d="M871.6,126.1h-59V99.3c0-5.9,4.8-10.6,10.6-10.6h37.8c5.9,0,10.6,4.8,10.6,10.6V126.1z" />
			</defs>
			<use xlink:href="#SVGID_1_" overflow="visible" fill="#F0AB66" />
			<clipPath id="SVGID_2_">
				<use xlink:href="#SVGID_1_" overflow="visible" />
			</clipPath>
			<rect x="812.6" y="90.6" clip-path="url(#SVGID_2_)" fill="#F0AB66" width="59" height="29.5" />
			<rect x="812.6" y="88.7" clip-path="url(#SVGID_2_)" fill="#B2BFC9" width="59" height="1.9" />
		</g>
		<rect x="8.1" y="10.2" fill="none" width="524.3" height="24.4" />
		<text transform="matrix(1 0 0 1 8.0781 26.4548)" fill="#506D85" font-family="'ITC-ITCAvantGardePro-Demi'"
			font-size="22px">POOLED ANALYSIS: ACCEPTANCE DOMAIN
			<tspan font-size="12" dx="-4" dy="-2" baseline-shift="super"
				transform="matrix(0.583 0 0 0.583 185.4307 283.0793)">
				2
			</tspan>
		</text>
		<!-- <text transform="matrix(0.583 0 0 0.583 456.9 19.1291)" fill="#506D85" font-family="'ITC-ITCAvantGardePro-Demi'" font-size="22px">2</text> -->
		<rect x="9.1" y="32.1" fill="#F6BE00" width="1089.4" height="3" />
		<rect x="713.2" y="134.3" fill="#E67300" width="59" height="245.2" />
		<rect x="613.1" y="101.7" fill="#F0AB66" width="59" height="78.5" />
		<path fill="#B9C5CE" d="M672.1,101.7h-59v-2.4c0-5.9,4.8-10.6,10.6-10.6h37.8c5.9,0,10.6,4.8,10.6,10.6V101.7z" />
		<path fill="#B9C5CE"
			d="M713.2,92.8h59l0,0c0-2.4-2-4.4-4.4-4.4h-50.3C715.2,88.4,713.2,90.3,713.2,92.8L713.2,92.8z" />
		<rect x="713.2" y="92.4" fill="#F0AB66" width="59" height="41.8" />
		<rect x="812.6" y="126.1" fill="#E67300" width="59" height="253.4" />
		<g>
			<rect x="525.5" y="84.2" fill="none" width="45.6" height="11.4" />
			<text transform="matrix(1 0 0 1 544.2974 92.3632)" fill="#6D6E70" font-family="'ITC-ITCAvantGardePro-Demi'"
				font-size="13px">100% </text>
		</g>
		<g>
			<rect x="544.6" y="142.4" fill="none" width="26.5" height="9.1" />
			<text transform="matrix(1 0 0 1 550.3921 150.5233)" fill="#6D6E70" font-family="'ITC-ITCAvantGardePro-Demi'"
				font-size="13px">80% </text>
		</g>
		<g>
			<rect x="544.6" y="200.9" fill="none" width="26.5" height="9.1" />
			<text transform="matrix(1 0 0 1 550.3921 208.9989)" fill="#6D6E70" font-family="'ITC-ITCAvantGardePro-Demi'"
				font-size="13px">60% </text>
		</g>
		<g>
			<rect x="544.6" y="258.3" fill="none" width="26.5" height="9.1" />
			<text transform="matrix(1 0 0 1 550.3921 266.4324)" fill="#6D6E70" font-family="'ITC-ITCAvantGardePro-Demi'"
				font-size="13px">40% </text>
		</g>
		<g>
			<rect x="544.6" y="317.1" fill="none" width="26.5" height="9.1" />
			<text transform="matrix(1 0 0 1 550.3921 325.2488)" fill="#6D6E70" font-family="'ITC-ITCAvantGardePro-Demi'"
				font-size="13px">20% </text>
		</g>
		<g>
			<rect x="544.6" y="375.3" fill="none" width="26.5" height="9.1" />
			<text transform="matrix(1 0 0 1 556.4858 383.4451)" fill="#6D6E70" font-family="'ITC-ITCAvantGardePro-Demi'"
				font-size="13px">0% </text>
		</g>
		<g>
			<rect x="610.3" y="390.8" fill="none" width="62.4" height="26.5" />
			<text transform="matrix(1 0 0 1 619.4631 400.8154)">
				<tspan x="0" y="0" fill="#6D6E70" font-family="'MyriadPro-Bold'" font-size="16.15px">Week 5</tspan>
				<tspan x="-0.7" y="14.1" fill="#6D6E70" font-family="'MyriadPro-Regular'" font-size="16.15px">(N=565)
				</tspan>
			</text>
		</g>
		<g>
			<rect x="711.8" y="390.8" fill="none" width="62.4" height="26.5" />
			<text transform="matrix(1 0 0 1 717.1727 400.8154)">
				<tspan x="0" y="0" fill="#6D6E70" font-family="'MyriadPro-Bold'" font-size="16.15px">Week 41</tspan>
				<tspan x="3.1" y="16.1" fill="#6D6E70" font-family="'MyriadPro-Regular'" font-size="16.15px">(N=575)
				</tspan>
			</text>
		</g>
		<g>
			<rect x="810.9" y="390.8" fill="none" width="62.4" height="26.5" />
			<text transform="matrix(1 0 0 1 816.2613 400.8154)">
				<tspan x="0" y="0" fill="#6D6E70" font-family="'MyriadPro-Bold'" font-size="16.15px">Week 48</tspan>
				<tspan x="3.1" y="14.1" fill="#6D6E70" font-family="'MyriadPro-Regular'" font-size="16.15px">(N=580)
				</tspan>
			</text>
		</g>
		<g>
			<rect x="525.5" y="144.8" fill="none" width="17" height="179.7" />
			<text transform="matrix(0 -1 1 0 536.1505 299.542)" fill="#6D6E70" font-family="'MyriadPro-Regular'"
				font-size="17px">Proportion of patients</text>
		</g>
		<g>
			<rect x="1.9" y="144.8" fill="none" width="18.5" height="179.7" />
			<text transform="matrix(0 -1 1 0 12.5552 274.3198)" fill="#6D6E70" font-family="'MyriadPro-Regular'"
				font-size="16px">Median score</text>
		</g>
		<g>
			<rect x="941.9" y="368.5" fill="none" width="155.8" height="18.2" />
			<text transform="matrix(1 0 0 1 941.9351 377.6855)" fill="#6D6E70" font-family="'MyriadPro-Regular'"
				font-size="15px">Totally/very acceptable</text>
		</g>
		<g>
			<rect x="377.6" y="308.3" fill="none" width="143.7" height="79.8" />
			<text transform="matrix(1 0 0 1 377.6407 317.5696)">
				<tspan x="0" y="0" fill="#6D6E70" font-family="'MyriadPro-Regular'" font-size="15px">1 = Totally
					acceptable</tspan>
				<tspan x="0" y="15.6" fill="#6D6E70" font-family="'MyriadPro-Regular'" font-size="15px">2 = Very
					acceptable</tspan>
				<tspan x="0" y="31.2" fill="#6D6E70" font-family="'MyriadPro-Regular'" font-size="15px">3 = Moderately
				</tspan>
				<tspan x="120.8" y="31.2" fill="#6D6E70" font-family="'MyriadPro-Regular'" font-size="15px"></tspan>
				<tspan x="23" y="46.8" fill="#6D6E70" font-family="'MyriadPro-Regular'" font-size="15px">acceptable
				</tspan>
				<tspan x="0" y="62.4" fill="#6D6E70" font-family="'MyriadPro-Regular'" font-size="15px">4 = A little
					acceptable</tspan>
			</text>
		</g>
		<g>
			<rect x="942.2" y="327.2" fill="none" width="120.7" height="18.2" />
			<text transform="matrix(1 0 0 1 942.1606 336.4576)" fill="#6D6E70" font-family="'MyriadPro-Regular'"
				font-size="15px">Not at all acceptable</text>
		</g>
		<g>
			<rect x="941.9" y="348.5" fill="none" width="164.6" height="16.8" />
			<text transform="matrix(1 0 0 1 941.9351 357.7616)" fill="#6D6E70" font-family="'MyriadPro-Regular'"
				font-size="15px">Moderately/a little acceptable</text>
		</g>
		<rect x="924" y="365.8" fill="#E67300" width="13.7" height="13.7" />
		<rect x="924" y="323.6" fill="#B9C5CE" width="13.7" height="13.7" />
		<rect x="924" y="344.7" fill="#FAAB71" width="13.7" height="13.7" />
		<rect x="613.1" y="180.4" fill="#E67300" width="59" height="199.2" />
		<rect x="614.6" y="131.3" fill="none" width="56.3" height="17" />
		<text transform="matrix(1 0 0 1 624.6371 146.0654)">
			<tspan x="0" y="0" fill="#FFFFFF" font-family="'ITC-ITCAvantGardePro-Demi'" font-size="20px">27</tspan>
			<tspan x="22.4" y="0" fill="#FFFFFF" font-family="'ITC-ITCAvantGardePro-Demi'" font-size="16px">%</tspan>
		</text>
		<rect x="614.6" y="90.4" fill="none" width="56.3" height="10.4" />
		<text transform="matrix(1 0 0 1 634.3471 100.0055)">
			<tspan x="0" y="0" fill="#FFFFFF" font-family="'ITC-ITCAvantGardePro-Demi'" font-size="13px">5</tspan>
			<tspan x="7.3" y="0" fill="#FFFFFF" font-family="'ITC-ITCAvantGardePro-Demi'" font-size="11px">%</tspan>
		</text>
		<rect x="714.2" y="104" fill="none" width="56.3" height="17" />
		<text transform="matrix(1 0 0 1 724.8156 118.7737)">
			<tspan x="0" y="0" fill="#FFFFFF" font-family="'ITC-ITCAvantGardePro-Demi'" font-size="20px">14</tspan>
			<tspan x="21.2" y="0" fill="#FFFFFF" font-family="'ITC-ITCAvantGardePro-Demi'" font-size="16px">%</tspan>
		</text>
		<rect x="714.5" y="227.8" fill="none" width="56.3" height="17" />
		<text transform="matrix(1 0 0 1 725.0938 242.559)">
			<tspan x="0" y="0" fill="#FFFFFF" font-family="'ITC-ITCAvantGardePro-Demi'" font-size="20px">85</tspan>
			<tspan x="21.2" y="0" fill="#FFFFFF" font-family="'ITC-ITCAvantGardePro-Demi'" font-size="16px">%</tspan>
		</text>
		<rect x="814" y="221.6" fill="none" width="56.3" height="17" />
		<text transform="matrix(1 0 0 1 824.6658 236.3635)">
			<tspan x="0" y="0" fill="#FFFFFF" font-family="'ITC-ITCAvantGardePro-Demi'" font-size="20px">87</tspan>
			<tspan x="21.2" y="0" fill="#FFFFFF" font-family="'ITC-ITCAvantGardePro-Demi'" font-size="16px">%</tspan>
		</text>
		<rect x="814.4" y="101.4" fill="none" width="56.3" height="17" />
		<text transform="matrix(1 0 0 1 825.0228 116.2202)">
			<tspan x="0" y="0" fill="#FFFFFF" font-family="'ITC-ITCAvantGardePro-Demi'" font-size="20px">12</tspan>
			<tspan x="21.2" y="0" fill="#FFFFFF" font-family="'ITC-ITCAvantGardePro-Demi'" font-size="16px">%</tspan>
		</text>
		<g>
			<rect x="813.9" y="77.8" fill="none" width="56.3" height="17" />
			<text transform="matrix(1 0 0 1 834.26 85.9169)" fill="#B2BFC9" font-family="'ITC-ITCAvantGardePro-Demi'"
				font-size="11px">1%</text>
		</g>
		<rect x="714.8" y="77.6" fill="none" width="56.3" height="17" />
		<text transform="matrix(1 0 0 1 734.6119 87.184)">
			<tspan x="0" y="0" fill="#B2BFC9" font-family="'ITC-ITCAvantGardePro-Demi'" font-size="13px">2</tspan>
			<tspan x="7.3" y="0" fill="#B2BFC9" font-family="'ITC-ITCAvantGardePro-Demi'" font-size="11px">%</tspan>
		</text>
		<rect x="614.6" y="262" fill="none" width="56.3" height="29.6" />
		<text transform="matrix(1 0 0 1 624.6371 276.7664)">
			<tspan x="0" y="0" fill="#FFFFFF" font-family="'ITC-ITCAvantGardePro-Demi'" font-size="20px">69</tspan>
			<tspan x="22.4" y="0" fill="#FFFFFF" font-family="'ITC-ITCAvantGardePro-Demi'" font-size="16px">%</tspan>
		</text>
	</g>
	<g id="ART">
		<path fill="#E57525" d="M128,380.4H70.4V274.3c0-5.8,4.7-10.5,10.5-10.5h36.6c5.8,0,10.5,4.7,10.5,10.5V380.4z" />
		<path fill="#E57525" d="M234,379.9h-57.6v-76.3c0-5.8,4.7-10.5,10.5-10.5h36.6c5.8,0,10.5,4.7,10.5,10.5V379.9z" />
		<path fill="#E57525" d="M340,379.9h-57.6v-76.3c0-5.8,4.7-10.5,10.5-10.5h36.6c5.8,0,10.5,4.7,10.5,10.5V379.9z" />
		<g>
			<rect x="20.6" y="84.2" fill="none" width="13.2" height="9.1" />
			<text transform="matrix(1 0 0 1 27.7579 92.3632)" fill="#6D6E70" font-family="'ITC-ITCAvantGardePro-Demi'"
				font-size="13px">5</text>
		</g>
		<g>
			<rect x="20.6" y="142.8" fill="none" width="13.2" height="9.1" />
			<text transform="matrix(1 0 0 1 27.7579 150.9199)" fill="#6D6E70" font-family="'ITC-ITCAvantGardePro-Demi'"
				font-size="13px">4</text>
		</g>
		<g>
			<rect x="20.6" y="201.3" fill="none" width="13.2" height="9.1" />
			<text transform="matrix(1 0 0 1 27.7579 209.3964)" fill="#6D6E70" font-family="'ITC-ITCAvantGardePro-Demi'"
				font-size="13px">3</text>
		</g>
		<g>
			<rect x="20.6" y="258.7" fill="none" width="13.2" height="9.1" />
			<text transform="matrix(1 0 0 1 27.7579 266.83)" fill="#6D6E70" font-family="'ITC-ITCAvantGardePro-Demi'"
				font-size="13px">2</text>
		</g>
		<g>
			<rect x="20.6" y="317.5" fill="none" width="13.2" height="9.1" />
			<text transform="matrix(1 0 0 1 27.7579 325.6464)" fill="#6D6E70" font-family="'ITC-ITCAvantGardePro-Demi'"
				font-size="13px">1</text>
		</g>
		<g>
			<rect x="20.6" y="375.7" fill="none" width="13.2" height="9.1" />
			<text transform="matrix(1 0 0 1 27.7579 383.8417)" fill="#6D6E70" font-family="'ITC-ITCAvantGardePro-Demi'"
				font-size="13px">0</text>
		</g>
		<g>
			<rect x="65.9" y="391.2" fill="none" width="62.4" height="37.5" />
			<text transform="matrix(1 0 0 1 75.0147 401.2128)">
				<tspan x="0" y="0" fill="#6D6E70" font-family="'MyriadPro-Bold'" font-size="16.15px">Week 5</tspan>
				<tspan x="-0.7" y="16.1" fill="#6D6E70" font-family="'MyriadPro-Regular'" font-size="16.15px">(N=591)
				</tspan>
			</text>
		</g>
		<g>
			<rect x="172.1" y="391.2" fill="none" width="62.4" height="37.5" />
			<text transform="matrix(1 0 0 1 177.5072 401.2128)">
				<tspan x="0" y="0" fill="#6D6E70" font-family="'MyriadPro-Bold'" font-size="16.15px">Week 41</tspan>
				<tspan x="3.1" y="16.1" fill="#6D6E70" font-family="'MyriadPro-Regular'" font-size="16.15px">(N=591)
				</tspan>
			</text>
		</g>
		<g>
			<rect x="281" y="391.2" fill="none" width="62.4" height="37.5" />
			<text transform="matrix(1 0 0 1 286.3874 401.2128)">
				<tspan x="0" y="0" fill="#6D6E70" font-family="'MyriadPro-Bold'" font-size="16.15px">Week 48</tspan>
				<tspan x="3.1" y="16.1" fill="#6D6E70" font-family="'MyriadPro-Regular'" font-size="16.15px">(N=591)
				</tspan>
			</text>
		</g>
		<rect x="75.4" y="312.9" fill="none" width="47.6" height="36.3" />
		<text transform="matrix(1 0 0 1 81.6783 331.4028)" fill="#FFFFFF" font-family="'ITC-ITCAvantGardePro-Demi'"
			font-size="25px">2.0</text>
		<rect x="180.7" y="332.6" fill="none" width="47.6" height="36.3" />
		<text transform="matrix(1 0 0 1 187.0204 351.1472)" fill="#FFFFFF" font-family="'ITC-ITCAvantGardePro-Demi'"
			font-size="25px">1.5</text>
		<rect x="285.4" y="332.6" fill="none" width="47.6" height="36.3" />
		<text transform="matrix(1 0 0 1 291.6799 351.1472)" fill="#FFFFFF" font-family="'ITC-ITCAvantGardePro-Demi'"
			font-size="25px">1.5</text>
		<g>
			<text transform="matrix(1 0 0 1 510.6281 61.8885)" fill="#6D6E70" font-family="'MyriadPro-Bold'"
				font-size="15px">Mean Proportion of Patient Responses to Acceptance Domain Questions</text>
		</g>
		<g>
			<text transform="matrix(1 0 0 1 118.7751 61.8887)" fill="#6D6E70" font-family="'MyriadPro-Bold'"
				font-size="16px">Domain score: acceptance</text>
		</g>
	</g>
</svg>