<svg title="dosingSchedule-graphic" version="1.1" id="Layer_1" xmlns="http://www.w3.org/2000/svg" xmlns:xlink="http://www.w3.org/1999/xlink" x="0px"
y="0px" viewBox="0 0 1039.25 231.74" enable-background="new 0 0 1039.25 231.74" xml:space="preserve">
<path fill="#738A9D" d="M674.02,11.14l-6.49-10.12C667.12,0.39,666.41,0,665.65,0H305.72c0.76,0,1.47,0.39,1.88,1.03l6.49,10.12
                       c0.47,0.73,0.47,1.67,0,2.41l-6.49,10.12c-0.41,0.64-1.12,1.03-1.88,1.03h359.93c0.76,0,1.47-0.39,1.88-1.03l6.49-10.12
                       C674.49,12.82,674.49,11.88,674.02,11.14z" />
<line fill="none" stroke="#58595B" stroke-width="0.2189" stroke-miterlimit="10" x1="669.36" y1="199.84" x2="669.36"
    y2="30.55" />
<polyline fill="none" stroke="#58595B" stroke-width="0.2189" stroke-miterlimit="10" points="300.27,199.84 300.27,116.33
                       300.27,32.82 " />
<polyline fill="none" stroke="#58595B" stroke-width="0.2287" stroke-miterlimit="10" points="1036.65,199.84 1036.65,118
                       1036.65,36.16 " />
<polyline fill="none" stroke="#58595B" stroke-width="0.2287" stroke-miterlimit="10"
    points="3.89,199.84 3.89,118 3.89,36.16 " />
<line fill="none" stroke="#FFFFFF" stroke-width="0.463" stroke-miterlimit="10" x1="148.99" y1="30.55" x2="152.35"
    y2="27.19" />
<text transform="matrix(1 0 0 1 21.0054 173.6635)">
    <tspan x="0" y="0" fill="#4D4D4F" font-family="'MyriadPro-Regular'" font-size="16.866px">Cabotegravir </tspan>
    <tspan x="-9.73" y="20.24" fill="#4D4D4F" font-family="'MyriadPro-Regular'" font-size="16.866px">1 x 30-mg
        tablet</tspan>
</text>
<text transform="matrix(1 0 0 1 192.3341 173.6637)">
    <tspan x="0" y="0" fill="#4D4D4F" font-family="'MyriadPro-Regular'" font-size="16.866px">Rilpivirine </tspan>
    <tspan x="-20.52" y="20.24" fill="#4D4D4F" font-family="'MyriadPro-Regular'" font-size="16.866px">1 x 25-mg
        tablet</tspan>
</text>
<text transform="matrix(1 0 0 1 213.2715 164.692)" fill="#4D4D4F" font-family="'MyriadPro-Regular'"
    font-size="16.866px"> </text>
<text transform="matrix(1 0 0 1 103.9733 50.2257)">
    <tspan x="0" y="0" fill="#58595B" font-family="'ITC-ITCAvantGardePro-Bold'" font-size="16px">Oral lead-in
    </tspan>
    <tspan x="-17.92" y="19.2" fill="#4D4D4F" font-family="'MyriadPro-Regular'" font-size="16px">To assess
        tolerability </tspan>
</text>
<g>
    <g>
        <path fill="#FFFFFF" d="M68.52,141.36c16.97,0,30.73-13.76,30.73-30.73c0-16.97-13.76-30.73-30.73-30.73s-30.73,13.76-30.73,30.73
                               C37.78,127.6,51.54,141.36,68.52,141.36" />
        <path fill="none" stroke="#E67300" stroke-width="2.466"
            d="M68.52,141.36c16.97,0,30.73-13.76,30.73-30.73
                               c0-16.97-13.76-30.73-30.73-30.73s-30.73,13.76-30.73,30.73C37.78,127.6,51.54,141.36,68.52,141.36z" />
        <path fill="none" stroke="#F6BE00" stroke-width="0.7"
            d="M68.52,145.75c19.4,0,35.13-15.73,35.13-35.13
                               c0-19.4-15.73-35.12-35.13-35.12s-35.13,15.73-35.13,35.12C33.39,130.03,49.12,145.75,68.52,145.75z" />
    </g>
</g>
<g>
    <g>
        <path fill="none" stroke="#F6BE00" stroke-width="2.466"
            d="M229.06,141.36c16.97,0,30.73-13.76,30.73-30.73
                               c0-16.97-13.76-30.73-30.73-30.73s-30.73,13.76-30.73,30.73C198.32,127.6,212.09,141.36,229.06,141.36z" />
        <path fill="none" stroke="#F6BE00" stroke-width="0.7"
            d="M229.06,145.75c19.4,0,35.13-15.73,35.13-35.13
                               c0-19.4-15.73-35.12-35.13-35.12s-35.13,15.73-35.13,35.12C193.93,130.03,209.66,145.75,229.06,145.75z" />
        <path fill="none" stroke="#F6BE00" stroke-width="1.752" stroke-miterlimit="10" d="M243.93,107.22c0,4.54-6.64,8.21-14.84,8.21
                               c-8.19,0-14.83-3.68-14.83-8.21c0-4.54,6.64-8.21,14.83-8.21C237.29,99.01,243.93,102.69,243.93,107.22z M214.29,106.87
                               l-0.11,7.17c0,4.54,6.64,8.21,14.84,8.21c8.19,0,14.83-3.68,14.83-8.21l0.08-6.81" />
    </g>
</g>
<path fill="none" stroke="#FFFFFF" stroke-width="0.847" d="M7.28,127.9" />
<g>
    <text transform="matrix(1 0 0 1 413.4219 50.2257)">
        <tspan x="0" y="0" fill="#58595B" font-family="'ITC-ITCAvantGardePro-Bold'" font-size="16px">Initiation
            injections </tspan>
        <tspan x="-5.54" y="19.2" fill="#4D4D4F" font-family="'MyriadPro-Regular'" font-size="16px">On last day of
            oral lead-in</tspan>
    </text>
</g>
<text transform="matrix(1 0 0 1 346.1524 173.6637)">
    <tspan x="0" y="0" fill="#4D4D4F" font-family="'MyriadPro-Regular'" font-size="16.866px">LA cabotegravir
    </tspan>
    <tspan x="10.79" y="20.24" fill="#4D4D4F" font-family="'MyriadPro-Regular'" font-size="16.866px">600 mg/3 mL
    </tspan>
</text>
<text transform="matrix(1 0 0 1 531.8763 173.6637)">
    <tspan x="0" y="0" fill="#4D4D4F" font-family="'MyriadPro-Regular'" font-size="16.866px">LA rilpivirine </tspan>
    <tspan x="-0.66" y="20.24" fill="#4D4D4F" font-family="'MyriadPro-Regular'" font-size="16.866px">900 mg/3 mL
    </tspan>
</text>
<g>
    <text transform="matrix(1 0 0 1 767.2573 50.2257)" fill="#58595B" font-family="'ITC-ITCAvantGardePro-Bold'"
        font-size="16px">Continuation injections</text>
</g>
<g>
    <g>
        <path fill="#506D85" d="M771.66,141.36c16.97,0,30.73-13.76,30.73-30.73c0-16.97-13.76-30.73-30.73-30.73
                               c-16.97,0-30.73,13.76-30.73,30.73C740.92,127.6,754.68,141.36,771.66,141.36" />
        <path fill="none" stroke="#F6BE00" stroke-width="0.7"
            d="M771.66,145.75c19.4,0,35.13-15.73,35.13-35.13
                               c0-19.4-15.73-35.12-35.13-35.12c-19.4,0-35.13,15.73-35.13,35.12C736.53,130.03,752.26,145.75,771.66,145.75z" />
        <path fill="#FFFFFF" d="M788.01,99.74c-0.2,0.2-0.37,0.35-0.51,0.52c-0.15,0.17-0.26,0.16-0.41,0c-0.37-0.42-0.74-0.85-1.14-1.24
                               c-1.19-1.17-2.4-2.33-3.59-3.49c-0.44-0.43-0.44-0.44-0.01-0.86c0.29-0.29,0.29-0.29,0.58-0.01c1.62,1.62,3.24,3.24,4.86,4.86
                               C787.85,99.58,787.92,99.64,788.01,99.74 M783.36,105.41c0.72,0.72,1.43,1.43,2.15,2.15c0.29,0.29,0.29,0.53,0.01,0.81
                               c-0.33,0.33-0.54,0.34-0.85,0.04c-0.64-0.63-1.27-1.27-1.91-1.91c-0.27-0.27-0.27-0.27-0.54,0c-5.62,5.62-11.23,11.24-16.85,16.85
                               c-0.06,0.06-0.12,0.14-0.19,0.18c-0.11,0.07-0.22,0.13-0.35,0.16c-0.3,0.07-0.5-0.12-0.68-0.3c-0.5-0.48-0.99-0.98-1.48-1.48
                               c-0.29-0.29-0.29-0.29-0.57-0.01c-0.62,0.62-1.25,1.24-1.86,1.88c-0.18,0.19-0.29,0.18-0.46-0.01c-0.36-0.39-0.74-0.75-1.12-1.13
                               c-0.28-0.28-0.28-0.28-0.01-0.55c0.64-0.64,1.27-1.28,1.91-1.9c0.15-0.15,0.14-0.24,0-0.38c-0.52-0.51-1.03-1.05-1.56-1.55
                               c-0.34-0.32-0.3-0.95,0-1.24c0.84-0.81,1.65-1.64,2.48-2.46c0.26-0.26,0.26-0.26,0.51,0c0.92,0.92,1.83,1.83,2.75,2.75
                               c0.24,0.24,0.24,0.24,0.49-0.01c0.13-0.13,0.25-0.27,0.4-0.39c0.2-0.16,0.18-0.28,0-0.46c-0.94-0.93-1.87-1.87-2.81-2.8
                               c-0.16-0.16-0.18-0.27,0-0.43c0.37-0.34,0.72-0.7,1.06-1.07c0.17-0.19,0.29-0.16,0.45,0c0.5,0.52,1.02,1.02,1.53,1.54
                               c0.14,0.14,0.23,0.15,0.36,0c0.15-0.17,0.31-0.34,0.49-0.49c0.16-0.14,0.17-0.25,0.01-0.4c-0.52-0.5-1.02-1.03-1.54-1.53
                               c-0.17-0.16-0.16-0.27,0.01-0.43c0.35-0.33,0.68-0.67,1.01-1.01c0.27-0.27,0.27-0.27,0.53,0c0.92,0.92,1.85,1.84,2.76,2.77
                               c0.18,0.18,0.29,0.18,0.44-0.01c0.13-0.16,0.27-0.3,0.43-0.43c0.2-0.16,0.17-0.27,0-0.44c-0.95-0.94-1.88-1.88-2.83-2.82
                               c-0.15-0.15-0.17-0.25,0-0.41c0.36-0.34,0.72-0.7,1.06-1.07c0.18-0.19,0.29-0.18,0.47,0c0.5,0.52,1.02,1.02,1.53,1.54
                               c0.13,0.13,0.22,0.14,0.34,0c0.15-0.17,0.31-0.34,0.49-0.49c0.17-0.15,0.18-0.26,0.01-0.42c-0.52-0.5-1.02-1.02-1.54-1.53
                               c-0.16-0.15-0.15-0.26,0-0.41c0.35-0.33,0.69-0.68,1.03-1.03c0.26-0.26,0.26-0.26,0.51,0c0.93,0.93,1.86,1.85,2.78,2.79
                               c0.17,0.17,0.27,0.17,0.42-0.01c0.12-0.15,0.26-0.29,0.41-0.41c0.18-0.15,0.16-0.26,0-0.42c-0.94-0.92-1.86-1.85-2.79-2.78
                               c-0.25-0.25-0.25-0.25-0.01-0.5c1.23-1.23,2.45-2.46,3.69-3.68c0.18-0.18,0.19-0.28,0.01-0.46c-0.65-0.63-1.28-1.27-1.91-1.9
                               c-0.16-0.16-0.26-0.33-0.2-0.56c0.16-0.59,0.75-0.6,1.1-0.24c1.37,1.41,2.77,2.79,4.16,4.18c0.27,0.27,0.27,0.27,0.52,0.01
                               c1.09-1.08,2.17-2.17,3.25-3.26c0.16-0.17,0.28-0.16,0.43,0c0.4,0.41,0.8,0.82,1.22,1.22c0.17,0.16,0.16,0.26-0.01,0.43
                               c-1.11,1.1-2.21,2.21-3.32,3.3c-0.17,0.16-0.16,0.26,0,0.42C781.92,103.96,782.64,104.69,783.36,105.41 M766.41,108.32
                               c-2.71,2.71-5.42,5.41-8.11,8.12c-0.2,0.2-0.39,0.45-0.47,0.71c-0.17,0.58-0.06,1.14,0.39,1.59c0.3,0.3,0.6,0.6,0.9,0.9
                               c0.33,0.33,0.33,0.33-0.01,0.67c-0.43,0.43-0.86,0.84-1.27,1.28c-0.16,0.18-0.26,0.42-0.37,0.64c-0.13,0.27,0,0.52,0.17,0.7
                               c0.6,0.63,1.21,1.25,1.85,1.86c0.35,0.34,0.91,0.27,1.3-0.12c0.48-0.48,0.96-0.96,1.44-1.44c0.22-0.22,0.26-0.22,0.49,0.01
                               c0.33,0.33,0.65,0.67,1,0.99c0.32,0.3,0.67,0.47,1.16,0.43c0.47-0.04,0.8-0.21,1.12-0.53c5.36-5.37,10.73-10.74,16.1-16.11
                               c0.07-0.07,0.15-0.15,0.22-0.22c0.15-0.13,0.28-0.15,0.43,0.01c0.44,0.45,0.91,0.87,1.32,1.33c0.59,0.66,1.87,0.52,2.35-0.26
                               c0.35-0.56,0.26-1.51-0.21-1.95c-1.22-1.16-2.39-2.37-3.58-3.56c-0.26-0.26-0.26-0.28-0.01-0.53c0.88-0.88,1.76-1.76,2.64-2.64
                               c0.24-0.24,0.27-0.24,0.51-0.01c0.29,0.29,0.57,0.57,0.86,0.86c0.43,0.43,0.89,0.5,1.35,0.13c0.35-0.28,0.64-0.63,0.92-0.97
                               c0.19-0.24,0.13-0.79-0.07-1.03c-0.09-0.1-0.18-0.2-0.27-0.29c-1.7-1.7-3.41-3.38-5.08-5.1c-0.5-0.51-1.18-0.48-1.62,0.02
                               c-0.17,0.19-0.36,0.36-0.54,0.55c-0.42,0.45-0.42,0.96,0.02,1.4c0.31,0.32,0.63,0.64,0.96,0.95c0.15,0.14,0.15,0.26,0.01,0.4
                               c-0.92,0.92-1.85,1.85-2.77,2.77c-0.18,0.18-0.31,0.08-0.45-0.06c-1.2-1.2-2.4-2.39-3.59-3.6c-0.25-0.25-0.53-0.4-0.86-0.46
                               c-0.71-0.12-1.47,0.35-1.7,1.04c-0.2,0.6-0.07,1.12,0.38,1.56c0.43,0.43,0.85,0.87,1.29,1.29c0.19,0.18,0.18,0.29,0,0.47
                               C771.87,102.85,769.14,105.59,766.41,108.32" />
    </g>
    <line fill="none" stroke="#FFFFFF" stroke-width="0.65" stroke-miterlimit="10" x1="753.9" y1="128.64" x2="758.62"
        y2="123.93" />
</g>
<text transform="matrix(1 0 0 1 714.3306 173.6638)">
    <tspan x="0" y="0" fill="#4D4D4F" font-family="'MyriadPro-Regular'" font-size="16.866px">LA cabotegravir
    </tspan>
    <tspan x="10.79" y="20.24" fill="#4D4D4F" font-family="'MyriadPro-Regular'" font-size="16.866px">400 mg/2 mL
    </tspan>
</text>
<text transform="matrix(1 0 0 1 898.2886 173.6637)">
    <tspan x="0" y="0" fill="#4D4D4F" font-family="'MyriadPro-Regular'" font-size="16.866px">LA rilpivirine </tspan>
    <tspan x="-0.66" y="20.24" fill="#4D4D4F" font-family="'MyriadPro-Regular'" font-size="16.866px">600 mg/2 mL
    </tspan>
</text>
<path fill="#A7B6C2" d="M292.62,0H0v24.69h292.62c0.76,0,1.47-0.39,1.88-1.03l6.49-10.12c0.47-0.73,0.47-1.67,0-2.41l-6.49-10.12
                       C294.08,0.39,293.38,0,292.62,0z" />
<path fill="#506D85" d="M1038.9,11.14l-6.49-10.12C1032,0.39,1031.29,0,1030.53,0H680.6c0.76,0,1.47,0.39,1.88,1.03l6.49,10.12
                       c0.47,0.73,0.47,1.67,0,2.41l-6.49,10.12c-0.41,0.64-1.12,1.03-1.88,1.03h349.93c0.76,0,1.47-0.39,1.88-1.03l6.49-10.12
                       C1039.37,12.82,1039.37,11.88,1038.9,11.14z" />
<g>
    <text transform="matrix(1 0 0 1 787.6182 18.3205)" fill="#FFFFFF" font-family="'ITC-ITCAvantGardePro-Demi'"
        font-size="14px">Month 3 and beyond</text>
</g>
<g>
    <text transform="matrix(1 0 0 1 398.2054 18.3205)" fill="#FFFFFF" font-family="'ITC-ITCAvantGardePro-Demi'"
        font-size="14px">Month 2 (one-time dosing)</text>
</g>
<g>
    <text transform="matrix(1 0 0 1 61.5608 18.3201)" fill="#FFFFFF" font-family="'ITC-ITCAvantGardePro-Demi'"
        font-size="14px">Month 1 (at least 28 days)</text>
</g>
<rect x="3.7" y="206.49" fill="#A7B6C2" width="297.38" height="25.25" />
<path fill="#506D85" d="M1030.49,231.74H300.22v-25.25h738.27v17.25C1038.49,228.16,1034.91,231.74,1030.49,231.74z" />
<text transform="matrix(1 0 0 1 357.831 225.0915)" fill="#FFFFFF" font-family="'ITC-ITCAvantGardePro-Demi'"
    font-size="14px">2 IM injections at separate gluteal sites (opposite sides or 2 cm apart) during same visit
</text>
<text transform="matrix(0.583 0 0 0.583 943.4819 220.4294)" fill="#FFFFFF" font-family="'ITC-ITCAvantGardePro-Demi'"
    font-size="14px">1</text>
<g>
    <text transform="matrix(1 0 0 1 41.0538 225.1277)" fill="#FFFFFF" font-family="'ITC-ITCAvantGardePro-Demi'"
        font-size="14px">2 tablets once daily with meal</text>

    <text transform="matrix(0.583 0 0 0.583 245 220.4656)" fill="#FFFFFF" font-family="'ITC-ITCAvantGardePro-Demi'"
        font-size="14px">1</text>
</g>
<g>
    <g>
        <path fill="#9898A0" d="M944.16,142.98c17.87,0,32.35-14.48,32.35-32.35s-14.48-32.35-32.35-32.35
                               c-17.87,0-32.35,14.48-32.35,32.35S926.3,142.98,944.16,142.98" />
        <path fill="none" stroke="#F6BE00" stroke-width="0.7"
            d="M944.16,145.75c19.4,0,35.13-15.73,35.13-35.13
                               c0-19.4-15.73-35.12-35.13-35.12c-19.4,0-35.13,15.73-35.13,35.12C909.04,130.03,924.76,145.75,944.16,145.75z" />
        <path fill="#FFFFFF" d="M960.52,99.74c-0.2,0.2-0.37,0.35-0.52,0.52c-0.15,0.17-0.26,0.16-0.41,0c-0.37-0.42-0.74-0.85-1.14-1.24
                               c-1.19-1.17-2.4-2.33-3.59-3.49c-0.44-0.43-0.44-0.44-0.01-0.86c0.29-0.29,0.29-0.29,0.58-0.01c1.62,1.62,3.24,3.24,4.86,4.86
                               C960.36,99.58,960.42,99.64,960.52,99.74 M955.86,105.41c0.72,0.72,1.43,1.43,2.15,2.15c0.29,0.29,0.29,0.53,0.01,0.81
                               c-0.33,0.33-0.54,0.34-0.85,0.04c-0.64-0.63-1.27-1.27-1.91-1.91c-0.27-0.27-0.27-0.27-0.54,0c-5.62,5.62-11.24,11.24-16.85,16.85
                               c-0.06,0.06-0.12,0.14-0.19,0.18c-0.11,0.07-0.22,0.13-0.35,0.16c-0.3,0.07-0.5-0.12-0.68-0.3c-0.5-0.48-0.99-0.98-1.48-1.48
                               c-0.29-0.29-0.29-0.29-0.57-0.01c-0.62,0.62-1.25,1.24-1.86,1.88c-0.18,0.19-0.29,0.18-0.46-0.01c-0.36-0.39-0.74-0.75-1.12-1.13
                               c-0.28-0.28-0.28-0.28-0.01-0.55c0.64-0.64,1.27-1.28,1.91-1.9c0.15-0.15,0.14-0.24,0-0.38c-0.52-0.51-1.03-1.05-1.56-1.55
                               c-0.34-0.32-0.3-0.95,0-1.24c0.84-0.81,1.65-1.64,2.48-2.46c0.26-0.26,0.26-0.26,0.51,0c0.92,0.92,1.83,1.83,2.75,2.75
                               c0.24,0.24,0.24,0.24,0.49-0.01c0.13-0.13,0.25-0.27,0.4-0.39c0.2-0.16,0.18-0.28,0-0.46c-0.94-0.93-1.87-1.87-2.81-2.8
                               c-0.16-0.16-0.18-0.27,0-0.43c0.37-0.34,0.72-0.7,1.06-1.07c0.17-0.19,0.29-0.16,0.45,0c0.5,0.52,1.02,1.02,1.53,1.54
                               c0.14,0.14,0.23,0.15,0.36,0c0.15-0.17,0.31-0.34,0.49-0.49c0.16-0.14,0.17-0.25,0.01-0.4c-0.52-0.5-1.02-1.03-1.54-1.53
                               c-0.17-0.16-0.16-0.27,0.01-0.43c0.35-0.33,0.68-0.67,1.01-1.01c0.27-0.27,0.27-0.27,0.53,0c0.92,0.92,1.85,1.84,2.76,2.77
                               c0.18,0.18,0.29,0.18,0.44-0.01c0.13-0.16,0.27-0.3,0.43-0.43c0.2-0.16,0.17-0.27,0-0.44c-0.95-0.94-1.88-1.88-2.83-2.82
                               c-0.15-0.15-0.17-0.25,0-0.41c0.36-0.34,0.72-0.7,1.06-1.07c0.18-0.19,0.29-0.18,0.47,0c0.5,0.52,1.02,1.02,1.53,1.54
                               c0.13,0.13,0.22,0.14,0.34,0c0.15-0.17,0.31-0.34,0.49-0.49s0.18-0.26,0.01-0.42c-0.52-0.5-1.02-1.02-1.54-1.53
                               c-0.16-0.15-0.15-0.26,0-0.41c0.35-0.33,0.69-0.68,1.03-1.03c0.26-0.26,0.26-0.26,0.51,0c0.93,0.93,1.86,1.85,2.78,2.79
                               c0.17,0.17,0.27,0.17,0.42-0.01c0.12-0.15,0.26-0.29,0.41-0.41c0.18-0.15,0.16-0.26,0-0.42c-0.94-0.92-1.86-1.85-2.79-2.78
                               c-0.25-0.25-0.25-0.25-0.01-0.5c1.23-1.23,2.45-2.46,3.69-3.68c0.18-0.18,0.19-0.28,0.01-0.46c-0.65-0.63-1.28-1.27-1.91-1.9
                               c-0.16-0.16-0.26-0.33-0.2-0.56c0.16-0.59,0.75-0.6,1.1-0.24c1.37,1.41,2.77,2.79,4.16,4.18c0.27,0.27,0.27,0.27,0.52,0.01
                               c1.09-1.08,2.17-2.17,3.25-3.26c0.16-0.17,0.28-0.16,0.43,0c0.4,0.41,0.8,0.82,1.22,1.22c0.17,0.16,0.16,0.26-0.01,0.43
                               c-1.11,1.1-2.21,2.21-3.32,3.3c-0.17,0.16-0.16,0.26,0,0.42C954.42,103.96,955.14,104.69,955.86,105.41 M938.92,108.32
                               c-2.71,2.71-5.42,5.41-8.11,8.12c-0.2,0.2-0.39,0.45-0.47,0.71c-0.17,0.58-0.06,1.14,0.39,1.59c0.3,0.3,0.6,0.6,0.9,0.9
                               c0.33,0.33,0.33,0.33-0.01,0.67c-0.43,0.43-0.86,0.84-1.27,1.28c-0.16,0.18-0.26,0.42-0.37,0.64c-0.13,0.27,0,0.52,0.17,0.7
                               c0.6,0.63,1.21,1.25,1.85,1.86c0.35,0.34,0.91,0.27,1.3-0.12c0.48-0.48,0.96-0.96,1.44-1.44c0.22-0.22,0.26-0.22,0.49,0.01
                               c0.33,0.33,0.65,0.67,1,0.99c0.32,0.3,0.67,0.47,1.16,0.43c0.47-0.04,0.8-0.21,1.12-0.53c5.36-5.37,10.73-10.74,16.1-16.11
                               c0.07-0.07,0.15-0.15,0.22-0.22c0.15-0.13,0.28-0.15,0.43,0.01c0.44,0.45,0.91,0.87,1.32,1.33c0.59,0.66,1.87,0.52,2.35-0.26
                               c0.35-0.56,0.26-1.51-0.21-1.95c-1.22-1.16-2.39-2.37-3.58-3.56c-0.26-0.26-0.26-0.28-0.01-0.53c0.88-0.88,1.76-1.76,2.64-2.64
                               c0.24-0.24,0.27-0.24,0.51-0.01c0.29,0.29,0.57,0.57,0.86,0.86c0.43,0.43,0.89,0.5,1.35,0.13c0.35-0.28,0.64-0.63,0.92-0.97
                               c0.19-0.24,0.13-0.79-0.07-1.03c-0.09-0.1-0.18-0.2-0.27-0.29c-1.7-1.7-3.41-3.38-5.08-5.1c-0.5-0.51-1.18-0.48-1.62,0.02
                               c-0.17,0.19-0.36,0.36-0.54,0.55c-0.42,0.45-0.42,0.96,0.02,1.4c0.31,0.32,0.63,0.64,0.96,0.95c0.15,0.14,0.15,0.26,0.01,0.4
                               c-0.92,0.92-1.85,1.85-2.77,2.77c-0.18,0.18-0.31,0.08-0.45-0.06c-1.2-1.2-2.4-2.39-3.59-3.6c-0.25-0.25-0.53-0.4-0.86-0.46
                               c-0.71-0.12-1.47,0.35-1.7,1.04c-0.2,0.6-0.07,1.12,0.38,1.56c0.43,0.43,0.85,0.87,1.29,1.29c0.19,0.18,0.18,0.29,0,0.47
                               C944.38,102.86,941.65,105.59,938.92,108.32" />
        <path fill="none" stroke="#FFFFFF" stroke-width="0.65" stroke-miterlimit="10"
            d="M960.52,99.74c-0.2,0.2-0.37,0.35-0.52,0.52
                               c-0.15,0.17-0.26,0.16-0.41,0c-0.37-0.42-0.74-0.85-1.14-1.24c-1.19-1.17-2.4-2.33-3.59-3.49c-0.44-0.43-0.44-0.44-0.01-0.86
                               c0.29-0.29,0.29-0.29,0.58-0.01c1.62,1.62,3.24,3.24,4.86,4.86C960.36,99.58,960.42,99.64,960.52,99.74z M955.86,105.41
                               c0.72,0.72,1.43,1.43,2.15,2.15c0.29,0.29,0.29,0.53,0.01,0.81c-0.33,0.33-0.54,0.34-0.85,0.04c-0.64-0.63-1.27-1.27-1.91-1.91
                               c-0.27-0.27-0.27-0.27-0.54,0c-5.62,5.62-11.24,11.24-16.85,16.85c-0.06,0.06-0.12,0.14-0.19,0.18c-0.11,0.07-0.22,0.13-0.35,0.16
                               c-0.3,0.07-0.5-0.12-0.68-0.3c-0.5-0.48-0.99-0.98-1.48-1.48c-0.29-0.29-0.29-0.29-0.57-0.01c-0.62,0.62-1.25,1.24-1.86,1.88
                               c-0.18,0.19-0.29,0.18-0.46-0.01c-0.36-0.39-0.74-0.75-1.12-1.13c-0.28-0.28-0.28-0.28-0.01-0.55c0.64-0.64,1.27-1.28,1.91-1.9
                               c0.15-0.15,0.14-0.24,0-0.38c-0.52-0.51-1.03-1.05-1.56-1.55c-0.34-0.32-0.3-0.95,0-1.24c0.84-0.81,1.65-1.64,2.48-2.46
                               c0.26-0.26,0.26-0.26,0.51,0c0.92,0.92,1.83,1.83,2.75,2.75c0.24,0.24,0.24,0.24,0.49-0.01c0.13-0.13,0.25-0.27,0.4-0.39
                               c0.2-0.16,0.18-0.28,0-0.46c-0.94-0.93-1.87-1.87-2.81-2.8c-0.16-0.16-0.18-0.27,0-0.43c0.37-0.34,0.72-0.7,1.06-1.07
                               c0.17-0.19,0.29-0.16,0.45,0c0.5,0.52,1.02,1.02,1.53,1.54c0.14,0.14,0.23,0.15,0.36,0c0.15-0.17,0.31-0.34,0.49-0.49
                               c0.16-0.14,0.17-0.25,0.01-0.4c-0.52-0.5-1.02-1.03-1.54-1.53c-0.17-0.16-0.16-0.27,0.01-0.43c0.35-0.33,0.68-0.67,1.01-1.01
                               c0.27-0.27,0.27-0.27,0.53,0c0.92,0.92,1.85,1.84,2.76,2.77c0.18,0.18,0.29,0.18,0.44-0.01c0.13-0.16,0.27-0.3,0.43-0.43
                               c0.2-0.16,0.17-0.27,0-0.44c-0.95-0.94-1.88-1.88-2.83-2.82c-0.15-0.15-0.17-0.25,0-0.41c0.36-0.34,0.72-0.7,1.06-1.07
                               c0.18-0.19,0.29-0.18,0.47,0c0.5,0.52,1.02,1.02,1.53,1.54c0.13,0.13,0.22,0.14,0.34,0c0.15-0.17,0.31-0.34,0.49-0.49
                               s0.18-0.26,0.01-0.42c-0.52-0.5-1.02-1.02-1.54-1.53c-0.16-0.15-0.15-0.26,0-0.41c0.35-0.33,0.69-0.68,1.03-1.03
                               c0.26-0.26,0.26-0.26,0.51,0c0.93,0.93,1.86,1.85,2.78,2.79c0.17,0.17,0.27,0.17,0.42-0.01c0.12-0.15,0.26-0.29,0.41-0.41
                               c0.18-0.15,0.16-0.26,0-0.42c-0.94-0.92-1.86-1.85-2.79-2.78c-0.25-0.25-0.25-0.25-0.01-0.5c1.23-1.23,2.45-2.46,3.69-3.68
                               c0.18-0.18,0.19-0.28,0.01-0.46c-0.65-0.63-1.28-1.27-1.91-1.9c-0.16-0.16-0.26-0.33-0.2-0.56c0.16-0.59,0.75-0.6,1.1-0.24
                               c1.37,1.41,2.77,2.79,4.16,4.18c0.27,0.27,0.27,0.27,0.52,0.01c1.09-1.08,2.17-2.17,3.25-3.26c0.16-0.17,0.28-0.16,0.43,0
                               c0.4,0.41,0.8,0.82,1.22,1.22c0.17,0.16,0.16,0.26-0.01,0.43c-1.11,1.1-2.21,2.21-3.32,3.3c-0.17,0.16-0.16,0.26,0,0.42
                               C954.42,103.96,955.14,104.69,955.86,105.41z M938.92,108.32c-2.71,2.71-5.42,5.41-8.11,8.12c-0.2,0.2-0.39,0.45-0.47,0.71
                               c-0.17,0.58-0.06,1.14,0.39,1.59c0.3,0.3,0.6,0.6,0.9,0.9c0.33,0.33,0.33,0.33-0.01,0.67c-0.43,0.43-0.86,0.84-1.27,1.28
                               c-0.16,0.18-0.26,0.42-0.37,0.64c-0.13,0.27,0,0.52,0.17,0.7c0.6,0.63,1.21,1.25,1.85,1.86c0.35,0.34,0.91,0.27,1.3-0.12
                               c0.48-0.48,0.96-0.96,1.44-1.44c0.22-0.22,0.26-0.22,0.49,0.01c0.33,0.33,0.65,0.67,1,0.99c0.32,0.3,0.67,0.47,1.16,0.43
                               c0.47-0.04,0.8-0.21,1.12-0.53c5.36-5.37,10.73-10.74,16.1-16.11c0.07-0.07,0.15-0.15,0.22-0.22c0.15-0.13,0.28-0.15,0.43,0.01
                               c0.44,0.45,0.91,0.87,1.32,1.33c0.59,0.66,1.87,0.52,2.35-0.26c0.35-0.56,0.26-1.51-0.21-1.95c-1.22-1.16-2.39-2.37-3.58-3.56
                               c-0.26-0.26-0.26-0.28-0.01-0.53c0.88-0.88,1.76-1.76,2.64-2.64c0.24-0.24,0.27-0.24,0.51-0.01c0.29,0.29,0.57,0.57,0.86,0.86
                               c0.43,0.43,0.89,0.5,1.35,0.13c0.35-0.28,0.64-0.63,0.92-0.97c0.19-0.24,0.13-0.79-0.07-1.03c-0.09-0.1-0.18-0.2-0.27-0.29
                               c-1.7-1.7-3.41-3.38-5.08-5.1c-0.5-0.51-1.18-0.48-1.62,0.02c-0.17,0.19-0.36,0.36-0.54,0.55c-0.42,0.45-0.42,0.96,0.02,1.4
                               c0.31,0.32,0.63,0.64,0.96,0.95c0.15,0.14,0.15,0.26,0.01,0.4c-0.92,0.92-1.85,1.85-2.77,2.77c-0.18,0.18-0.31,0.08-0.45-0.06
                               c-1.2-1.2-2.4-2.39-3.59-3.6c-0.25-0.25-0.53-0.4-0.86-0.46c-0.71-0.12-1.47,0.35-1.7,1.04c-0.2,0.6-0.07,1.12,0.38,1.56
                               c0.43,0.43,0.85,0.87,1.29,1.29c0.19,0.18,0.18,0.29,0,0.47C944.38,102.86,941.65,105.59,938.92,108.32z" />
    </g>
    <text transform="matrix(1 0 0 1 926.5703 109.4498)" fill="#4D4D4F" font-family="'MyriadPro-Regular'"
        font-size="15px"> </text>
    <line fill="none" stroke="#FFFFFF" stroke-width="0.65" stroke-miterlimit="10" x1="925.88" y1="128.64"
        x2="930.59" y2="123.93" />
</g>
<g>
    <g>
        <path fill="#F6BE00" d="M573.23,142.98c17.87,0,32.35-14.48,32.35-32.35s-14.48-32.35-32.35-32.35
                               c-17.87,0-32.35,14.48-32.35,32.35S555.36,142.98,573.23,142.98" />
        <path fill="none" stroke="#F6BE00" stroke-width="0.7"
            d="M573.23,145.75c19.4,0,35.13-15.73,35.13-35.13
                               c0-19.4-15.73-35.12-35.13-35.12c-19.4,0-35.13,15.73-35.13,35.12C538.1,130.03,553.83,145.75,573.23,145.75z" />
        <path fill="#FFFFFF" d="M589.58,99.74c-0.2,0.2-0.37,0.35-0.51,0.52c-0.15,0.17-0.26,0.16-0.41,0c-0.37-0.42-0.74-0.85-1.14-1.24
                               c-1.19-1.17-2.4-2.33-3.59-3.49c-0.44-0.43-0.44-0.44-0.01-0.86c0.29-0.29,0.29-0.29,0.58-0.01c1.62,1.62,3.24,3.24,4.86,4.86
                               C589.42,99.58,589.48,99.64,589.58,99.74 M584.93,105.41c0.72,0.72,1.43,1.43,2.15,2.15c0.29,0.29,0.29,0.53,0.01,0.81
                               c-0.33,0.33-0.54,0.34-0.85,0.04c-0.64-0.63-1.27-1.27-1.91-1.91c-0.27-0.27-0.27-0.27-0.54,0c-5.62,5.62-11.23,11.24-16.85,16.85
                               c-0.06,0.06-0.12,0.14-0.19,0.18c-0.11,0.07-0.22,0.13-0.35,0.16c-0.3,0.07-0.5-0.12-0.68-0.3c-0.5-0.48-0.99-0.98-1.48-1.48
                               c-0.29-0.29-0.29-0.29-0.57-0.01c-0.62,0.62-1.25,1.24-1.86,1.88c-0.18,0.19-0.29,0.18-0.46-0.01c-0.36-0.39-0.74-0.75-1.12-1.13
                               c-0.28-0.28-0.28-0.28-0.01-0.55c0.64-0.64,1.27-1.28,1.91-1.9c0.15-0.15,0.14-0.24,0-0.38c-0.52-0.51-1.03-1.05-1.56-1.55
                               c-0.34-0.32-0.3-0.95,0-1.24c0.84-0.81,1.65-1.64,2.48-2.46c0.26-0.26,0.26-0.26,0.51,0c0.92,0.92,1.83,1.83,2.75,2.75
                               c0.24,0.24,0.24,0.24,0.49-0.01c0.13-0.13,0.25-0.27,0.4-0.39c0.2-0.16,0.18-0.28,0-0.46c-0.94-0.93-1.87-1.87-2.81-2.8
                               c-0.16-0.16-0.18-0.27,0-0.43c0.37-0.34,0.72-0.7,1.06-1.07c0.17-0.19,0.29-0.16,0.45,0c0.5,0.52,1.02,1.02,1.53,1.54
                               c0.14,0.14,0.23,0.15,0.36,0c0.15-0.17,0.31-0.34,0.49-0.49c0.16-0.14,0.17-0.25,0.01-0.4c-0.52-0.5-1.02-1.03-1.54-1.53
                               c-0.17-0.16-0.16-0.27,0.01-0.43c0.35-0.33,0.68-0.67,1.01-1.01c0.27-0.27,0.27-0.27,0.53,0c0.92,0.92,1.85,1.84,2.76,2.77
                               c0.18,0.18,0.29,0.18,0.44-0.01c0.13-0.16,0.27-0.3,0.43-0.43c0.2-0.16,0.17-0.27,0-0.44c-0.95-0.94-1.88-1.88-2.83-2.82
                               c-0.15-0.15-0.17-0.25,0-0.41c0.36-0.34,0.72-0.7,1.06-1.07c0.18-0.19,0.29-0.18,0.47,0c0.5,0.52,1.02,1.02,1.53,1.54
                               c0.13,0.13,0.22,0.14,0.34,0c0.15-0.17,0.31-0.34,0.49-0.49s0.18-0.26,0.01-0.42c-0.52-0.5-1.02-1.02-1.54-1.53
                               c-0.16-0.15-0.15-0.26,0-0.41c0.35-0.33,0.69-0.68,1.03-1.03c0.26-0.26,0.26-0.26,0.51,0c0.93,0.93,1.86,1.85,2.78,2.79
                               c0.17,0.17,0.27,0.17,0.42-0.01c0.12-0.15,0.26-0.29,0.41-0.41c0.18-0.15,0.16-0.26,0-0.42c-0.94-0.92-1.86-1.85-2.79-2.78
                               c-0.25-0.25-0.25-0.25-0.01-0.5c1.23-1.23,2.45-2.46,3.69-3.68c0.18-0.18,0.19-0.28,0.01-0.46c-0.65-0.63-1.28-1.27-1.91-1.9
                               c-0.16-0.16-0.26-0.33-0.2-0.56c0.16-0.59,0.75-0.6,1.1-0.24c1.37,1.41,2.77,2.79,4.16,4.18c0.27,0.27,0.27,0.27,0.52,0.01
                               c1.09-1.08,2.17-2.17,3.25-3.26c0.16-0.17,0.28-0.16,0.43,0c0.4,0.41,0.8,0.82,1.22,1.22c0.17,0.16,0.16,0.26-0.01,0.43
                               c-1.11,1.1-2.21,2.21-3.32,3.3c-0.17,0.16-0.16,0.26,0,0.42C583.48,103.96,584.2,104.69,584.93,105.41 M567.98,108.32
                               c-2.71,2.71-5.42,5.41-8.11,8.12c-0.2,0.2-0.39,0.45-0.47,0.71c-0.17,0.58-0.06,1.14,0.39,1.59c0.3,0.3,0.6,0.6,0.9,0.9
                               c0.33,0.33,0.33,0.33-0.01,0.67c-0.43,0.43-0.86,0.84-1.27,1.28c-0.16,0.18-0.26,0.42-0.37,0.64c-0.13,0.27,0,0.52,0.17,0.7
                               c0.6,0.63,1.21,1.25,1.85,1.86c0.35,0.34,0.91,0.27,1.3-0.12c0.48-0.48,0.96-0.96,1.44-1.44c0.22-0.22,0.26-0.22,0.49,0.01
                               c0.33,0.33,0.65,0.67,0.99,0.99c0.32,0.3,0.67,0.47,1.16,0.43c0.47-0.04,0.8-0.21,1.12-0.53c5.36-5.37,10.73-10.74,16.1-16.11
                               c0.07-0.07,0.15-0.15,0.22-0.22c0.15-0.13,0.28-0.15,0.43,0.01c0.44,0.45,0.91,0.87,1.32,1.33c0.59,0.66,1.87,0.52,2.35-0.26
                               c0.35-0.56,0.26-1.51-0.21-1.95c-1.22-1.16-2.39-2.37-3.58-3.56c-0.26-0.26-0.26-0.28-0.01-0.53c0.88-0.88,1.76-1.76,2.64-2.64
                               c0.24-0.24,0.27-0.24,0.51-0.01c0.29,0.29,0.57,0.57,0.86,0.86c0.43,0.43,0.89,0.5,1.35,0.13c0.35-0.28,0.64-0.63,0.92-0.97
                               c0.19-0.24,0.13-0.79-0.07-1.03c-0.09-0.1-0.18-0.2-0.27-0.29c-1.7-1.7-3.41-3.38-5.08-5.1c-0.5-0.51-1.18-0.48-1.62,0.02
                               c-0.17,0.19-0.36,0.36-0.54,0.55c-0.42,0.45-0.42,0.96,0.02,1.4c0.31,0.32,0.63,0.64,0.96,0.95c0.15,0.14,0.15,0.26,0.01,0.4
                               c-0.92,0.92-1.85,1.85-2.77,2.77c-0.18,0.18-0.31,0.08-0.45-0.06c-1.2-1.2-2.4-2.39-3.59-3.6c-0.25-0.25-0.53-0.4-0.86-0.46
                               c-0.71-0.12-1.47,0.35-1.7,1.04c-0.2,0.6-0.07,1.12,0.38,1.56c0.43,0.43,0.85,0.87,1.29,1.29c0.19,0.18,0.18,0.29,0,0.47
                               C573.44,102.86,570.71,105.59,567.98,108.32" />
        <path fill="none" stroke="#FFFFFF" stroke-width="0.65" stroke-miterlimit="10"
            d="M589.58,99.74c-0.2,0.2-0.37,0.35-0.51,0.52
                               c-0.15,0.17-0.26,0.16-0.41,0c-0.37-0.42-0.74-0.85-1.14-1.24c-1.19-1.17-2.4-2.33-3.59-3.49c-0.44-0.43-0.44-0.44-0.01-0.86
                               c0.29-0.29,0.29-0.29,0.58-0.01c1.62,1.62,3.24,3.24,4.86,4.86C589.42,99.58,589.48,99.64,589.58,99.74z M584.93,105.41
                               c0.72,0.72,1.43,1.43,2.15,2.15c0.29,0.29,0.29,0.53,0.01,0.81c-0.33,0.33-0.54,0.34-0.85,0.04c-0.64-0.63-1.27-1.27-1.91-1.91
                               c-0.27-0.27-0.27-0.27-0.54,0c-5.62,5.62-11.23,11.24-16.85,16.85c-0.06,0.06-0.12,0.14-0.19,0.18c-0.11,0.07-0.22,0.13-0.35,0.16
                               c-0.3,0.07-0.5-0.12-0.68-0.3c-0.5-0.48-0.99-0.98-1.48-1.48c-0.29-0.29-0.29-0.29-0.57-0.01c-0.62,0.62-1.25,1.24-1.86,1.88
                               c-0.18,0.19-0.29,0.18-0.46-0.01c-0.36-0.39-0.74-0.75-1.12-1.13c-0.28-0.28-0.28-0.28-0.01-0.55c0.64-0.64,1.27-1.28,1.91-1.9
                               c0.15-0.15,0.14-0.24,0-0.38c-0.52-0.51-1.03-1.05-1.56-1.55c-0.34-0.32-0.3-0.95,0-1.24c0.84-0.81,1.65-1.64,2.48-2.46
                               c0.26-0.26,0.26-0.26,0.51,0c0.92,0.92,1.83,1.83,2.75,2.75c0.24,0.24,0.24,0.24,0.49-0.01c0.13-0.13,0.25-0.27,0.4-0.39
                               c0.2-0.16,0.18-0.28,0-0.46c-0.94-0.93-1.87-1.87-2.81-2.8c-0.16-0.16-0.18-0.27,0-0.43c0.37-0.34,0.72-0.7,1.06-1.07
                               c0.17-0.19,0.29-0.16,0.45,0c0.5,0.52,1.02,1.02,1.53,1.54c0.14,0.14,0.23,0.15,0.36,0c0.15-0.17,0.31-0.34,0.49-0.49
                               c0.16-0.14,0.17-0.25,0.01-0.4c-0.52-0.5-1.02-1.03-1.54-1.53c-0.17-0.16-0.16-0.27,0.01-0.43c0.35-0.33,0.68-0.67,1.01-1.01
                               c0.27-0.27,0.27-0.27,0.53,0c0.92,0.92,1.85,1.84,2.76,2.77c0.18,0.18,0.29,0.18,0.44-0.01c0.13-0.16,0.27-0.3,0.43-0.43
                               c0.2-0.16,0.17-0.27,0-0.44c-0.95-0.94-1.88-1.88-2.83-2.82c-0.15-0.15-0.17-0.25,0-0.41c0.36-0.34,0.72-0.7,1.06-1.07
                               c0.18-0.19,0.29-0.18,0.47,0c0.5,0.52,1.02,1.02,1.53,1.54c0.13,0.13,0.22,0.14,0.34,0c0.15-0.17,0.31-0.34,0.49-0.49
                               s0.18-0.26,0.01-0.42c-0.52-0.5-1.02-1.02-1.54-1.53c-0.16-0.15-0.15-0.26,0-0.41c0.35-0.33,0.69-0.68,1.03-1.03
                               c0.26-0.26,0.26-0.26,0.51,0c0.93,0.93,1.86,1.85,2.78,2.79c0.17,0.17,0.27,0.17,0.42-0.01c0.12-0.15,0.26-0.29,0.41-0.41
                               c0.18-0.15,0.16-0.26,0-0.42c-0.94-0.92-1.86-1.85-2.79-2.78c-0.25-0.25-0.25-0.25-0.01-0.5c1.23-1.23,2.45-2.46,3.69-3.68
                               c0.18-0.18,0.19-0.28,0.01-0.46c-0.65-0.63-1.28-1.27-1.91-1.9c-0.16-0.16-0.26-0.33-0.2-0.56c0.16-0.59,0.75-0.6,1.1-0.24
                               c1.37,1.41,2.77,2.79,4.16,4.18c0.27,0.27,0.27,0.27,0.52,0.01c1.09-1.08,2.17-2.17,3.25-3.26c0.16-0.17,0.28-0.16,0.43,0
                               c0.4,0.41,0.8,0.82,1.22,1.22c0.17,0.16,0.16,0.26-0.01,0.43c-1.11,1.1-2.21,2.21-3.32,3.3c-0.17,0.16-0.16,0.26,0,0.42
                               C583.48,103.96,584.2,104.69,584.93,105.41z M567.98,108.32c-2.71,2.71-5.42,5.41-8.11,8.12c-0.2,0.2-0.39,0.45-0.47,0.71
                               c-0.17,0.58-0.06,1.14,0.39,1.59c0.3,0.3,0.6,0.6,0.9,0.9c0.33,0.33,0.33,0.33-0.01,0.67c-0.43,0.43-0.86,0.84-1.27,1.28
                               c-0.16,0.18-0.26,0.42-0.37,0.64c-0.13,0.27,0,0.52,0.17,0.7c0.6,0.63,1.21,1.25,1.85,1.86c0.35,0.34,0.91,0.27,1.3-0.12
                               c0.48-0.48,0.96-0.96,1.44-1.44c0.22-0.22,0.26-0.22,0.49,0.01c0.33,0.33,0.65,0.67,0.99,0.99c0.32,0.3,0.67,0.47,1.16,0.43
                               c0.47-0.04,0.8-0.21,1.12-0.53c5.36-5.37,10.73-10.74,16.1-16.11c0.07-0.07,0.15-0.15,0.22-0.22c0.15-0.13,0.28-0.15,0.43,0.01
                               c0.44,0.45,0.91,0.87,1.32,1.33c0.59,0.66,1.87,0.52,2.35-0.26c0.35-0.56,0.26-1.51-0.21-1.95c-1.22-1.16-2.39-2.37-3.58-3.56
                               c-0.26-0.26-0.26-0.28-0.01-0.53c0.88-0.88,1.76-1.76,2.64-2.64c0.24-0.24,0.27-0.24,0.51-0.01c0.29,0.29,0.57,0.57,0.86,0.86
                               c0.43,0.43,0.89,0.5,1.35,0.13c0.35-0.28,0.64-0.63,0.92-0.97c0.19-0.24,0.13-0.79-0.07-1.03c-0.09-0.1-0.18-0.2-0.27-0.29
                               c-1.7-1.7-3.41-3.38-5.08-5.1c-0.5-0.51-1.18-0.48-1.62,0.02c-0.17,0.19-0.36,0.36-0.54,0.55c-0.42,0.45-0.42,0.96,0.02,1.4
                               c0.31,0.32,0.63,0.64,0.96,0.95c0.15,0.14,0.15,0.26,0.01,0.4c-0.92,0.92-1.85,1.85-2.77,2.77c-0.18,0.18-0.31,0.08-0.45-0.06
                               c-1.2-1.2-2.4-2.39-3.59-3.6c-0.25-0.25-0.53-0.4-0.86-0.46c-0.71-0.12-1.47,0.35-1.7,1.04c-0.2,0.6-0.07,1.12,0.38,1.56
                               c0.43,0.43,0.85,0.87,1.29,1.29c0.19,0.18,0.18,0.29,0,0.47C573.44,102.86,570.71,105.59,567.98,108.32z" />
    </g>
    <line fill="none" stroke="#FFFFFF" stroke-width="0.65" stroke-miterlimit="10" x1="555.61" y1="128.64"
        x2="560.33" y2="123.93" />
</g>
<g>
    <g>
        <path fill="#E67300" d="M406.22,141.36c16.97,0,30.73-13.76,30.73-30.73c0-16.97-13.76-30.73-30.73-30.73
                               c-16.97,0-30.73,13.76-30.73,30.73C375.49,127.6,389.25,141.36,406.22,141.36" />
        <path fill="none" stroke="#F6BE00" stroke-width="0.7"
            d="M406.22,145.75c19.4,0,35.13-15.73,35.13-35.13
                               c0-19.4-15.73-35.12-35.13-35.12c-19.4,0-35.13,15.73-35.13,35.12C371.1,130.03,386.83,145.75,406.22,145.75z" />
        <path fill="#FFFFFF" d="M422.58,99.74c-0.2,0.2-0.37,0.35-0.51,0.52c-0.15,0.17-0.26,0.16-0.41,0c-0.37-0.42-0.74-0.85-1.14-1.24
                               c-1.19-1.17-2.4-2.33-3.59-3.49c-0.44-0.43-0.44-0.44-0.01-0.86c0.29-0.29,0.29-0.29,0.58-0.01c1.62,1.62,3.24,3.24,4.86,4.86
                               L422.58,99.74z M417.92,105.41c0.72,0.72,1.43,1.43,2.15,2.15c0.29,0.29,0.29,0.53,0.01,0.81c-0.33,0.33-0.54,0.34-0.85,0.04
                               c-0.64-0.63-1.27-1.27-1.91-1.91c-0.27-0.27-0.27-0.27-0.54,0c-5.62,5.62-11.24,11.24-16.85,16.85c-0.06,0.06-0.12,0.14-0.19,0.18
                               c-0.11,0.07-0.22,0.13-0.35,0.16c-0.3,0.07-0.5-0.12-0.68-0.3c-0.5-0.48-0.99-0.98-1.48-1.48c-0.29-0.29-0.29-0.29-0.57-0.01
                               c-0.62,0.62-1.25,1.24-1.86,1.88c-0.18,0.19-0.29,0.18-0.46-0.01c-0.36-0.39-0.74-0.75-1.12-1.13c-0.28-0.28-0.28-0.28-0.01-0.55
                               c0.64-0.64,1.27-1.28,1.91-1.9c0.15-0.15,0.14-0.24,0-0.38c-0.52-0.51-1.03-1.05-1.56-1.55c-0.34-0.32-0.3-0.95,0-1.24
                               c0.84-0.81,1.65-1.64,2.48-2.46c0.26-0.26,0.26-0.26,0.51,0c0.92,0.92,1.83,1.83,2.75,2.75c0.24,0.24,0.24,0.24,0.49-0.01
                               c0.13-0.13,0.25-0.27,0.4-0.39c0.2-0.16,0.18-0.28,0-0.46c-0.94-0.93-1.87-1.87-2.81-2.8c-0.16-0.16-0.18-0.27,0-0.43
                               c0.37-0.34,0.72-0.7,1.06-1.07c0.17-0.19,0.29-0.16,0.45,0c0.5,0.52,1.02,1.02,1.53,1.54c0.14,0.14,0.23,0.15,0.36,0
                               c0.15-0.17,0.31-0.34,0.49-0.49c0.16-0.14,0.17-0.25,0.01-0.4c-0.52-0.5-1.02-1.03-1.54-1.53c-0.17-0.16-0.16-0.27,0.01-0.43
                               c0.35-0.33,0.68-0.67,1.01-1.01c0.27-0.27,0.27-0.27,0.53,0c0.92,0.92,1.85,1.84,2.76,2.77c0.18,0.18,0.29,0.18,0.44-0.01
                               c0.13-0.16,0.27-0.3,0.43-0.43c0.2-0.16,0.17-0.27,0-0.44c-0.95-0.94-1.88-1.88-2.83-2.82c-0.15-0.15-0.17-0.25,0-0.41
                               c0.36-0.34,0.72-0.7,1.06-1.07c0.18-0.19,0.29-0.18,0.47,0c0.5,0.52,1.02,1.02,1.53,1.54c0.13,0.13,0.22,0.14,0.34,0
                               c0.15-0.17,0.31-0.34,0.49-0.49c0.17-0.15,0.18-0.26,0.01-0.42c-0.52-0.5-1.02-1.02-1.54-1.53c-0.16-0.15-0.15-0.26,0-0.41
                               c0.35-0.33,0.69-0.68,1.03-1.03c0.26-0.26,0.26-0.26,0.51,0c0.93,0.93,1.86,1.85,2.78,2.79c0.17,0.17,0.27,0.17,0.42-0.01
                               c0.12-0.15,0.26-0.29,0.41-0.41c0.18-0.15,0.16-0.26,0-0.42c-0.94-0.92-1.86-1.85-2.79-2.78c-0.25-0.25-0.25-0.25-0.01-0.5
                               c1.23-1.23,2.45-2.46,3.69-3.68c0.18-0.18,0.19-0.28,0.01-0.46c-0.65-0.63-1.28-1.27-1.91-1.9c-0.16-0.16-0.26-0.33-0.2-0.56
                               c0.16-0.59,0.75-0.6,1.1-0.24c1.37,1.41,2.77,2.79,4.16,4.18c0.27,0.27,0.27,0.27,0.52,0.01c1.09-1.08,2.17-2.17,3.25-3.26
                               c0.16-0.17,0.28-0.16,0.43,0c0.4,0.41,0.8,0.82,1.22,1.22c0.17,0.16,0.16,0.26-0.01,0.43c-1.11,1.1-2.21,2.21-3.32,3.3
                               c-0.17,0.16-0.16,0.26,0,0.42C416.48,103.96,417.2,104.69,417.92,105.41 M400.98,108.32c-2.71,2.71-5.42,5.41-8.11,8.12
                               c-0.2,0.2-0.39,0.45-0.47,0.71c-0.17,0.58-0.06,1.14,0.39,1.59c0.3,0.3,0.6,0.6,0.9,0.9c0.33,0.33,0.33,0.33-0.01,0.67
                               c-0.43,0.43-0.86,0.84-1.27,1.28c-0.16,0.18-0.26,0.42-0.37,0.64c-0.13,0.27,0,0.52,0.17,0.7c0.6,0.63,1.21,1.25,1.85,1.86
                               c0.35,0.34,0.91,0.27,1.3-0.12c0.48-0.48,0.96-0.96,1.44-1.44c0.22-0.22,0.26-0.22,0.49,0.01c0.33,0.33,0.65,0.67,0.99,0.99
                               c0.32,0.3,0.67,0.47,1.16,0.43c0.47-0.04,0.8-0.21,1.12-0.53c5.36-5.37,10.73-10.74,16.1-16.11c0.07-0.07,0.15-0.15,0.22-0.22
                               c0.15-0.13,0.28-0.15,0.43,0.01c0.44,0.45,0.91,0.87,1.32,1.33c0.59,0.66,1.87,0.52,2.35-0.26c0.35-0.56,0.26-1.51-0.21-1.95
                               c-1.22-1.16-2.39-2.37-3.58-3.56c-0.26-0.26-0.26-0.28-0.01-0.53c0.88-0.88,1.76-1.76,2.64-2.64c0.24-0.24,0.27-0.24,0.51-0.01
                               c0.29,0.29,0.57,0.57,0.86,0.86c0.43,0.43,0.89,0.5,1.35,0.13c0.35-0.28,0.64-0.63,0.92-0.97c0.19-0.24,0.13-0.79-0.07-1.03
                               c-0.09-0.1-0.18-0.2-0.27-0.29c-1.7-1.7-3.41-3.38-5.08-5.1c-0.5-0.51-1.18-0.48-1.62,0.02c-0.17,0.19-0.36,0.36-0.54,0.55
                               c-0.42,0.45-0.42,0.96,0.02,1.4c0.31,0.32,0.63,0.64,0.96,0.95c0.15,0.14,0.15,0.26,0.01,0.4c-0.92,0.92-1.85,1.85-2.77,2.77
                               c-0.18,0.18-0.31,0.08-0.45-0.06c-1.2-1.2-2.4-2.39-3.59-3.6c-0.25-0.25-0.53-0.4-0.86-0.46c-0.71-0.12-1.47,0.35-1.7,1.04
                               c-0.2,0.6-0.07,1.12,0.38,1.56c0.43,0.43,0.85,0.87,1.29,1.29c0.19,0.18,0.18,0.29,0,0.47
                               C406.44,102.85,403.71,105.59,400.98,108.32" />
    </g>
    <line fill="none" stroke="#FFFFFF" stroke-width="0.65" stroke-miterlimit="10" x1="388.3" y1="128.64" x2="393.01"
        y2="123.93" />
</g>
<g>
    <polygon fill="#4D4D4F" points="149.55,172.61 149.55,177.6 144.77,177.6 144.77,179.72 149.55,179.72 149.55,184.78
                           151.79,184.78 151.79,179.72 156.57,179.72 156.57,177.6 151.79,177.6 151.79,172.61" />
</g>
<g>
    <polygon fill="#4D4D4F" points="488.92,172.61 488.92,177.6 484.15,177.6 484.15,179.72 488.92,179.72 488.92,184.78
                           491.17,184.78 491.17,179.72 495.94,179.72 495.94,177.6 491.17,177.6 491.17,172.61" />
</g>
<g>
    <polygon fill="#4D4D4F" points="858.81,172.61 858.81,177.6 854.03,177.6 854.03,179.72 858.81,179.72 858.81,184.78
                           861.05,184.78 861.05,179.72 865.83,179.72 865.83,177.6 861.05,177.6 861.05,172.61" />
</g>
<g>
    <path fill="none" stroke="#E67300" stroke-width="2.0451" stroke-miterlimit="10"
        d="M87.23,108.03c0,1.16-8.36,5.53-18.67,5.53
                           c-10.31,0-18.66-2.48-18.66-5.53c0-1.18,8.36-5.53,18.66-5.53C78.88,102.49,87.23,104.97,87.23,108.03z M49.94,107.78l-0.14,4.83
                           c0.1,1.53,8.36,5.53,18.67,5.53c10.31,0,18.66-5.01,18.66-6.15l0.1-3.98 M68.57,113.56c-10.31,0-18.66-4.49-18.66-5.53
                           c0-1.18,8.36-5.53,18.66-5.53 M68.57,102.49c10.31,0,18.67,4,18.67,5.53c0,1.16-8.36,5.53-18.67,5.53" />
</g>
</svg>