<svg version="1.1" xmlns="http://www.w3.org/2000/svg" xmlns:xlink="http://www.w3.org/1999/xlink" x="0px" y="0px" viewBox="0 0 1316 387" style="enable-background:new 0 0 1316 387;" xml:space="preserve">
                                    <style type="text/css">
                                        #pkProfile .st0 {
                                            display: none;
                                        }

                                        #pkProfile .st1 {
                                            display: inline;
                                            fill: none;
                                            stroke: #939598;
                                            stroke-width: 0.2;
                                            stroke-miterlimit: 10;
                                        }

                                        #pkProfile .st2 {
                                            opacity: 8.000000e-02;
                                            fill: #818181;
                                        }

                                        #pkProfile .st3 {
                                            opacity: 0.15;
                                            fill: #E87724;
                                        }

                                        #pkProfile .st4 {
                                            opacity: 0.2;
                                            fill: #E87724;
                                        }

                                        #pkProfile .st5 {
                                            opacity: 0.1;
                                            fill: #FFCB05;
                                        }

                                        #pkProfile .st6 {
                                            fill: none;
                                        }

                                        #pkProfile .st7 {
                                            font-family: 'MyriadPro-Regular';
                                        }

                                        #pkProfile .st8 {
                                            font-size: 18px;
                                        }

                                        #pkProfile .st9 {
                                            opacity: 0.2;
                                            fill: #FFCB05;
                                        }

                                        #pkProfile .st10 {
                                            fill: #FFCB05;
                                        }

                                        #pkProfile .st11 {
                                            fill: #E67300;
                                        }

                                        #pkProfile .st12 {
                                            fill: #FFFFFF;
                                        }

                                        #pkProfile .st13 {
                                            font-family: 'MyriadPro-Bold';
                                        }

                                        #pkProfile .st14 {
                                            font-size: 20px;
                                        }

                                        #pkProfile .st15 {
                                            fill: #4D4D4E;
                                        }

                                        #pkProfile .st16 {
                                            opacity: 0.1;
                                            fill: #E87724;
                                        }

                                        #pkProfile .st17 {
                                            fill: #4E677F;
                                        }

                                        #pkProfile .st18 {
                                            font-family: 'ITC-ITCAvantGardePro-Demi';
                                        }

                                        #pkProfile .st19 {
                                            font-size: 22px;
                                        }

                                        #pkProfile .st20 {
                                            fill: none;
                                            stroke: #F7BE00;
                                            stroke-width: 5;
                                            stroke-miterlimit: 10;
                                        }

                                        #pkProfile .st21 {
                                            display: inline;
                                        }

                                        #pkProfile .st22 {
                                            fill: none;
                                            stroke: #A8A5A6;
                                            stroke-width: 0.8412;
                                            stroke-miterlimit: 10;
                                        }

                                        #pkProfile .st23 {
                                            fill: none;
                                            stroke: #A8A5A6;
                                            stroke-width: 0.8412;
                                            stroke-miterlimit: 10;
                                            stroke-dasharray: 3.7037, 3.7037;
                                        }

                                        #pkProfile .st24 {
                                            display: inline;
                                            fill: none;
                                            stroke: #A8A5A6;
                                            stroke-width: 0.5949;
                                            stroke-miterlimit: 10;
                                        }

                                        #pkProfile .st25 {
                                            display: inline;
                                            fill: none;
                                            stroke: #7C7A7A;
                                            stroke-width: 0.6475;
                                            stroke-miterlimit: 10;
                                        }

                                        #pkProfile .st26 {
                                            display: inline;
                                            fill: none;
                                            stroke: #231F20;
                                            stroke-width: 0.5792;
                                            stroke-miterlimit: 10;
                                        }

                                        #pkProfile .st27 {
                                            display: inline;
                                            fill: url(#SVGID_1_);
                                        }

                                        #pkProfile .st28 {
                                            display: inline;
                                            fill: url(#SVGID_2_);
                                        }

                                        #pkProfile .st29 {
                                            display: inline;
                                            fill: #939598;
                                        }

                                        #pkProfile .st30 {
                                            display: inline;
                                            fill: none;
                                            stroke: #A8AAAD;
                                            stroke-width: 3.1755;
                                            stroke-miterlimit: 10;
                                        }
                                    </style>
                                    <g id="#pkProfile">
                                        <path class="st2" d="M523.3,319.1H50V370c0,9.4,7.6,17,17,17h456.3V319.1z" />
                                        <path class="st2" d="M523.3,319.1H50V370c0,9.4,7.6,17,17,17h456.3V319.1z" />
                                        <rect x="528" y="319.1" class="st3" width="341.3" height="67.9" />
                                        <rect x="528" y="319.1" class="st4" width="341.3" height="67.9" />
                                        <path class="st5" d="M1205.6,319.1H874.3V387h314.3c9.4,0,17-7.6,17-17V319.1z" />
                                        <rect x="899.4" y="345.8" class="st6" width="281" height="22.9" />
                                        <text transform="matrix(1 0 0 1 1014.9447 358.5389)" class="st7 st8">CYP3A</text>
                                        <path class="st9" d="M1205.6,319.1H874.3V387h314.3c9.4,0,17-7.6,17-17V319.1z"/>
                                        <rect x="874.3" y="49" class="st10" width="330.7" height="46.2"/>
                                        <rect x="528" y="49" class="st11" width="341.3" height="46.2"/>
                                        <rect x="559.2" y="62.5" transform="matrix(1 -1.553612e-03 1.553612e-03 1 -0.1106 1.0856)" class="st6" width="279" height="18.5"/>
                                        <text transform="matrix(1 0 0 1 627.7043 76.505)" class="st12 st13 st14">CABOTEGRAVIR</text>
                                        <rect x="900.4" y="62.5" class="st6" width="279" height="18.5"/>
                                        <text transform="matrix(1 0 0 1 987.1682 76.7218)" class="st15 st13 st14">RILPIVIRINE</text>
                                        <rect x="66.5" y="334.1" class="st6" width="533.5" height="37"/>
                                        <text transform="matrix(1 0 0 1 66.4512 346.9239)"><tspan x="0" y="0" class="st13 st8">Metabolism</tspan><tspan x="0" y="21.6" class="st7 st8">Metabolic pathways</tspan></text>
                                        <rect x="558.2" y="334.1" class="st6" width="281" height="38.1"/>
                                        <text transform="matrix(1 0 0 1 667.8451 346.9239)"><tspan x="0" y="0" class="st7 st8">UGT1A1</tspan><tspan x="-29.5" y="21.6" class="st7 st8">UGT1A9 (minor)</tspan></text>
                                        <rect x="50" y="49.4" class="st2" width="473.3" height="45.4"/>
                                        <rect x="50" y="99.8" class="st2" width="473.3" height="67.9"/>
                                        <rect x="50" y="99.8" class="st2" width="473.3" height="67.9"/>
                                        <rect x="528" y="99.8" class="st3" width="341.3" height="67.9"/>
                                        <rect x="530" y="99.8" class="st16" width="341.3" height="67.9"/>
                                        <rect x="874.3" y="99.8" class="st5" width="331.3" height="67.9"/>
                                        <rect x="874.3" y="99.8" class="st5" width="331.3" height="67.9"/>
                                        <rect x="66.5" y="116.6" class="st6" width="533.5" height="39.8"/>
                                        <text transform="matrix(1 0 0 1 66.4512 129.3491)" class="st13 st8">Absorption</text>
                                        <text transform="matrix(1 0 0 1 66.4512 150.9487)" class="st7 st8">T</text>
                                        <text transform="matrix(0.583 0 0 0.583 75.3975 156.9428)" class="st7 st8">max</text>
                                        <text transform="matrix(1 0 0 1 94.0654 150.9487)" class="st7 st8"> (days), median</text>
                                        <rect x="558.2" y="125.9" class="st6" width="281" height="22.9" />
                                        <text transform="matrix(1 0 0 1 694.0795 138.6673)" class="st7 st8">7</text>
                                        <rect x="899.4" y="125.9" class="st6" width="281" height="22.9" />
                                        <text transform="matrix(1 0 0 1 1027.9496 138.6673)" class="st7 st8">3-4</text>
                                        <rect x="50" y="245.8" class="st2" width="473.3" height="67.9" />
                                        <rect x="50" y="245.8" class="st2" width="473.3" height="67.9" />
                                        <rect x="528" y="245.8" class="st3" width="341.3" height="67.9" />
                                        <rect x="528" y="245.8" class="st16" width="341.3" height="67.9" />
                                        <rect x="874.3" y="245.8" class="st5" width="331.3" height="67.9" />
                                        <rect x="874.3" y="245.8" class="st5" width="331.3" height="67.9" />
                                        <rect x="66.5" y="262.6" class="st6" width="533.5" height="39.8" />
                                        <text transform="matrix(1 0 0 1 66.4512 275.3492)" class="st13 st8">Elimination half-life (t</text>
                                        <text transform="matrix(0.583 0 0 0.583 240.8672 281.3424)" class="st13 st8">1/2</text>
                                        <text transform="matrix(1 0 0 1 255.9893 275.3492)" class="st13 st8">)</text>
                                        <text transform="matrix(1 0 0 1 66.4512 296.9488)" class="st7 st8">t</text>
                                        <text transform="matrix(0.583 0 0 0.583 72.4092 302.943)" class="st7 st8">1/2</text>
                                        <text transform="matrix(1 0 0 1 86.7744 296.9488)" class="st7 st8"> (weeks), mean</text>
                                        <rect x="558.2" y="271.9" class="st6" width="281" height="22.9" />
                                        <text transform="matrix(1 0 0 1 668.764 284.6673)">
                                            <tspan x="0" y="0" class="st7 st8">5.</tspan>
                                            <tspan x="13" y="0" class="st7 st8">6</tspan>
                                            <tspan x="22.9" y="0" class="st7 st8">-11.5</tspan>
                                        </text>
                                        <rect x="899.4" y="271.9" class="st6" width="281" height="22.9" />
                                        <text transform="matrix(1 0 0 1 1018.7162 284.6673)" class="st7 st8">13-28</text>
                                        <rect x="50" y="172.8" class="st2" width="473.3" height="67.9" />
                                        <rect x="50" y="172.8" class="st2" width="473.3" height="67.9" />
                                        <rect x="528" y="172.8" class="st3" width="341.3" height="67.9" />
                                        <rect x="528" y="172.8" class="st16" width="341.3" height="67.9" />
                                        <rect x="874.3" y="172.8" class="st5" width="331.3" height="67.9" />
                                        <rect x="874.3" y="172.8" class="st5" width="331.3" height="67.9" />
                                        <rect x="66.5" y="189.6" class="st6" width="533.5" height="39.8" />
                                        <text transform="matrix(1 0 0 1 66.4512 202.3491)">
                                            <tspan x="0" y="0" class="st13 st8">Distribution </tspan>
                                            <tspan x="0" y="21.6" class="st7 st8">% Bound to human plasma proteins</tspan>
                                        </text>
                                        <rect x="558.2" y="198.9" class="st6" width="281" height="22.9" />
                                        <text transform="matrix(1 0 0 1 677.6195 211.6673)" class="st7 st8">&gt;99.8</text>
                                        <rect x="899.4" y="198.9" class="st6" width="281" height="22.9" />
                                        <text transform="matrix(1 0 0 1 1024.2328 211.6673)" class="st7 st8">99.7</text>
                                        <g>
                                            <rect x="50.3" y="1.8" class="st6" width="856.4" height="19.2"/>
                                            <text transform="matrix(0.9952 0 0 1 50.2864 18.047)" class="st17 st18 st19">PHARMACOKINETIC PROPERTIES OF CABOTEGRAVIR AND RILPIVIRINE</text>
                                            <!-- <text transform="matrix(0.5802 0 0 0.583 763.5842 10.7208)" class="st17 st18 st19">1</text> -->
                                            <text transform="matrix(0.5802 0 0 0.583 773.5842 10.7208)" class="st17 st18 st19">1</text>
                                        </g>
                                        <line class="st20" x1="1205" y1="31.2" x2="50.3" y2="31.2" />
                                    </g>
                                </svg>