<svg title="CabUS_HCP_FLAIR_Efficacy_V02-191205" version="1.1" id="outcomes" xmlns="http://www.w3.org/2000/svg" xmlns:xlink="http://www.w3.org/1999/xlink" x="0px"
  y="0px" viewBox="0 0 866.34 339.3" enable-background="new 0 0 866.34 339.3" xml:space="preserve">
  <path opacity="0.1" fill="#CCCBCB" d="M501.78,23.47v278c1.19,0.11,2.49,0.21,3.36,0.33c16.19,0.08,32.37,0.18,48.55,0.27h312.52
                                                           V23.47H501.78z" />
  <path opacity="0.1" fill="#CCCBCB" d="M66.78,23.47v278c1.05,0.11,2.2,0.21,2.97,0.33c14.33,0.08,28.64,0.18,42.96,0.27h276.5V23.47
                                                           H66.78z" />
  <g>
    <g>

      <line fill="none" stroke="#A6A4A5" stroke-width="0.3184" stroke-miterlimit="10" x1="501.53" y1="255.59"
        x2="502.71" y2="255.59" />

      <line fill="none" stroke="#A6A4A5" stroke-width="0.3184" stroke-miterlimit="10" stroke-dasharray="2.3608,2.3608"
        x1="505.07" y1="255.59" x2="862.72" y2="255.59" />

      <line fill="none" stroke="#A6A4A5" stroke-width="0.3184" stroke-miterlimit="10" x1="863.91" y1="255.59"
        x2="865.08" y2="255.59" />
    </g>
  </g>
  <g>
    <g>

      <line fill="none" stroke="#A6A4A5" stroke-width="0.3184" stroke-miterlimit="10" x1="501.53" y1="208.81"
        x2="502.71" y2="208.81" />

      <line fill="none" stroke="#A6A4A5" stroke-width="0.3184" stroke-miterlimit="10" stroke-dasharray="2.3608,2.3608"
        x1="505.07" y1="208.81" x2="862.72" y2="208.81" />

      <line fill="none" stroke="#A6A4A5" stroke-width="0.3184" stroke-miterlimit="10" x1="863.91" y1="208.81"
        x2="865.08" y2="208.81" />
    </g>
  </g>
  <g>
    <g>

      <line fill="none" stroke="#A6A4A5" stroke-width="0.3184" stroke-miterlimit="10" x1="501.53" y1="162.03"
        x2="502.71" y2="162.03" />

      <line fill="none" stroke="#A6A4A5" stroke-width="0.3184" stroke-miterlimit="10" stroke-dasharray="2.3608,2.3608"
        x1="505.07" y1="162.03" x2="862.72" y2="162.03" />

      <line fill="none" stroke="#A6A4A5" stroke-width="0.3184" stroke-miterlimit="10" x1="863.91" y1="162.03"
        x2="865.08" y2="162.03" />
    </g>
  </g>
  <g>
    <g>

      <line fill="none" stroke="#A6A4A5" stroke-width="0.3184" stroke-miterlimit="10" x1="501.53" y1="115.25"
        x2="502.71" y2="115.25" />

      <line fill="none" stroke="#A6A4A5" stroke-width="0.3184" stroke-miterlimit="10" stroke-dasharray="2.3608,2.3608"
        x1="505.07" y1="115.25" x2="862.72" y2="115.25" />

      <line fill="none" stroke="#A6A4A5" stroke-width="0.3184" stroke-miterlimit="10" x1="863.91" y1="115.25"
        x2="865.08" y2="115.25" />
    </g>
  </g>
  <g>
    <g>

      <line fill="none" stroke="#A6A4A5" stroke-width="0.3184" stroke-miterlimit="10" x1="501.53" y1="68.25" x2="502.71"
        y2="68.25" />

      <line fill="none" stroke="#A6A4A5" stroke-width="0.3184" stroke-miterlimit="10" stroke-dasharray="2.3608,2.3608"
        x1="505.07" y1="68.25" x2="862.72" y2="68.25" />

      <line fill="none" stroke="#A6A4A5" stroke-width="0.3184" stroke-miterlimit="10" x1="863.91" y1="68.25" x2="865.08"
        y2="68.25" />
    </g>
  </g>
  <rect x="24.21" y="250.69" fill="none" width="27.19" height="8.77" />
  <text transform="matrix(1 0 0 1 39.2085 258.8311)" fill="#6D6E70" font-family="'ITC-ITCAvantGardePro-Bk'"
    font-size="11px">20</text>
  <rect x="24.21" y="293.47" fill="none" width="27.19" height="9" />
  <text transform="matrix(1 0 0 1 45.3022 301.6094)" fill="#6D6E70" font-family="'ITC-ITCAvantGardePro-Bk'"
    font-size="11px">0</text>
  <rect x="24.21" y="203.65" fill="none" width="27.19" height="10.81" />
  <text transform="matrix(1 0 0 1 39.2085 211.7939)" fill="#6D6E70" font-family="'ITC-ITCAvantGardePro-Bk'"
    font-size="11px">40</text>
  <rect x="24.21" y="156.62" fill="none" width="27.19" height="10.85" />
  <text transform="matrix(1 0 0 1 39.2085 164.7568)" fill="#6D6E70" font-family="'ITC-ITCAvantGardePro-Bk'"
    font-size="11px">60</text>
  <rect x="24.21" y="110.58" fill="none" width="27.19" height="9.89" />
  <text transform="matrix(1 0 0 1 39.2085 118.7197)" fill="#6D6E70" font-family="'ITC-ITCAvantGardePro-Bk'"
    font-size="11px">80</text>
  <rect x="24.28" y="68.47" fill="none" width="27.12" height="10" />
  <text transform="matrix(1 0 0 1 33.1143 76.6045)" fill="#6D6E70" font-family="'ITC-ITCAvantGardePro-Bk'"
    font-size="11px">100</text>
  <g>
    <g>
      <line fill="none" stroke="#A6A4A5" stroke-width="0.3" stroke-miterlimit="10" x1="66.53" y1="255.59" x2="67.64"
        y2="255.59" />

      <line fill="none" stroke="#A6A4A5" stroke-width="0.3" stroke-miterlimit="10" stroke-dasharray="2.2101,2.2101"
        x1="69.85" y1="255.59" x2="386.99" y2="255.59" />
      <line fill="none" stroke="#A6A4A5" stroke-width="0.3" stroke-miterlimit="10" x1="388.1" y1="255.59" x2="389.21"
        y2="255.59" />
    </g>
  </g>
  <g>
    <g>
      <line fill="none" stroke="#A6A4A5" stroke-width="0.3" stroke-miterlimit="10" x1="66.53" y1="208.81" x2="67.64"
        y2="208.81" />

      <line fill="none" stroke="#A6A4A5" stroke-width="0.3" stroke-miterlimit="10" stroke-dasharray="2.2101,2.2101"
        x1="69.85" y1="208.81" x2="386.99" y2="208.81" />
      <line fill="none" stroke="#A6A4A5" stroke-width="0.3" stroke-miterlimit="10" x1="388.1" y1="208.81" x2="389.21"
        y2="208.81" />
    </g>
  </g>
  <g>
    <g>
      <line fill="none" stroke="#A6A4A5" stroke-width="0.3" stroke-miterlimit="10" x1="66.53" y1="162.03" x2="67.64"
        y2="162.03" />

      <line fill="none" stroke="#A6A4A5" stroke-width="0.3" stroke-miterlimit="10" stroke-dasharray="2.2101,2.2101"
        x1="69.85" y1="162.03" x2="386.99" y2="162.03" />
      <line fill="none" stroke="#A6A4A5" stroke-width="0.3" stroke-miterlimit="10" x1="388.1" y1="162.03" x2="389.21"
        y2="162.03" />
    </g>
  </g>
  <g>
    <g>
      <line fill="none" stroke="#A6A4A5" stroke-width="0.3" stroke-miterlimit="10" x1="66.53" y1="115.25" x2="67.64"
        y2="115.25" />

      <line fill="none" stroke="#A6A4A5" stroke-width="0.3" stroke-miterlimit="10" stroke-dasharray="2.2101,2.2101"
        x1="69.85" y1="115.25" x2="386.99" y2="115.25" />
      <line fill="none" stroke="#A6A4A5" stroke-width="0.3" stroke-miterlimit="10" x1="388.1" y1="115.25" x2="389.21"
        y2="115.25" />
    </g>
  </g>
  <g>
    <g>
      <line fill="none" stroke="#A6A4A5" stroke-width="0.3" stroke-miterlimit="10" x1="66.53" y1="66.25" x2="67.64"
        y2="66.25" />

      <line fill="none" stroke="#A6A4A5" stroke-width="0.3" stroke-miterlimit="10" stroke-dasharray="2.2101,2.2101"
        x1="69.85" y1="66.25" x2="386.99" y2="66.25" />
      <line fill="none" stroke="#A6A4A5" stroke-width="0.3" stroke-miterlimit="10" x1="388.1" y1="66.25" x2="389.21"
        y2="66.25" />
    </g>
  </g>
  <g>
    <text transform="matrix(1 0 0 1 131.4424 320.6089)">
      <tspan x="0" y="0" fill="#6D6E70" font-family="'MyriadPro-Bold'" font-size="14.15px">CABENUVA</tspan>
      <tspan x="6.83" y="14.15" fill="#6D6E70" font-family="'MyriadPro-Bold'" font-size="14.15px">n=11/591</tspan>
    </text>
  </g>
  <g>
    <text transform="matrix(1 0 0 1 595.5029 321.6089)">
      <tspan x="0" y="0" fill="#6D6E70" font-family="'MyriadPro-Bold'" font-size="14.15px">CABENUVA</tspan>
      <tspan x="3.08" y="14.15" fill="#6D6E70" font-family="'MyriadPro-Bold'" font-size="14.15px">n=550/591
      </tspan>
    </text>
  </g>
  <text transform="matrix(1 0 0 1 224.8379 320.6089)">
    <tspan x="0" y="0" fill="#6D6E70" font-family="'MyriadPro-Bold'" font-size="14.15px">ORAL COMPARATOR*</tspan>
    <tspan x="33.58" y="14.15" fill="#6D6E70" font-family="'MyriadPro-Bold'" font-size="14.15px">n=10/591</tspan>
  </text>
  <text transform="matrix(1 0 0 1 684.7656 321.6089)">
    <tspan x="0" y="0" fill="#6D6E70" font-family="'MyriadPro-Bold'" font-size="14.15px">ORAL COMPARATOR*</tspan>
    <tspan x="29.83" y="14.15" fill="#6D6E70" font-family="'MyriadPro-Bold'" font-size="14.15px">n=558/591</tspan>
  </text>
  <rect x="83.62" y="213.47" fill="none" width="285.78" height="33" />
  <text transform="matrix(1 0 0 1 171.6403 226.022)">
    <tspan x="0" y="0" fill="#6D6E70" font-family="'MyriadPro-Bold'" font-size="15px">Difference: 0.2%</tspan>
    <tspan x="-1.04" y="14" fill="#6D6E70" font-family="'MyriadPro-Regular'" font-size="13px">(95% CI: -1.4%–1.7%)
    </tspan>
  </text>
  <path fill="#989898" d="M251.89,297.47v4.51c0.23,0,0.49,0,0.66,0.01c3.17,0,6.34,0,9.5,0h61.16v-4.52H251.89z" />
  <path fill="#E67300" d="M131.75,297.52v4.45c0.23,0,0.49,0,0.66,0.01c3.18,0,6.35,0,9.52,0h61.28v-4.46H131.75z" />
  <g>
    <text transform="matrix(1 -1.920000e-03 1.920000e-03 1 149.0226 293.8774)">
      <tspan x="0" y="0" fill="#E67300" font-family="'ITC-ITCAvantGardePro-Demi'" font-size="34px">2</tspan>
      <tspan x="19" y="0" fill="#E67300" font-family="'ITC-ITCAvantGardePro-Demi'" font-size="28px">%</tspan>
    </text>
  </g>
  <g>
    <text transform="matrix(1 1.260000e-03 -1.260000e-03 1 268.5087 293.7255)">
      <tspan x="0" y="0" fill="#989898" font-family="'ITC-ITCAvantGardePro-Demi'" font-size="34px">2</tspan>
      <tspan x="19" y="0" fill="#989898" font-family="'ITC-ITCAvantGardePro-Demi" font-size="28px">%</tspan>
    </text>
  </g>
  <g>
    <rect x="47.87" fill="none" width="358.33" height="16.47" />
    <text transform="matrix(1 0 0 1 58.8496 12.5552)">
      <tspan x="0" y="0" fill="#6D6E70" font-family="'MyriadPro-Bold'" font-size="15px">P</tspan>
      <tspan x="8.04" y="0" fill="#6D6E70" font-family="'MyriadPro-Bold'" font-size="15px">r</tspan>
      <tspan x="13.36" y="0" fill="#6D6E70" font-family="'MyriadPro-Bold'" font-size="15px">imary endpoint: HIV-1
        RNA ≥50 copies/mL at Week 48 </tspan>
    </text>
  </g>
  <rect x="-111.08" y="175.7" transform="matrix(1.432667e-03 -1 1 1.432667e-03 -175.5404 191.6387)" fill="none"
    width="238.54" height="16.03" />
  <text transform="matrix(0 -1 1 0 10.8809 253.6396)" fill="#6D6E70" font-family="'MyriadPro-Regular'"
    font-size="13px">Proportion of patients (%)</text>
  <text transform="matrix(1 0 0 1 567.8335 12.5552)" fill="#6D6E70" font-family="'MyriadPro-Bold'"
    font-size="15px">HIV-1 RNA &lt;50 copies/mL at Week 48</text>
  <text transform="matrix(1 0 0 1 594.3433 170.3486)">
    <tspan x="0" y="0" fill="#FFFFFF" font-family="'ITC-ITCAvantGardePro-Demi'" font-size="40px" letter-spacing="-1">93
    </tspan>
    <tspan x="39.04" y="0" fill="#FFFFFF" font-family="'ITC-ITCAvantGardePro-Demi'" font-size="34px">%</tspan>
  </text>
  <defs>
    <filter id="Adobe_OpacityMaskFilter" filterUnits="userSpaceOnUse" x="584.43" y="87.08" width="13.27"
      height="215.38">
      <feColorMatrix type="matrix" values="1 0 0 0 0  0 1 0 0 0  0 0 1 0 0  0 0 0 1 0" />
    </filter>
  </defs>
  <mask maskUnits="userSpaceOnUse" x="584.43" y="87.08" width="13.27" height="215.38" id="SVGID_1_">
    <g filter="url(#Adobe_OpacityMaskFilter)">
      <path fill="#FFFFFF" d="M561.13,85.41h27.09c2.72,0,4.93,4.48,4.93,10.01v143.04v-1.18v65.18h-36.94v-64.08l0,0V95.42
                                                                   C556.21,89.9,558.41,85.41,561.13,85.41z" />
    </g>
  </mask>
  <linearGradient id="SVGID_2_" gradientUnits="userSpaceOnUse" x1="584.4291" y1="194.7751" x2="597.6988" y2="194.7751">
    <stop offset="0" style="stop-color:#2483C5;stop-opacity:0" />
    <stop offset="0.1752" style="stop-color:#2475AE;stop-opacity:0.0876" />
    <stop offset="0.5437" style="stop-color:#235172;stop-opacity:0.2719" />
    <stop offset="1" style="stop-color:#231F20;stop-opacity:0.5" />
  </linearGradient>
  <polygon opacity="0.5" mask="url(#SVGID_1_)" fill="url(#SVGID_2_)" points="597.7,87.08 585.44,99.34 584.43,302.47 597.65,302.47
                                                           " />
  <defs>
    <filter id="Adobe_OpacityMaskFilter_1_" filterUnits="userSpaceOnUse" x="699.43" y="87.08" width="13.27"
      height="215.38">
      <feColorMatrix type="matrix" values="1 0 0 0 0  0 1 0 0 0  0 0 1 0 0  0 0 0 1 0" />
    </filter>
  </defs>
  <mask maskUnits="userSpaceOnUse" x="699.43" y="87.08" width="13.27" height="215.38" id="SVGID_3_">
    <g filter="url(#Adobe_OpacityMaskFilter_1_)">
      <path fill="#FFFFFF" d="M676.13,85.41h27.09c2.72,0,4.93,4.48,4.93,10.01v143.04v-1.18v65.18h-36.94v-64.08l0,0V95.42
                                                                   C671.21,89.9,673.41,85.41,676.13,85.41z" />
    </g>
  </mask>
  <linearGradient id="SVGID_4_" gradientUnits="userSpaceOnUse" x1="699.4291" y1="194.7751" x2="712.6988" y2="194.7751">
    <stop offset="0" style="stop-color:#2483C5;stop-opacity:0" />
    <stop offset="0.1752" style="stop-color:#2475AE;stop-opacity:0.0876" />
    <stop offset="0.5437" style="stop-color:#235172;stop-opacity:0.2719" />
    <stop offset="1" style="stop-color:#231F20;stop-opacity:0.5" />
  </linearGradient>
  <polygon opacity="0.5" mask="url(#SVGID_3_)" fill="url(#SVGID_4_)" points="712.7,87.08 700.44,99.34 699.43,302.47 712.65,302.47
                                                           " />
  <linearGradient id="SVGID_5_" gradientUnits="userSpaceOnUse" x1="630.6833" y1="302.4653" x2="630.6833" y2="85.4138">
    <stop offset="0" style="stop-color:#F2B67A" />
    <stop offset="1" style="stop-color:#E67300" />
  </linearGradient>
  <path fill="url(#SVGID_5_)" d="M658.2,85.41h-55.04c-5.53,0-10.01,4.48-10.01,10.01v143.04v-1.18v65.18h75.07v-64.08l0,0V95.42
                                                           C668.22,89.9,663.73,85.41,658.2,85.41z" />
  <text transform="matrix(1 0 0 1 601.5754 122.8486)">
    <tspan x="0" y="0" fill="#FFFFFF" font-family="'ITC-ITCAvantGardePro-Demi'" font-size="34px">93</tspan>
    <tspan x="37" y="0" fill="#FFFFFF" font-family="'ITC-ITCAvantGardePro-Demi'" font-size="28px">%</tspan>
  </text>
  <linearGradient id="SVGID_6_" gradientUnits="userSpaceOnUse" x1="726.4241" y1="305.7036" x2="766.0434" y2="81.0112">
    <stop offset="0.0927" style="stop-color:#9A9B9D" />
    <stop offset="1" style="stop-color:#808285;stop-opacity:0.8" />
  </linearGradient>
  <path fill="url(#SVGID_6_)" d="M773.11,82.41h-55.04c-5.53,0-10.01,4.48-10.01,10.01v143.04v-1.18v68.18h75.07v-67.08l0,0V92.42
                                                           C783.12,86.9,778.64,82.41,773.11,82.41z" />
  <text transform="matrix(1 0 0 1 716.6677 122.8486)">
    <tspan x="0" y="0" fill="#FFFFFF" font-family="'ITC-ITCAvantGardePro-Demi'" font-size="34px">94</tspan>
    <tspan x="37" y="0" fill="#FFFFFF" font-family="'ITC-ITCAvantGardePro-Demi'" font-size="28px">%</tspan>
  </text>
  <rect x="459.21" y="250.69" fill="none" width="27.19" height="8.77" />
  <text transform="matrix(1 0 0 1 474.2085 258.8311)" fill="#6D6E70" font-family="'ITC-ITCAvantGardePro-Bk'"
    font-size="11px">20</text>
  <rect x="459.21" y="293.47" fill="none" width="27.19" height="9" />
  <text transform="matrix(1 0 0 1 480.3022 301.6094)" fill="#6D6E70" font-family="'ITC-ITCAvantGardePro-Bk'"
    font-size="11px">0</text>
  <rect x="459.21" y="203.65" fill="none" width="27.19" height="10.81" />
  <text transform="matrix(1 0 0 1 474.2085 211.7939)" fill="#6D6E70" font-family="'ITC-ITCAvantGardePro-Bk'"
    font-size="11px">40</text>
  <rect x="459.21" y="156.62" fill="none" width="27.19" height="10.85" />
  <text transform="matrix(1 0 0 1 474.2085 164.7568)" fill="#6D6E70" font-family="'ITC-ITCAvantGardePro-Bk'"
    font-size="11px">60</text>
  <rect x="459.21" y="110.58" fill="none" width="27.19" height="9.89" />
  <text transform="matrix(1 0 0 1 474.2085 118.7197)" fill="#6D6E70" font-family="'ITC-ITCAvantGardePro-Bk'"
    font-size="11px">80</text>
  <rect x="459.28" y="68.47" fill="none" width="27.12" height="10" />
  <text transform="matrix(1 0 0 1 468.1143 76.6045)" fill="#6D6E70" font-family="'ITC-ITCAvantGardePro-Bk'"
    font-size="11px">100</text>
  <rect x="333.42" y="167.21" transform="matrix(1.431970e-03 -1 1 1.431970e-03 268.3114 636.1557)" fill="none"
    width="238.54" height="33.04" />
  <text transform="matrix(0 -1 1 0 446.8818 253.6416)" fill="#6D6E70" font-family="'MyriadPro-Regular'"
    font-size="13px">Proportion of patients (%)</text>
  <path fill="none" stroke="#000000" stroke-width="0.273" stroke-miterlimit="10"
    d="M501.78,23.47v278
                                                           c1.19,0.11,2.49,0.21,3.36,0.33c16.19,0.08,32.37,0.18,48.55,0.27h312.52V23.47H501.78z" />
  <path fill="none" stroke="#000000" stroke-width="0.273" stroke-miterlimit="10" d="M66.78,23.47v278c1.05,0.11,2.2,0.21,2.97,0.33
                                                           c14.33,0.08,28.64,0.18,42.96,0.27h276.5V23.47H66.78z" />
  <polygon fill="none" points="656.21,110.25 661.52,110.25 661.52,110.25 656.21,110.25 " />
  <polyline fill="none" stroke="#6D6E70" stroke-width="0.4851" stroke-miterlimit="10" points="288.21,251.47 288.21,247.47
                                                           165.21,247.47 165.21,251.47 " />
</svg>