<svg title="CabUS_HCP_ISRs_Pooled_Reported_LEFT-01" version="1.1" id="GRAPHIC" xmlns="http://www.w3.org/2000/svg" xmlns:xlink="http://www.w3.org/1999/xlink" x="0px"
  y="0px" viewBox="0 0 419 618.7" enable-background="new 0 0 419 618.7" xml:space="preserve">
  <path opacity="0.1" fill="#E47425" d="M170.1,562.4h249v46c0,5-6.1,9-13.7,9l-235.3,0.4L170.1,562.4z" />
  <rect x="169" y="452.8" opacity="0.1" fill="#E47425" width="249.7" height="51.2" />
  <rect x="169" y="347.1" opacity="0.1" fill="#E47425" width="249" height="51.2" />
  <rect x="169" y="237.6" opacity="0.1" fill="#E47425" width="249" height="51.2" />
  <rect x="169" y="131.9" opacity="0.1" fill="#E47425" width="249" height="52" />
  <rect x="169.1" y="184.7" transform="matrix(1 -3.443744e-03 3.443744e-03 1 -0.7234 1.0124)" opacity="0.1"
    fill="#E47425" width="249" height="51.6" />
  <text transform="matrix(1 0 0 1 260.9919 216.1329)" fill="#555555" font-family="'MyriadPro-Regular'"
    font-size="18px">81 (14%)</text>
  <polygon fill="#F1F2F2" points="0.1,186 167.5,185.2 167.6,236.8 0.3,237.7 " />
  <text transform="matrix(1 0 0 1 15.1765 217.0173)" fill="#555555" font-family="'MyriadPro-Regular'"
    font-size="18px">Nodule</text>
  <polygon fill="#F1F2F2" points="0.3,238.9 167.6,238 167.7,289.7 0.4,290.6 " />
  <text transform="matrix(1 0 0 1 15.3142 269.8923)" fill="#555555" font-family="'MyriadPro-Regular'"
    font-size="18px">Induration</text>
  <polygon fill="#F1F2F2" points="0.4,291.8 167.7,290.9 167.9,346.1 0.6,346.9 " />
  <text transform="matrix(1 0 0 1 15.4524 322.7673)" fill="#555555" font-family="'MyriadPro-Regular'"
    font-size="18px">Swelling</text>
  <rect x="169.3" y="237.6" transform="matrix(1 -3.443744e-03 3.443744e-03 1 -0.9054 1.0132)" opacity="0.1"
    fill="#E47425" width="249" height="51.6" />
  <text transform="matrix(1 0 0 1 261.1299 269.0095)" fill="#555555" font-family="'MyriadPro-Regular'"
    font-size="18px">68 (12%)</text>
  <rect x="169.4" y="290.5" transform="matrix(1 -3.443744e-03 3.443744e-03 1 -1.0936 1.014)" opacity="0.1"
    fill="#E47425" width="249" height="55.2" />
  <text transform="matrix(1 0 0 1 265.8848 321.8862)" fill="#555555" font-family="'MyriadPro-Regular'"
    font-size="18px">46 (8%)</text>
  <polygon fill="#F1F2F2" points="0,133.2 167.3,132.3 167.5,183.9 0.1,184.8 " />
  <text transform="matrix(1 0 0 1 15.0388 164.1409)" fill="#555555" font-family="'MyriadPro-Regular'"
    font-size="18px">Localized pain</text>
  <rect x="169" y="131.9" transform="matrix(1 -3.443744e-03 3.443744e-03 1 -0.5413 1.0116)" opacity="0.1" fill="#E47425"
    width="249" height="51.6" />
  <text transform="matrix(1 0 0 1 256.2373 163.2554)" fill="#555555" font-family="'MyriadPro-Regular'"
    font-size="18px">458 (79%)</text>
  <rect x="169.7" y="399.7" transform="matrix(1 -3.443744e-03 3.443744e-03 1 -1.4638 1.0156)" opacity="0.1"
    fill="#E47425" width="249" height="51.6" />
  <text transform="matrix(1 0 0 1 266.1692 431.1414)" fill="#555555" font-family="'MyriadPro-Regular'"
    font-size="18px">23 (4%)</text>
  <polygon fill="#F1F2F2" points="0.7,401 168,400.2 168.2,451.8 0.8,452.7 " />
  <text transform="matrix(1 0 0 1 15.737 432.0193)" fill="#555555" font-family="'MyriadPro-Regular'"
    font-size="18px">Pruritus</text>
  <polygon fill="#F1F2F2" points="0.8,453.9 168.2,453 168.3,504.7 1,505.6 " />
  <text transform="matrix(1 0 0 1 15.8747 484.8953)" fill="#555555" font-family="'MyriadPro-Regular'"
    font-size="18px">Bruising</text>
  <polygon fill="#F1F2F2" points="1,506.8 168.3,505.9 168.4,561.1 1.1,561.3 " />
  <text transform="matrix(1 0 0 1 16.0129 537.7703)" fill="#555555" font-family="'MyriadPro-Regular'"
    font-size="18px">Warmth</text>
  <rect x="169.8" y="452.6" transform="matrix(1 -3.443744e-03 3.443744e-03 1 -1.6459 1.0164)" opacity="0.1"
    fill="#E47425" width="249" height="51.6" />
  <text transform="matrix(1 0 0 1 266.3071 484.0179)" fill="#555555" font-family="'MyriadPro-Regular'"
    font-size="18px">17 (3%)</text>
  <rect x="170" y="505.5" transform="matrix(1 -3.443744e-03 3.443744e-03 1 -1.834 1.0172)" opacity="0.1" fill="#E47425"
    width="249" height="55.2" />
  <text transform="matrix(1 0 0 1 266.4448 536.8956)" fill="#555555" font-family="'MyriadPro-Regular'"
    font-size="18px">14 (2%)</text>
  <polygon fill="#F1F2F2" points="0.6,348.2 167.9,347.3 168,398.9 0.7,399.8 " />
  <text transform="matrix(1 0 0 1 15.5993 379.1438)" fill="#555555" font-family="'MyriadPro-Regular'"
    font-size="18px">Erythema</text>
  <rect x="169.5" y="346.9" transform="matrix(1 -3.443744e-03 3.443744e-03 1 -1.2817 1.0148)" opacity="0.1"
    fill="#E47425" width="249" height="51.6" />
  <text transform="matrix(1 0 0 1 266.0315 378.2657)" fill="#555555" font-family="'MyriadPro-Regular'"
    font-size="18px">24 (4%)</text>
  <g>
    <rect x="0.9" y="2.9" fill="none" width="417.1" height="46.4" />
    <text transform="matrix(0.9952 0 0 1 0.8962 19.1289)" fill="#4E677F" font-family="'AvantGarde-Demi'"
      font-size="22px">POOLED ANALYSIS: PATIENTS (&gt;1%) </text>
    <text transform="matrix(0.9952 0 0 1 0.8962 45.5293)" fill="#4E677F" font-family="'AvantGarde-Demi'"
      font-size="22px">REPORTING ISRs THROUGH WEEK 48</text>
    <text transform="matrix(0.5802 0 0 0.583 367.3982 38.2031)" fill="#4E677F" font-family="'AvantGarde-Demi'"
      font-size="22px">1,2</text>
  </g>
  <line fill="none" stroke="#F7BE00" stroke-width="5" stroke-miterlimit="10" x1="417.8" y1="59.3" x2="0.7" y2="59.3" />
  <rect x="16.1" y="578" fill="none" width="92.9" height="28.5" />
  <text transform="matrix(1 0 0 1 16.0926 594.7609)" fill="#555555" font-family="'MyriadPro-Regular'"
    font-size="18px">Hematoma</text>
  <rect x="168.8" y="70.8" fill="#E47425" width="249.1" height="60.4" />
  <rect x="169.5" y="85.5" fill="none" width="241.5" height="39.1" />
  <text transform="matrix(1 0 0 1 239.697 99.6619)">
    <tspan x="0" y="0" fill="#FFFFFF" font-family="'MyriadPro-Bold'" font-size="20px">CABENUVA</tspan>
    <tspan x="16.9" y="19" fill="#FFFFFF" font-family="'MyriadPro-Regular'" font-size="20px">(N=591)</tspan>
  </text>
  <path opacity="8.000000e-02" fill="#808080"
    d="M168.4,562.4l-167.3,0v46.8c0,5.2,4.1,9.4,9.2,9.4l158.3-0.9L168.4,562.4z" />
  <path opacity="0.1" fill="#E47425" d="M170.1,562.4h249v46c0,5-6.1,9-13.7,9l-235.3,0.4L170.1,562.4z" />
  <rect x="240.3" y="576.2" fill="none" width="108.5" height="33.3" />
  <text transform="matrix(1 0 0 1 266.5668 593.0204)" fill="#555555" font-family="'MyriadPro-Regular'"
    font-size="18px">11 (2%)</text>
</svg>