<?xml version="1.0" encoding="utf-8"?>
<!-- Generator: Adobe Illustrator 23.1.1, SVG Export Plug-In . SVG Version: 6.00 Build 0)  -->
<svg version="1.1" xmlns="http://www.w3.org/2000/svg" xmlns:xlink="http://www.w3.org/1999/xlink" x="0px" y="0px"
	 viewBox="0 0 836 406" style="enable-background:new 0 0 836 406;" xml:space="preserve">
<style type="text/css">
	.st0{display:none;}
	.st1{display:inline;fill:none;stroke:#939598;stroke-width:0.2;stroke-miterlimit:10;}
	.st2{display:inline;}
	.st3{fill:none;stroke:#A8A5A6;stroke-width:0.8412;stroke-miterlimit:10;}
	.st4{fill:none;stroke:#A8A5A6;stroke-width:0.8412;stroke-miterlimit:10;stroke-dasharray:3.7037,3.7037;}
	.st5{display:inline;fill:none;stroke:#A8A5A6;stroke-width:0.5949;stroke-miterlimit:10;}
	.st6{display:inline;fill:none;stroke:#7C7A7A;stroke-width:0.6475;stroke-miterlimit:10;}
	.st7{display:inline;fill:none;stroke:#231F20;stroke-width:0.5792;stroke-miterlimit:10;}
	.st8{fill:#FFFFFF;}
	.st9{display:inline;fill:url(#SVGID_1_);}
	.st10{display:inline;fill:url(#SVGID_2_);}
	.st11{display:inline;fill:#939598;}
	.st12{display:inline;fill:none;stroke:#A8AAAD;stroke-width:3.1755;stroke-miterlimit:10;}
	.st13{opacity:8.000000e-02;fill:#CCCCCB;}
	.st14{opacity:0.1;fill:#CCCCCB;}
	.st15{fill:none;stroke:#A8A5A6;stroke-width:0.3;stroke-miterlimit:10;}
	.st16{fill:none;stroke:#A8A5A6;stroke-width:0.3;stroke-miterlimit:10;stroke-dasharray:2.2101,2.2101;}
	.st17{fill:none;}
	.st18{fill:#6D6E71;}
	.st19{font-family:'MyriadPro-Bold';}
	.st20{font-size:15px;}
	.st21{fill:none;stroke:#000000;stroke-width:0.2735;stroke-miterlimit:10;}
	.st22{font-family:'MyriadPro-Regular';}
	.st23{font-size:13px;}
	.st24{font-size:14.15px;}
	.st25{font-size:14px;}
	.st26{fill:none;stroke:#A8A5A6;stroke-width:0.3189;stroke-miterlimit:10;}
	.st27{fill:none;stroke:#A8A5A6;stroke-width:0.3189;stroke-miterlimit:10;stroke-dasharray:2.3673,2.3673;}
	.st28{fill:url(#SVGID_3_);}
	.st29{font-family:'ITCAvantGardePro-Bk';}
	.st30{font-size:11px;}
	.st31{fill:#999999;}
	.st32{fill:#F57E20;}
	.st33{font-family:'ITCAvantGardePro-Demi';}
	.st34{font-size:34px;}
	.st35{font-size:28px;}
	.st36{fill:url(#SVGID_4_);}
	.st37{fill:#F7BE00;}
	.st38{fill:#4E677F;}
	.st39{font-size:18px;}
	.st40{filter:url(#Adobe_OpacityMaskFilter);}
	.st41{opacity:0.5;mask:url(#SVGID_5_);fill:url(#SVGID_6_);}
	.st42{filter:url(#Adobe_OpacityMaskFilter_1_);}
	.st43{opacity:0.5;mask:url(#SVGID_7_);fill:url(#SVGID_8_);}
	.st44{fill:none;stroke:#6D6E71;stroke-width:0.4851;stroke-miterlimit:10;}
</style>
<g id="GUIDES" class="st0">
</g>
<g id="Layer_1">
</g>
<g id="Layer_3" class="st0">
</g>
<g id="Layer_4">
	<path class="st13" d="M471.6,112v233.1c1.2,0.1,2.5,0.2,3.4,0.3c16.2,0.1,32.4,0.1,48.5,0.2h312.4V112H471.6z"/>
	<path class="st14" d="M471.6,66v278c1.2,0.1,2.5,0.2,3.4,0.3c16.2,0.1,32.4,0.2,48.6,0.3H836V66H471.6z"/>
	<path class="st14" d="M55.6,66v279c1.1,0.1,2.2,0.2,3,0.3c14.3,0.1,28.6,0.2,43,0.3H378V66H55.6z"/>
	<g>
		<g>
			<line class="st15" x1="56.3" y1="299.1" x2="57.4" y2="299.1"/>
			<line class="st16" x1="59.6" y1="299.1" x2="376.8" y2="299.1"/>
			<line class="st15" x1="377.9" y1="299.1" x2="379" y2="299.1"/>
		</g>
	</g>
	<g>
		<g>
			<line class="st15" x1="56.3" y1="252.3" x2="57.4" y2="252.3"/>
			<line class="st16" x1="59.6" y1="252.3" x2="376.8" y2="252.3"/>
			<line class="st15" x1="377.9" y1="252.3" x2="379" y2="252.3"/>
		</g>
	</g>
	<g>
		<g>
			<line class="st15" x1="56.3" y1="205.6" x2="57.4" y2="205.6"/>
			<line class="st16" x1="59.6" y1="205.6" x2="376.8" y2="205.6"/>
			<line class="st15" x1="377.9" y1="205.6" x2="379" y2="205.6"/>
		</g>
	</g>
	<g>
		<g>
			<line class="st15" x1="56.3" y1="158.8" x2="57.4" y2="158.8"/>
			<line class="st16" x1="59.6" y1="158.8" x2="376.8" y2="158.8"/>
			<line class="st15" x1="377.9" y1="158.8" x2="379" y2="158.8"/>
		</g>
	</g>
	<g>
		<g>
			<line class="st15" x1="56.3" y1="111.8" x2="57.4" y2="111.8"/>
			<line class="st16" x1="59.6" y1="111.8" x2="376.8" y2="111.8"/>
			<line class="st15" x1="377.9" y1="111.8" x2="379" y2="111.8"/>
		</g>
	</g>
	<g>
		<rect x="37.7" y="45.5" class="st17" width="360.3" height="23.6"/>
		<text transform="matrix(1 0 0 1 49.6416 58.0898)"><tspan x="0" y="0" class="st18 st19 st20">P</tspan><tspan x="8" y="0" class="st18 st19 st20">r</tspan><tspan x="13.4" y="0" class="st18 st19 st20">imary endpoint: HIV-1 RNA ≥50 copies/mL at Week 48</tspan></text>
	</g>
	<path class="st21" d="M55.6,66v279c1.1,0.1,2.2,0.2,3,0.3c14.3,0.1,28.6,0.2,43,0.3H378V66H55.6z"/>
	<g>
		
			<rect x="304.7" y="219.2" transform="matrix(1.432666e-03 -1 1 1.432666e-03 196.1237 650.9059)" class="st17" width="238.5" height="16"/>
		<text transform="matrix(0 -1 1 0 426.6729 297.1743)" class="st18 st22 st23">Proportion of patients (%)</text>
	</g>
	<text transform="matrix(1 0 0 1 245.5259 367.1436)"><tspan x="0" y="0" class="st18 st19 st24">2 NRTIs + </tspan><tspan x="-16.1" y="14.2" class="st18 st19 st24">third agent*</tspan><tspan x="5.6" y="28.3" class="st18 st19 st25">n=3/308</tspan></text>
	<g>
		<g>
			<line class="st26" x1="471.3" y1="299.1" x2="472.5" y2="299.1"/>
			<line class="st27" x1="474.9" y1="299.1" x2="833.5" y2="299.1"/>
			<line class="st26" x1="834.7" y1="299.1" x2="835.9" y2="299.1"/>
		</g>
	</g>
	<g>
		<g>
			<line class="st26" x1="471.3" y1="252.3" x2="472.5" y2="252.3"/>
			<line class="st27" x1="474.9" y1="252.3" x2="833.5" y2="252.3"/>
			<line class="st26" x1="834.7" y1="252.3" x2="835.9" y2="252.3"/>
		</g>
	</g>
	<g>
		<g>
			<line class="st26" x1="471.3" y1="205.6" x2="472.5" y2="205.6"/>
			<line class="st27" x1="474.9" y1="205.6" x2="833.5" y2="205.6"/>
			<line class="st26" x1="834.7" y1="205.6" x2="835.9" y2="205.6"/>
		</g>
	</g>
	<g>
		<g>
			<line class="st26" x1="471.3" y1="158.8" x2="472.5" y2="158.8"/>
			<line class="st27" x1="474.9" y1="158.8" x2="833.5" y2="158.8"/>
			<line class="st26" x1="834.7" y1="158.8" x2="835.9" y2="158.8"/>
		</g>
	</g>
	<g>
		<g>
			<line class="st26" x1="471.3" y1="112.8" x2="472.5" y2="112.8"/>
			<line class="st27" x1="474.9" y1="112.8" x2="833.5" y2="112.8"/>
			<line class="st26" x1="834.7" y1="112.8" x2="835.9" y2="112.8"/>
		</g>
	</g>
	<text transform="matrix(1 0 0 1 681.5928 367.1436)"><tspan x="0" y="0" class="st18 st19 st24">2 NRTIs + </tspan><tspan x="-16.1" y="14.2" class="st18 st19 st24">third agent*</tspan><tspan x="-1.9" y="28.3" class="st18 st19 st25">n=294/308</tspan></text>
	<g>
		<g>
			<g>
				<linearGradient id="SVGID_1_" gradientUnits="userSpaceOnUse" x1="711.0818" y1="346" x2="711.0818" y2="119.9485">
					<stop  offset="0" style="stop-color:#808080;stop-opacity:0.8"/>
					<stop  offset="1" style="stop-color:#999999"/>
				</linearGradient>
				<path style="fill:url(#SVGID_1_);" d="M738.3,119.9H684c-5.5,0-9.9,4.4-9.9,9.9L674,346v0v0h74.1l0.1-75.1l0,0V129.8
					C748.2,124.4,743.7,119.9,738.3,119.9z"/>
			</g>
		</g>
	</g>
	<rect x="21" y="294.2" class="st17" width="30.2" height="8.8"/>
	<text transform="matrix(1 0 0 1 39.0005 302.3657)" class="st18 st29 st30">20</text>
	<rect x="21" y="338" class="st17" width="30.2" height="9"/>
	<text transform="matrix(1 0 0 1 45.0942 346.144)" class="st18 st29 st30">0</text>
	<rect x="21" y="247.2" class="st17" width="30.2" height="10.8"/>
	<text transform="matrix(1 0 0 1 39.0005 255.3286)" class="st18 st29 st30">40</text>
	<rect x="21" y="200.2" class="st17" width="30.2" height="10.8"/>
	<text transform="matrix(1 0 0 1 39.0005 208.2915)" class="st18 st29 st30">60</text>
	<rect x="21" y="154.1" class="st17" width="30.2" height="9.9"/>
	<text transform="matrix(1 0 0 1 39.0005 162.2544)" class="st18 st29 st30">80</text>
	<rect x="21.1" y="108" class="st17" width="30.1" height="10"/>
	<text transform="matrix(1 0 0 1 32.9062 116.1392)" class="st18 st29 st30">100</text>
	<g>
		<text transform="matrix(1 0 0 1 121.2344 367.1436)"><tspan x="0" y="0" class="st18 st19 st24">CABENUVA</tspan><tspan x="10.8" y="14.2" class="st18 st19 st25">n=5/308</tspan></text>
	</g>
	<g>
		<text transform="matrix(1 0 0 1 562.2949 367.1436)"><tspan x="0" y="0" class="st18 st19 st24">CABENUVA</tspan><tspan x="3.4" y="14.2" class="st18 st19 st25">n=285/308</tspan></text>
	</g>
	<path class="st31" d="M241.7,342v3.5c0.2,0,0.5,0,0.7,0c3.2,0,6.3,0,9.5,0H313V342H241.7z"/>
	<path class="st32" d="M121.5,341.1v4.5c0.2,0,0.5,0,0.7,0c3.2,0,6.3,0,9.5,0H193v-4.5H121.5z"/>
	<text transform="matrix(1 -1.920000e-03 1.920000e-03 1 137.0637 337.4155)"><tspan x="0" y="0" class="st32 st33 st34">2</tspan><tspan x="18.2" y="0" class="st32 st33 st35">%</tspan></text>
	<g>
		<text transform="matrix(1 1.260000e-03 -1.260000e-03 1 256.5497 337.2579)"><tspan x="0" y="0" class="st31 st33 st34">1</tspan><tspan x="18.2" y="0" class="st31 st33 st35">%</tspan></text>
	</g>
	<g>
		
			<rect x="-110.3" y="219.2" transform="matrix(1.432666e-03 -1 1 1.432666e-03 -218.2839 235.9041)" class="st17" width="238.5" height="16"/>
		<text transform="matrix(0 -1 1 0 11.6729 297.1743)" class="st18 st22 st23">Proportion of patients (%)</text>
	</g>
	<text transform="matrix(1 0 0 1 535.2422 57.0898)" class="st18 st19 st20"> HIV-1 RNA &lt;50 copies/mL at Week 48</text>
	<linearGradient id="SVGID_2_" gradientUnits="userSpaceOnUse" x1="599.4753" y1="346" x2="599.4753" y2="128.9485">
		<stop  offset="0" style="stop-color:#999999"/>
		<stop  offset="0" style="stop-color:#D46E1B"/>
		<stop  offset="0" style="stop-color:#F57E20;stop-opacity:0.6"/>
		<stop  offset="1" style="stop-color:#F57E20"/>
	</linearGradient>
	<path style="fill:url(#SVGID_2_);" d="M627,128.9h-55c-5.5,0-10,4.5-10,10v143v-1.2V346H637v-64.1l0,0V139
		C637,133.4,632.5,128.9,627,128.9z"/>
	<text transform="matrix(1 0 0 1 571.3674 164.3833)"><tspan x="0" y="0" class="st8 st33 st34">93</tspan><tspan x="36.4" y="0" class="st8 st33 st35">%</tspan></text>
	<text transform="matrix(1 0 0 1 682.4597 164.3833)"><tspan x="0" y="0" class="st8 st33 st34">95</tspan><tspan x="36.4" y="0" class="st8 st33 st35">%</tspan></text>
	<rect x="438" y="294.2" class="st17" width="28.2" height="8.8"/>
	<text transform="matrix(1 0 0 1 454.0005 302.3657)" class="st18 st29 st30">20</text>
	<rect x="438" y="338" class="st17" width="28.2" height="9"/>
	<text transform="matrix(1 0 0 1 460.0942 346.144)" class="st18 st29 st30">0</text>
	<rect x="438" y="247.2" class="st17" width="28.2" height="10.8"/>
	<text transform="matrix(1 0 0 1 454.0005 255.3286)" class="st18 st29 st30">40</text>
	<rect x="438" y="200.2" class="st17" width="28.2" height="10.8"/>
	<text transform="matrix(1 0 0 1 454.0005 208.2915)" class="st18 st29 st30">60</text>
	<rect x="438" y="154.1" class="st17" width="28.2" height="9.9"/>
	<text transform="matrix(1 0 0 1 454.0005 162.2544)" class="st18 st29 st30">80</text>
	<rect x="438.1" y="108" class="st17" width="28.1" height="10"/>
	<text transform="matrix(1 0 0 1 447.9062 116.1392)" class="st18 st29 st30">100</text>
	<rect x="1" y="26" class="st37" width="836" height="3"/>
	<rect x="1" y="6.1" class="st17" width="561" height="13.9"/>
	<text transform="matrix(1 0 0 1 0.9997 18.8916)" class="st38 st19 st39">ITT-E SNAPSHOT Virologic outcomeS</text>
	<text transform="matrix(0.583 0 0 0.583 325.071 12.8975)" class="st38 st19 st39">1,2</text>
	<defs>
		<filter id="Adobe_OpacityMaskFilter" filterUnits="userSpaceOnUse" x="553.2" y="130.6" width="13.3" height="215.4">
			<feColorMatrix  type="matrix" values="1 0 0 0 0  0 1 0 0 0  0 0 1 0 0  0 0 0 1 0"/>
		</filter>
	</defs>
	<mask maskUnits="userSpaceOnUse" x="553.2" y="130.6" width="13.3" height="215.4" id="SVGID_3_">
		<g class="st40">
			<path class="st8" d="M529.9,128.9H557c2.7,0,4.9,4.5,4.9,10v143v-1.2V346H525v-64.1l0,0V139C525,133.4,527.2,128.9,529.9,128.9z"
				/>
		</g>
	</mask>
	<linearGradient id="SVGID_4_" gradientUnits="userSpaceOnUse" x1="553.2211" y1="238.3098" x2="566.4908" y2="238.3098">
		<stop  offset="0" style="stop-color:#2484C6;stop-opacity:0"/>
		<stop  offset="0.1192" style="stop-color:#3D81BA;stop-opacity:5.958257e-02"/>
		<stop  offset="0.3702" style="stop-color:#55789E;stop-opacity:0.1851"/>
		<stop  offset="0.7286" style="stop-color:#515A69;stop-opacity:0.3643"/>
		<stop  offset="1" style="stop-color:#000000;stop-opacity:0.5"/>
	</linearGradient>
	<polygon style="opacity:0.5;mask:url(#SVGID_3_);fill:url(#SVGID_4_);" points="566.5,130.6 554.2,142.9 553.2,346 566.4,346 	"/>
	<defs>
		<filter id="Adobe_OpacityMaskFilter_1_" filterUnits="userSpaceOnUse" x="665.2" y="122" width="13.3" height="224">
			<feColorMatrix  type="matrix" values="1 0 0 0 0  0 1 0 0 0  0 0 1 0 0  0 0 0 1 0"/>
		</filter>
	</defs>
	<mask maskUnits="userSpaceOnUse" x="665.2" y="122" width="13.3" height="224" id="SVGID_5_">
		<g class="st42">
			<path class="st8" d="M641.9,120.3H669c2.7,0,4.9,4.7,4.9,10.4v148.8v-1.2V346H637v-66.6l0,0V130.7
				C637,124.9,639.2,120.3,641.9,120.3z"/>
		</g>
	</mask>
	<linearGradient id="SVGID_6_" gradientUnits="userSpaceOnUse" x1="665.2211" y1="234" x2="678.4908" y2="234">
		<stop  offset="0" style="stop-color:#2484C6;stop-opacity:0"/>
		<stop  offset="0.1192" style="stop-color:#3D81BA;stop-opacity:5.958257e-02"/>
		<stop  offset="0.3702" style="stop-color:#55789E;stop-opacity:0.1851"/>
		<stop  offset="0.7286" style="stop-color:#515A69;stop-opacity:0.3643"/>
		<stop  offset="1" style="stop-color:#000000;stop-opacity:0.5"/>
	</linearGradient>
	<polygon class="st41" points="678.5,122 666.2,134.7 665.2,346 678.4,346 	"/>
	<path class="st21" d="M471.6,66v279c1.2,0.1,2.5,0.2,3.4,0.3c16.2,0.1,32.4,0.2,48.6,0.3H836V66H471.6z"/>
	<rect x="83.4" y="263" class="st17" width="285.8" height="33"/>
	<text transform="matrix(1 0 0 1 182.1403 273.8828)"><tspan x="0" y="0" class="st18 st22 st23">Difference: 0.7% </tspan><tspan x="-11.8" y="12" class="st18 st22 st23">(95% CI: -1.2%–2.5%)</tspan></text>
	<polyline class="st44" points="288,295 288,291 165,291 165,295 	"/>
	<rect x="510.2" y="75" class="st17" width="285.8" height="37"/>
	<text transform="matrix(1 0 0 1 607.0556 85.8828)"><tspan x="0" y="0" class="st18 st22 st23">Difference: -3.0% </tspan><tspan x="-9.9" y="12" class="st18 st22 st23">(95% CI: -6.7%–0.7%)</tspan></text>
	<polyline class="st44" points="708,108 708,104 591,104 591,108 	"/>
</g>
</svg>
