<svg title="injection-site-pro.svg" version="1.1" id="Layer_1" xmlns="http://www.w3.org/2000/svg"
xmlns:xlink="http://www.w3.org/1999/xlink" x="0px" y="0px" viewBox="0 0 1101.11 379.36"
enable-background="new 0 0 1101.11 379.36" xml:space="preserve">
<g id="CHART">
    <path fill="#FAFAFA" stroke="#000000" stroke-width="0.273" stroke-miterlimit="10" d="M586.45,24.86v304.8c0,0,42.5,0.2,61.8,0.3
                                    h271.8V24.86H586.45z" />
    <g>
        <g>

            <line fill="none" stroke="#A6A4A5" stroke-width="0.3476" stroke-miterlimit="10" x1="586.25" y1="39.06"
                x2="587.55" y2="39.06" />

            <line fill="none" stroke="#A6A4A5" stroke-width="0.3476" stroke-miterlimit="10"
                stroke-dasharray="2.5667,2.5667" x1="590.15" y1="39.06" x2="917.35" y2="39.06" />

            <line fill="none" stroke="#A6A4A5" stroke-width="0.3476" stroke-miterlimit="10" x1="918.65" y1="39.06"
                x2="919.95" y2="39.06" />
        </g>
    </g>
    <g>
        <g>

            <line fill="none" stroke="#A6A4A5" stroke-width="0.3476" stroke-miterlimit="10" x1="586.25" y1="97.56"
                x2="587.55" y2="97.56" />

            <line fill="none" stroke="#A6A4A5" stroke-width="0.3476" stroke-miterlimit="10"
                stroke-dasharray="2.5667,2.5667" x1="590.15" y1="97.56" x2="917.35" y2="97.56" />

            <line fill="none" stroke="#A6A4A5" stroke-width="0.3476" stroke-miterlimit="10" x1="918.65" y1="97.56"
                x2="919.95" y2="97.56" />
        </g>
    </g>
    <g>
        <g>

            <line fill="none" stroke="#A6A4A5" stroke-width="0.3476" stroke-miterlimit="10" x1="586.25" y1="155.76"
                x2="587.55" y2="155.76" />

            <line fill="none" stroke="#A6A4A5" stroke-width="0.3476" stroke-miterlimit="10"
                stroke-dasharray="2.5667,2.5667" x1="590.15" y1="155.76" x2="917.35" y2="155.76" />

            <line fill="none" stroke="#A6A4A5" stroke-width="0.3476" stroke-miterlimit="10" x1="918.65" y1="155.76"
                x2="919.95" y2="155.76" />
        </g>
    </g>
    <g>
        <g>

            <line fill="none" stroke="#A6A4A5" stroke-width="0.3476" stroke-miterlimit="10" x1="586.25" y1="214.06"
                x2="587.55" y2="214.06" />

            <line fill="none" stroke="#A6A4A5" stroke-width="0.3476" stroke-miterlimit="10"
                stroke-dasharray="2.5667,2.5667" x1="590.15" y1="214.06" x2="917.35" y2="214.06" />

            <line fill="none" stroke="#A6A4A5" stroke-width="0.3476" stroke-miterlimit="10" x1="918.65" y1="214.06"
                x2="919.95" y2="214.06" />
        </g>
    </g>
    <g>
        <g>

            <line fill="none" stroke="#A6A4A5" stroke-width="0.3476" stroke-miterlimit="10" x1="586.25" y1="272.26"
                x2="587.55" y2="272.26" />

            <line fill="none" stroke="#A6A4A5" stroke-width="0.3476" stroke-miterlimit="10"
                stroke-dasharray="2.5667,2.5667" x1="590.15" y1="272.26" x2="917.35" y2="272.26" />

            <line fill="none" stroke="#A6A4A5" stroke-width="0.3476" stroke-miterlimit="10" x1="918.65" y1="272.26"
                x2="919.95" y2="272.26" />
        </g>
    </g>

    <rect x="38.75" y="39.46" fill="#FAFAFA" stroke="#000000" stroke-width="0.273" stroke-miterlimit="10"
        width="323.2" height="291.2" />
    <g>
        <g>
            <line fill="none" stroke="#A6A4A5" stroke-width="0.3" stroke-miterlimit="10" x1="38.95" y1="97.96"
                x2="40.05" y2="97.96" />

            <line fill="none" stroke="#A6A4A5" stroke-width="0.3" stroke-miterlimit="10"
                stroke-dasharray="2.212,2.212" x1="42.25" y1="97.96" x2="359.75" y2="97.96" />
            <line fill="none" stroke="#A6A4A5" stroke-width="0.3" stroke-miterlimit="10" x1="360.85" y1="97.96"
                x2="361.95" y2="97.96" />
        </g>
    </g>
    <g>
        <g>
            <line fill="none" stroke="#A6A4A5" stroke-width="0.3" stroke-miterlimit="10" x1="38.95" y1="156.16"
                x2="40.05" y2="156.16" />

            <line fill="none" stroke="#A6A4A5" stroke-width="0.3" stroke-miterlimit="10"
                stroke-dasharray="2.212,2.212" x1="42.25" y1="156.16" x2="359.75" y2="156.16" />

            <line fill="none" stroke="#A6A4A5" stroke-width="0.3" stroke-miterlimit="10" x1="360.85" y1="156.16"
                x2="361.95" y2="156.16" />
        </g>
    </g>
    <g>
        <g>
            <line fill="none" stroke="#A6A4A5" stroke-width="0.3" stroke-miterlimit="10" x1="38.95" y1="214.46"
                x2="40.05" y2="214.46" />

            <line fill="none" stroke="#A6A4A5" stroke-width="0.3" stroke-miterlimit="10"
                stroke-dasharray="2.212,2.212" x1="42.25" y1="214.46" x2="359.75" y2="214.46" />

            <line fill="none" stroke="#A6A4A5" stroke-width="0.3" stroke-miterlimit="10" x1="360.85" y1="214.46"
                x2="361.95" y2="214.46" />
        </g>
    </g>
    <g>
        <g>
            <line fill="none" stroke="#A6A4A5" stroke-width="0.3" stroke-miterlimit="10" x1="38.95" y1="272.66"
                x2="40.05" y2="272.66" />

            <line fill="none" stroke="#A6A4A5" stroke-width="0.3" stroke-miterlimit="10"
                stroke-dasharray="2.212,2.212" x1="42.25" y1="272.66" x2="359.75" y2="272.66" />

            <line fill="none" stroke="#A6A4A5" stroke-width="0.3" stroke-miterlimit="10" x1="360.85" y1="272.66"
                x2="361.95" y2="272.66" />
        </g>
    </g>
</g>
<g id="Layer_4">
    <g>
        <g>
            <path id="SVGID_1_" fill="#F0AB66" d="M878.75,76.76h-59v-26.8c0-5.9,4.8-10.6,10.6-10.6h37.7c5.9,0,10.6,4.8,10.6,10.6v26.8
                                            H878.75z" />
        </g>
        <g>
            <defs>
                <path id="SVGID_2_"
                    d="M878.75,76.76h-59v-26.8c0-5.9,4.8-10.6,10.6-10.6h37.7c5.9,0,10.6,4.8,10.6,10.6v26.8H878.75z" />
            </defs>
            <clipPath id="SVGID_3_">
                <use xlink:href="#SVGID_2_" overflow="visible" />
            </clipPath>
            <rect x="819.65" y="41.26" clip-path="url(#SVGID_3_)" fill="#F0AB66" width="59" height="29.5" />
        </g>
        <g>
            <defs>
                <path id="SVGID_4_"
                    d="M878.75,76.76h-59v-26.8c0-5.9,4.8-10.6,10.6-10.6h37.7c5.9,0,10.6,4.8,10.6,10.6v26.8H878.75z" />
            </defs>
            <clipPath id="SVGID_5_">
                <use xlink:href="#SVGID_4_" overflow="visible" />
            </clipPath>
            <rect x="819.65" y="39.36" clip-path="url(#SVGID_5_)" fill="#B2BFC9" width="59" height="1.9" />
        </g>
    </g>
    <rect x="720.35" y="84.96" fill="#E67300" width="59" height="245.2" />
    <rect x="620.25" y="52.36" fill="#F0AB66" width="59" height="78.5" />
    <path fill="#B9C5CE" d="M679.25,52.36h-59v-2.4c0-5.9,4.8-10.6,10.6-10.6h37.8c5.9,0,10.6,4.8,10.6,10.6L679.25,52.36L679.25,52.36
                                    z" />
    <path fill="#B9C5CE"
        d="M720.35,43.46h59l0,0c0-2.4-2-4.4-4.4-4.4h-50.3C722.35,39.06,720.35,41.06,720.35,43.46L720.35,43.46z" />
    <rect x="720.35" y="43.06" fill="#F0AB66" width="59" height="41.8" />
    <rect x="819.65" y="76.76" fill="#E67300" width="59" height="253.4" />
    <g>
        <rect x="551.75" y="34.86" fill="none" width="26.5" height="9.1" />
        <text transform="matrix(1 0 0 1 552.5952 42.6997)" fill="#6D6E70" font-family="'MyriadPro-Semibold'"
            font-size="11px">100% </text>
    </g>
    <g>
        <rect x="551.75" y="93.06" fill="none" width="26.5" height="9.1" />
        <text transform="matrix(1 0 0 1 558.2388 100.8593)" fill="#6D6E70" font-family="'MyriadPro-Semibold'"
            font-size="11px">80% </text>
    </g>
    <g>
        <rect x="551.75" y="151.56" fill="none" width="26.5" height="9.1" />
        <text transform="matrix(1 0 0 1 558.2388 159.335)" fill="#6D6E70" font-family="'MyriadPro-Semibold'"
            font-size="11px">60% </text>
    </g>
    <g>
        <rect x="551.75" y="208.96" fill="none" width="26.5" height="9.1" />
        <text transform="matrix(1 0 0 1 558.2388 216.769)" fill="#6D6E70" font-family="'MyriadPro-Semibold'"
            font-size="11px">40% </text>
    </g>
    <g>
        <rect x="551.75" y="267.76" fill="none" width="26.5" height="9.1" />
        <text transform="matrix(1 0 0 1 558.2388 275.5854)" fill="#6D6E70" font-family="'MyriadPro-Semibold'"
            font-size="11px">20% </text>
    </g>
    <g>
        <rect x="551.75" y="325.96" fill="none" width="26.5" height="9.1" />
        <text transform="matrix(1 0 0 1 563.8813 333.7813)" fill="#6D6E70" font-family="'MyriadPro-Semibold'"
            font-size="11px">0% </text>
    </g>
    <g>
        <rect x="617.45" y="341.46" fill="none" width="62.4" height="26.5" />
        <text transform="matrix(1 0 0 1 626.595 351.4816)" fill="#6D6E70" font-family="'MyriadPro-Bold'"
            font-size="14.15px">Week 5</text>
        <text transform="matrix(1 0 0 1 624.395 365.5815)" fill="#6D6E70" font-family="'MyriadPro-Bold'"
            font-size="14.15px">(N=565)</text>
    </g>
    <g>
        <rect x="718.95" y="341.46" fill="none" width="62.4" height="26.5" />
        <text transform="matrix(1 0 0 1 724.3046 351.4816)" fill="#6D6E70" font-family="'MyriadPro-Bold'"
            font-size="14.15px">Week 41</text>
        <text transform="matrix(1 0 0 1 725.8046 365.5815)" fill="#6D6E70" font-family="'MyriadPro-Bold'"
            font-size="14.15px">(N=575)</text>
    </g>
    <g>
        <rect x="818.05" y="341.46" fill="none" width="62.4" height="26.5" />
        <text transform="matrix(1 0 0 1 823.3932 351.4816)" fill="#6D6E70" font-family="'MyriadPro-Bold'"
            font-size="14.15px">Week 48</text>
        <text transform="matrix(1 0 0 1 824.8932 365.5815)" fill="#6D6E70" font-family="'MyriadPro-Bold'"
            font-size="14.15px">(N=580)</text>
    </g>
    <g>
        <rect x="535.95" y="95.46" fill="none" width="10.6" height="179.7" />
        <text transform="matrix(0 -1 1 0 544.4217 235.4053)" fill="#6D6E70" font-family="'MyriadPro-Semibold'"
            font-size="12px">Proportion of patients</text>
    </g>
    <g>
        <rect x="1.55" y="95.46" fill="none" width="10.6" height="179.7" />
        <text transform="matrix(0 -1 1 0 10.0439 217.0391)" fill="#6D6E70" font-family="'MyriadPro-Semibold'"
            font-size="12px">Median score</text>
    </g>
    <g>
        <rect x="959.05" y="319.16" fill="none" width="106.6" height="18.2" />
        <text transform="matrix(1 0 0 1 959.0669 326.9323)" fill="#6D6E70" font-family="'MyriadPro-Semibold'"
            font-size="11px">Totally/very acceptable</text>

    </g>
    <g>
        <rect x="381.75" y="270.06" fill="none" width="128" height="61" />
        <text transform="matrix(1 0 0 1 381.7726 277.8918)" fill="#6D6E70" font-family="'MyriadPro-Semibold'"
            font-size="11px">1 = Totally acceptable</text>
        <text transform="matrix(1 0 0 1 381.7726 291.0918)" fill="#6D6E70" font-family="'MyriadPro-Semibold'"
            font-size="11px">2 = Very acceptable</text>
        <text transform="matrix(1 0 0 1 381.7726 304.2918)" fill="#6D6E70" font-family="'MyriadPro-Semibold'"
            font-size="11px">3 = Moderately acceptable</text>
        <text transform="matrix(1 0 0 1 381.7726 317.4918)" fill="#6D6E70" font-family="'MyriadPro-Semibold'"
            font-size="11px">4 = A little acceptable</text>
        <text transform="matrix(1 0 0 1 381.7726 330.6918)" fill="#6D6E70" font-family="'MyriadPro-Semibold'"
            font-size="11px">5 = Not at all acceptable</text>
    </g>
    <g>
        <rect x="959.25" y="277.86" fill="none" width="126" height="18.2" />
        <text transform="matrix(1 0 0 1 959.2212 285.7037)" fill="#6D6E70" font-family="'MyriadPro-Semibold'"
            font-size="11px">Not at all acceptable</text>
    </g>
    <g>
        <rect x="959.05" y="299.16" fill="none" width="139.1" height="16.8" />
        <text transform="matrix(1 0 0 1 959.0669 307.0082)" fill="#6D6E70" font-family="'MyriadPro-Semibold'"
            font-size="11px">Moderately/a little acceptable</text>
    </g>
    <rect x="938.15" y="316.46" fill="#E67300" width="13.7" height="13.7" />
    <rect x="938.15" y="274.26" fill="#B9C5CE" width="13.7" height="13.7" />
    <rect x="938.15" y="295.36" fill="#FAAB71" width="13.7" height="13.7" />
    <rect x="620.25" y="131.06" fill="#E67300" width="59" height="199.2" />
    <rect x="621.75" y="81.96" fill="none" width="56.3" height="17" />
    <text transform="matrix(1 0 0 1 631.769 96.7315)" fill="#FFFFFF" font-family="'ITC-ITCAvantGardePro-Demi'"
        font-size="20px">27</text>
    <text transform="matrix(1 0 0 1 654.1689 96.7315)" fill="#FFFFFF" font-family="'ITC-ITCAvantGardePro-Demi'"
        font-size="16px">%</text>
    <rect x="621.75" y="41.06" fill="none" width="56.3" height="10.4" />
    <text transform="matrix(1 0 0 1 641.479 50.6716)" fill="#FFFFFF" font-family="'ITC-ITCAvantGardePro-Demi'"
        font-size="13px">5</text>
    <text transform="matrix(1 0 0 1 648.7789 50.6716)" fill="#FFFFFF" font-family="'ITC-ITCAvantGardePro-Demi'"
        font-size="11px">%</text>
    <rect x="721.35" y="54.66" fill="none" width="56.3" height="17" />
    <text transform="matrix(1 0 0 1 731.9474 69.4398)" fill="#FFFFFF" font-family="'ITC-ITCAvantGardePro-Demi'"
        font-size="20px">14</text>
    <text transform="matrix(1 0 0 1 753.1475 69.4398)" fill="#FFFFFF" font-family="'ITC-ITCAvantGardePro-Demi'"
        font-size="16px">%</text>
    <rect x="721.55" y="178.46" fill="none" width="56.3" height="17" />
    <text transform="matrix(1 0 0 1 732.2256 193.2251)" fill="#FFFFFF" font-family="'ITC-ITCAvantGardePro-Demi'"
        font-size="20px">85</text>
    <text transform="matrix(1 0 0 1 753.4257 193.2251)" fill="#FFFFFF" font-family="'ITC-ITCAvantGardePro-Demi'"
        font-size="16px">%</text>
    <rect x="821.15" y="172.26" fill="none" width="56.3" height="17" />
    <text transform="matrix(1 0 0 1 831.7976 187.0297)" fill="#FFFFFF" font-family="'ITC-ITCAvantGardePro-Demi'"
        font-size="20px">87</text>
    <text transform="matrix(1 0 0 1 852.9976 187.0297)" fill="#FFFFFF" font-family="'ITC-ITCAvantGardePro-Demi'"
        font-size="16px">%</text>
    <rect x="821.55" y="52.06" fill="none" width="56.3" height="17" />
    <text transform="matrix(1 0 0 1 832.1547 66.8864)" fill="#FFFFFF" font-family="'ITC-ITCAvantGardePro-Demi'"
        font-size="20px">12</text>
    <text transform="matrix(1 0 0 1 853.3547 66.8864)" fill="#FFFFFF" font-family="'ITC-ITCAvantGardePro-Demi'"
        font-size="16px">%</text>
    <g>
        <rect x="821.05" y="28.46" fill="none" width="56.3" height="17" />
        <text transform="matrix(1 0 0 1 841.3918 36.583)" fill="#B2BFC9" font-family="'ITC-ITCAvantGardePro-Demi'"
            font-size="11px">1%</text>
    </g>
    <rect x="721.95" y="28.26" fill="none" width="56.3" height="17" />
    <text transform="matrix(1 0 0 1 741.7437 37.8501)" fill="#B2BFC9" font-family="'ITC-ITCAvantGardePro-Demi'"
        font-size="13px">2</text>
    <text transform="matrix(1 0 0 1 749.0437 37.8501)" fill="#B2BFC9" font-family="'ITC-ITCAvantGardePro-Demi'"
        font-size="11px">%</text>
    <rect x="621.75" y="212.66" fill="none" width="56.3" height="29.6" />
    <text transform="matrix(1 0 0 1 631.769 227.4325)" fill="#FFFFFF" font-family="'ITC-ITCAvantGardePro-Demi'"
        font-size="20px">69</text>
    <text transform="matrix(1 0 0 1 654.1689 227.4325)" fill="#FFFFFF" font-family="'ITC-ITCAvantGardePro-Demi'"
        font-size="16px">%</text>
</g>
<g id="ART">
    <path fill="#E57525"
        d="M125.15,331.06h-57.7v-106.1c0-5.8,4.7-10.5,10.5-10.5h36.6c5.8,0,10.5,4.7,10.5,10.5v106.1H125.15z" />
    <path fill="#E57525"
        d="M231.15,330.56h-57.6v-76.3c0-5.8,4.7-10.5,10.5-10.5h36.6c5.8,0,10.5,4.7,10.5,10.5V330.56z" />
    <path fill="#E57525"
        d="M337.15,330.56h-57.6v-76.3c0-5.8,4.7-10.5,10.5-10.5h36.6c5.8,0,10.5,4.7,10.5,10.5V330.56z" />
    <g>
        <rect x="17.75" y="34.86" fill="none" width="13.2" height="9.1" />
        <text transform="matrix(1 0 0 1 25.3404 42.6997)" fill="#6D6E70" font-family="'MyriadPro-Semibold'"
            font-size="11px">5</text>
    </g>
    <g>
        <rect x="17.75" y="93.46" fill="none" width="13.2" height="9.1" />
        <text transform="matrix(1 0 0 1 25.3404 101.2564)" fill="#6D6E70" font-family="'MyriadPro-Semibold'"
            font-size="11px">4</text>
    </g>
    <g>
        <rect x="17.75" y="151.96" fill="none" width="13.2" height="9.1" />
        <text transform="matrix(1 0 0 1 25.3404 159.7325)" fill="#6D6E70" font-family="'MyriadPro-Semibold'"
            font-size="11px">3</text>
    </g>
    <g>
        <rect x="17.75" y="209.36" fill="none" width="13.2" height="9.1" />
        <text transform="matrix(1 0 0 1 25.3404 217.1661)" fill="#6D6E70" font-family="'MyriadPro-Semibold'"
            font-size="11px">2</text>
    </g>
    <g>
        <rect x="17.75" y="268.16" fill="none" width="13.2" height="9.1" />
        <text transform="matrix(1 0 0 1 25.3404 275.9829)" fill="#6D6E70" font-family="'MyriadPro-Semibold'"
            font-size="11px">1</text>
    </g>
    <g>
        <rect x="17.75" y="326.36" fill="none" width="13.2" height="9.1" />
        <text transform="matrix(1 0 0 1 25.3404 334.1783)" fill="#6D6E70" font-family="'MyriadPro-Semibold'"
            font-size="11px">0</text>
    </g>
    <g>
        <rect x="63.05" y="341.86" fill="none" width="62.4" height="37.5" />
        <text transform="matrix(1 0 0 1 72.1466 351.8789)" fill="#6D6E70" font-family="'MyriadPro-Bold'"
            font-size="14.15px">Week 5</text>
        <text transform="matrix(1 0 0 1 69.9466 365.9789)" fill="#6D6E70" font-family="'MyriadPro-Bold'"
            font-size="14.15px">(N=591)</text>
    </g>
    <g>
        <rect x="169.25" y="341.86" fill="none" width="62.4" height="37.5" />
        <text transform="matrix(1 0 0 1 174.639 351.8789)" fill="#6D6E70" font-family="'MyriadPro-Bold'"
            font-size="14.15px">Week 41</text>
        <text transform="matrix(1 0 0 1 176.139 365.9789)" fill="#6D6E70" font-family="'MyriadPro-Bold'"
            font-size="14.15px">(N=591)</text>
    </g>
    <g>
        <rect x="278.15" y="341.86" fill="none" width="62.4" height="37.5" />
        <text transform="matrix(1 0 0 1 283.5193 351.8789)" fill="#6D6E70" font-family="'MyriadPro-Bold'"
            font-size="14.15px">Week 48</text>
        <text transform="matrix(1 0 0 1 285.0193 365.9789)" fill="#6D6E70" font-family="'MyriadPro-Bold'"
            font-size="14.15px">(N=591)</text>
    </g>
    <rect x="72.45" y="263.56" fill="none" width="47.6" height="36.3" />
    <text transform="matrix(1 0 0 1 78.8102 282.069)" fill="#FFFFFF" font-family="'ITC-ITCAvantGardePro-Demi'"
        font-size="25px">2.0</text>
    <rect x="177.85" y="283.36" fill="none" width="47.6" height="36.3" />
    <text transform="matrix(1 0 0 1 184.1523 301.8134)" fill="#FFFFFF" font-family="'ITC-ITCAvantGardePro-Demi'"
        font-size="25px">1.5</text>
    <rect x="282.45" y="283.36" fill="none" width="47.6" height="36.3" />
    <text transform="matrix(1 0 0 1 288.8116 301.8134)" fill="#FFFFFF" font-family="'ITC-ITCAvantGardePro-Demi'"
        font-size="25px">1.5</text>
    <g>
        <text transform="matrix(1 0 0 1 517.8727 12.5547)" fill="#6D6E70" font-family="'MyriadPro-Bold'"
            font-size="15px">Mean proportion of patient responses to acceptance domain questions*</text>
    </g>
    <g>
        <text transform="matrix(1 0 0 1 116.0192 12.5548)" fill="#6D6E70" font-family="'MyriadPro-Bold'"
            font-size="15px">Domain score: acceptance</text>
    </g>
</g>
</svg>