                <svg title="itt-e-fda-snapshot-virologic-outcomes" version="1.1" id="Layer_1" xmlns="http://www.w3.org/2000/svg"
                    xmlns:xlink="http://www.w3.org/1999/xlink" x="0px" y="0px" viewBox="0 0 845.58 343.6"
                    enable-background="new 0 0 845.58 343.6" xml:space="preserve">
                    <g id="GUIDES" display="none">
                    </g>
                    <g id="Layer_3" display="none">
                    </g>
                    <g id="Layer_4">
                        <path opacity="0.1" fill="#CCCBCB" enable-background="new" d="M480.84,26.5v279c1.2,0.1,2.5,0.2,3.4,0.3
                                   c16.2,0.1,32.4,0.2,48.6,0.3h312.6V26.5H480.84z" />
                        <path opacity="0.1" fill="#CCCBCB" enable-background="new" d="M55.84,26.5v279c1.1,0.1,2.2,0.2,3,0.3
                                   c14.3,0.1,28.6,0.2,43,0.3h276.4V26.5H55.84z" />
                        <path fill="none" stroke="#000000" stroke-width="0.2735" stroke-miterlimit="10" d="M480.84,26.5v279c1.2,0.1,2.5,0.2,3.4,0.3
                                   c16.2,0.1,32.4,0.2,48.6,0.3h312.6V26.5H480.84z" />
                        <path fill="none" stroke="#000000" stroke-width="0.2735" stroke-miterlimit="10" d="M55.84,26.5v279c1.1,0.1,2.2,0.2,3,0.3
                                   c14.3,0.1,28.6,0.2,43,0.3h276.4V26.5H55.84z" />
                        <g>
                            <g>
                                <line fill="none" stroke="#A6A4A5" stroke-width="0.319" stroke-miterlimit="10" x1="480.54" y1="259.6"
                                    x2="481.74" y2="259.6" />
                                <line fill="none" stroke="#A6A4A5" stroke-width="0.319" stroke-miterlimit="10"
                                    stroke-dasharray="2.3687,2.3687" x1="484.14" y1="259.6" x2="842.94" y2="259.6" />
                                <line fill="none" stroke="#A6A4A5" stroke-width="0.319" stroke-miterlimit="10" x1="844.14" y1="259.6"
                                    x2="845.34" y2="259.6" />
                            </g>
                        </g>
                        <g>
                            <g>
                                <line fill="none" stroke="#A6A4A5" stroke-width="0.319" stroke-miterlimit="10" x1="480.54" y1="212.8"
                                    x2="481.74" y2="212.8" />
                                <line fill="none" stroke="#A6A4A5" stroke-width="0.319" stroke-miterlimit="10"
                                    stroke-dasharray="2.3687,2.3687" x1="484.14" y1="212.8" x2="842.94" y2="212.8" />
                                <line fill="none" stroke="#A6A4A5" stroke-width="0.319" stroke-miterlimit="10" x1="844.14" y1="212.8"
                                    x2="845.34" y2="212.8" />
                            </g>
                        </g>
                        <g>
                            <g>
                                <line fill="none" stroke="#A6A4A5" stroke-width="0.319" stroke-miterlimit="10" x1="480.54" y1="166.1"
                                    x2="481.74" y2="166.1" />
                                <line fill="none" stroke="#A6A4A5" stroke-width="0.319" stroke-miterlimit="10"
                                    stroke-dasharray="2.3687,2.3687" x1="484.14" y1="166.1" x2="842.94" y2="166.1" />
                                <line fill="none" stroke="#A6A4A5" stroke-width="0.319" stroke-miterlimit="10" x1="844.14" y1="166.1"
                                    x2="845.34" y2="166.1" />
                            </g>
                        </g>
                        <g>
                            <g>
                
                                <line fill="none" stroke="#A6A4A5" stroke-width="0.319" stroke-miterlimit="10" x1="480.54" y1="119.3"
                                    x2="481.74" y2="119.3" />
                                <line fill="none" stroke="#A6A4A5" stroke-width="0.319" stroke-miterlimit="10"
                                    stroke-dasharray="2.3687,2.3687" x1="484.14" y1="119.3" x2="842.94" y2="119.3" />
                                <line fill="none" stroke="#A6A4A5" stroke-width="0.319" stroke-miterlimit="10" x1="844.14" y1="119.3"
                                    x2="845.34" y2="119.3" />
                            </g>
                        </g>
                        <g>
                            <g>
                                <line fill="none" stroke="#A6A4A5" stroke-width="0.319" stroke-miterlimit="10" x1="480.54" y1="72.3"
                                    x2="481.74" y2="72.3" />
                                <line fill="none" stroke="#A6A4A5" stroke-width="0.319" stroke-miterlimit="10"
                                    stroke-dasharray="2.3687,2.3687" x1="484.14" y1="72.3" x2="842.94" y2="72.3" />
                                <line fill="none" stroke="#A6A4A5" stroke-width="0.319" stroke-miterlimit="10" x1="844.14" y1="72.3"
                                    x2="845.34" y2="72.3" />
                            </g>
                        </g>
                        <g>
                            <g>
                                <line fill="none" stroke="#A6A4A5" stroke-width="0.319" stroke-miterlimit="10" x1="55.54" y1="72.3"
                                    x2="56.74" y2="72.3" />
                                <line fill="none" stroke="#A6A4A5" stroke-width="0.319" stroke-miterlimit="10"
                                    stroke-dasharray="2.3727,2.3727" x1="59.14" y1="72.3" x2="375.84" y2="72.3" />
                                <line fill="none" stroke="#A6A4A5" stroke-width="0.319" stroke-miterlimit="10" x1="377.04" y1="72.3"
                                    x2="378.24" y2="72.3" />
                            </g>
                        </g>
                        <g>
                            <text transform="matrix(1 0 0 1 120.4746 325.6436)" fill="#6D6E70" font-family="'MyriadPro-Bold'"
                                font-size="14.15px">CABENUVA</text>
                        </g>
                        <text transform="matrix(1 0 0 1 230.7177 325.6436)" fill="#6D6E70" font-family="'MyriadPro-Bold'"
                            font-size="14.15px">ABC/DTG/3TC*</text>
                        <text transform="matrix(1 0 0 1 666.6455 325.6436)" fill="#6D6E70" font-family="'MyriadPro-Bold'"
                            font-size="14.15px">ABC/DTG/3TC*</text>
                        <g>
                            <text transform="matrix(1 0 0 1 129.3193 339.9863)" fill="#6D6E70" font-family="'MyriadPro-Bold'"
                                font-size="14px">n=6/283</text>
                        </g>
                        <text transform="matrix(1 0 0 1 249.4395 339.9863)" fill="#6D6E70" font-family="'MyriadPro-Bold'"
                            font-size="14px">n=7/283</text>
                        <g>
                            <text transform="matrix(1 -1.780000e-03 1.780000e-03 1 562.4573 325.6406)" fill="#6D6E70"
                                font-family="'MyriadPro-Bold'" font-size="14.15px">CABENUVA</text>
                        </g>
                        <g>
                
                            <text transform="matrix(1 -1.780000e-03 1.780000e-03 1 565.9071 340.101)" fill="#6D6E70"
                                font-family="'MyriadPro-Bold'" font-size="14px">n=265/283</text>
                        </g>
                
                        <linearGradient id="SVGID_2_flair" gradientUnits="userSpaceOnUse" x1="598.6402" y1="-17.5" x2="598.6402"
                            y2="203.6" gradientTransform="matrix(1 0 0 -1 0 289)">
                            <stop offset="0" style="stop-color:#F2B67A" />
                            <stop offset="1" style="stop-color:#E67300" />
                        </linearGradient>
                        <path fill="url(#SVGID_2_flair)" d="M626.24,85.4h-55.2c-5.5,0-10,4.5-10,10v143v-1.2v69.3h75.2v-68.1l0,0V95.5
                                   C636.24,89.9,631.74,85.4,626.24,85.4z" />
                        <defs>
                            <filter id="Adobe_OpacityMaskFilter_flair" filterUnits="userSpaceOnUse" x="552.44" y="87.5" width="13.3"
                                height="219">
                                <feColorMatrix type="matrix" values="1 0 0 0 0  0 1 0 0 0  0 0 1 0 0  0 0 0 1 0" />
                            </filter>
                        </defs>
                        <mask maskUnits="userSpaceOnUse" x="552.44" y="87.5" width="13.3" height="219" id="SVGID_1_flair">
                            <g filter="url(#Adobe_OpacityMaskFilter_flair)">
                                <path fill="#FFFFFF" d="M529.14,85.8h27.1c2.7,0,4.9,4.6,4.9,10.2v145.4v-1.2v66.3h-36.9v-65.2l0,0V96
                                           C524.24,90.4,526.44,85.8,529.14,85.8z" />
                            </g>
                        </mask>
                
                        <linearGradient id="SVGID_4_flair" gradientUnits="userSpaceOnUse" x1="552.4614" y1="92" x2="565.731" y2="92"
                            gradientTransform="matrix(1 0 0 -1 0 289)">
                            <stop offset="0" style="stop-color:#2483C5;stop-opacity:0" />
                            <stop offset="0.1752" style="stop-color:#2475AE;stop-opacity:0.0876" />
                            <stop offset="0.5437" style="stop-color:#235172;stop-opacity:0.2719" />
                            <stop offset="1" style="stop-color:#231F20;stop-opacity:0.5" />
                        </linearGradient>
                        <polygon opacity="0.5" mask="url(#SVGID_1_flair" ) fill="url(#SVGID_4_flair)" enable-background="new" points="565.74,87.5 553.44,100
                                   552.44,306.5 565.64,306.5 	" />
                        <text transform="matrix(1 0 0 1 568.6071 126.3833)" fill="#FFFFFF" font-family="'ITC-ITCAvantGardePro-Demi'"
                            font-size="34px">94</text>
                        <text transform="matrix(1 0 0 1 605.0071 126.3833)" fill="#FFFFFF" font-family="'ITC-ITCAvantGardePro-Demi'"
                            font-size="28px">%</text>
                        <g>
                            <text transform="matrix(1 0 0 1 681.4248 339.9863)" fill="#6D6E70" font-family="'MyriadPro-Bold'"
                                font-size="14px">n=264/283</text>
                        </g>
                
                        <linearGradient id="SVGID_5_flair" gradientUnits="userSpaceOnUse" x1="713.2402" y1="-17.5" x2="713.2402"
                            y2="199.6" gradientTransform="matrix(1 0 0 -1 0 289)">
                            <stop offset="0.0927" style="stop-color:#9A9B9D" />
                            <stop offset="1" style="stop-color:#808285;stop-opacity:0.8" />
                        </linearGradient>
                        <path fill="url(#SVGID_5_flair)" d="M740.34,89.4h-54.3c-5.5,0-9.9,4.4-9.9,9.9l0,207.2v-0.2v0.2h74l0.2-66.1l0,0V99.3
                                   C750.24,93.9,745.84,89.4,740.34,89.4z" />
                        <text transform="matrix(1 0 0 1 685.7007 126.3833)" fill="#FFFFFF" font-family="'ITC-ITCAvantGardePro-Demi'"
                            font-size="34px">93</text>
                        <text transform="matrix(1 0 0 1 722.1006 126.3833)" fill="#FFFFFF" font-family="'ITC-ITCAvantGardePro-Demi'"
                            font-size="28px">%</text>
                        <rect x="24.24" y="254.7" fill="none" width="26.2" height="8.8" />
                        <text transform="matrix(1 0 0 1 38.2407 262.8657)" fill="#6D6E70" font-family="'ITC-ITCAvantGardePro-Bk'"
                            font-size="11px">20</text>
                        <rect x="24.24" y="298.5" fill="none" width="26.2" height="9" />
                        <text transform="matrix(1 0 0 1 44.3344 306.644)" fill="#6D6E70" font-family="'ITC-ITCAvantGardePro-Bk'"
                            font-size="11px">0</text>
                        <rect x="24.24" y="207.7" fill="none" width="26.2" height="10.8" />
                        <text transform="matrix(1 0 0 1 38.2407 215.8286)" fill="#6D6E70" font-family="'ITC-ITCAvantGardePro-Bk'"
                            font-size="11px">40</text>
                        <rect x="24.24" y="160.7" fill="none" width="26.2" height="10.8" />
                        <text transform="matrix(1 0 0 1 38.2407 168.7915)" fill="#6D6E70" font-family="'ITC-ITCAvantGardePro-Bk'"
                            font-size="11px">60</text>
                        <rect x="24.24" y="114.6" fill="none" width="26.2" height="9.9" />
                        <text transform="matrix(1 0 0 1 38.2407 122.7544)" fill="#6D6E70" font-family="'ITC-ITCAvantGardePro-Bk'"
                            font-size="11px">80</text>
                        <rect x="24.34" y="68.5" fill="none" width="26.1" height="10" />
                        <text transform="matrix(1 0 0 1 32.1464 76.6392)" fill="#6D6E70" font-family="'ITC-ITCAvantGardePro-Bk'"
                            font-size="11px">100</text>
                        <g>
                            <g>
                                <line fill="none" stroke="#A6A4A5" stroke-width="0.3" stroke-miterlimit="10" x1="55.54" y1="259.6"
                                    x2="56.64" y2="259.6" />
                                <line fill="none" stroke="#A6A4A5" stroke-width="0.3" stroke-miterlimit="10"
                                    stroke-dasharray="2.2101,2.2101" x1="58.84" y1="259.6" x2="376.04" y2="259.6" />
                                <line fill="none" stroke="#A6A4A5" stroke-width="0.3" stroke-miterlimit="10" x1="377.14" y1="259.6"
                                    x2="378.24" y2="259.6" />
                            </g>
                        </g>
                        <g>
                            <g>
                                <line fill="none" stroke="#A6A4A5" stroke-width="0.3" stroke-miterlimit="10" x1="55.54" y1="212.8"
                                    x2="56.64" y2="212.8" />
                                <line fill="none" stroke="#A6A4A5" stroke-width="0.3" stroke-miterlimit="10"
                                    stroke-dasharray="2.2101,2.2101" x1="58.84" y1="212.8" x2="376.04" y2="212.8" />
                                <line fill="none" stroke="#A6A4A5" stroke-width="0.3" stroke-miterlimit="10" x1="377.14" y1="212.8"
                                    x2="378.24" y2="212.8" />
                            </g>
                        </g>
                        <g>
                            <g>
                                <line fill="none" stroke="#A6A4A5" stroke-width="0.3" stroke-miterlimit="10" x1="55.54" y1="166.1"
                                    x2="56.64" y2="166.1" />
                                <line fill="none" stroke="#A6A4A5" stroke-width="0.3" stroke-miterlimit="10"
                                    stroke-dasharray="2.2101,2.2101" x1="58.84" y1="166.1" x2="376.04" y2="166.1" />
                                <line fill="none" stroke="#A6A4A5" stroke-width="0.3" stroke-miterlimit="10" x1="377.14" y1="166.1"
                                    x2="378.24" y2="166.1" />
                            </g>
                        </g>
                        <g>
                            <g>
                                <line fill="none" stroke="#A6A4A5" stroke-width="0.3" stroke-miterlimit="10" x1="55.54" y1="119.3"
                                    x2="56.64" y2="119.3" />
                                <line fill="none" stroke="#A6A4A5" stroke-width="0.3" stroke-miterlimit="10"
                                    stroke-dasharray="2.2101,2.2101" x1="58.84" y1="119.3" x2="376.04" y2="119.3" />
                                <line fill="none" stroke="#A6A4A5" stroke-width="0.3" stroke-miterlimit="10" x1="377.14" y1="119.3"
                                    x2="378.24" y2="119.3" />
                            </g>
                        </g>
                        <path fill="#989898" d="M240.94,300.5v5.5c0.2,0,0.5,0,0.7,0c3.2,0,6.3,0,9.5,0h61.1v-5.5H240.94z" />
                        <path fill="#E67300" d="M120.74,301.6v4.5c0.2,0,0.5,0,0.7,0c3.2,0,6.3,0,9.5,0h61.3v-4.5H120.74z" />
                        <text transform="matrix(1 -1.920000e-03 1.920000e-03 1 139.3039 297.9155)" fill="#E67300"
                            font-family="'ITC-ITCAvantGardePro-Demi'" font-size="34px">2</text>
                        <text transform="matrix(1 -1.920000e-03 1.920000e-03 1 157.504 297.8806)" fill="#E67300"
                            font-family="'ITC-ITCAvantGardePro-Demi'" font-size="28px">%</text>
                        <g>
                            <text transform="matrix(1 1.260000e-03 -1.260000e-03 1 255.7899 297.7579)" fill="#989898"
                                font-family="'ITC-ITCAvantGardePro-Demi'" font-size="34px">2</text>
                            <text transform="matrix(1 1.260000e-03 -1.260000e-03 1 273.99 297.7809)" fill="#989898"
                                font-family="'ITC-ITCAvantGardePro-Demi'" font-size="28px">%</text>
                        </g>
                        <g>
                            <rect x="41.24" fill="none" width="351.7" height="16.5" />
                            <text transform="matrix(1 0 0 1 48.8818 12.5898)" fill="#6D6E70" font-family="'MyriadPro-Bold'"
                                font-size="15px">P</text>
                            <text transform="matrix(1 0 0 1 56.8818 12.5898)" fill="#6D6E70" font-family="'MyriadPro-Bold'"
                                font-size="15px">r</text>
                            <text transform="matrix(1 0 0 1 62.2819 12.5898)" fill="#6D6E70" font-family="'MyriadPro-Bold'"
                                font-size="15px">imary endpoint: HIV-1 RNA ≥50 copies/mL at Week 48</text>
                        </g>
                        <g>
                            <rect x="-111.08" y="179.78" transform="matrix(1.432664e-03 -1 1 1.432664e-03 -179.6229 195.6841)"
                                fill="none" width="238.5" height="16" />
                            <text transform="matrix(0 -1 1 0 10.9131 257.6748)" fill="#6D6E70" font-family="'MyriadPro'"
                                font-size="13px">Proportion of patients (%)</text>
                        </g>
                        <text transform="matrix(1 0 0 1 539.8096 12.5898)" fill="#6D6E70" font-family="'MyriadPro-Bold'"
                            font-size="15px">HIV-1 RNA &lt;50 copies/mL at Week 48</text>
                        <rect x="449.24" y="254.7" fill="none" width="26.2" height="8.8" />
                        <text transform="matrix(1 0 0 1 463.2407 262.8657)" fill="#6D6E70" font-family="'ITC-ITCAvantGardePro-Bk'"
                            font-size="11px">20</text>
                        <rect x="449.24" y="298.5" fill="none" width="26.2" height="9" />
                        <text transform="matrix(1 0 0 1 469.3345 306.644)" fill="#6D6E70" font-family="'ITC-ITCAvantGardePro-Bk'"
                            font-size="11px">0</text>
                        <rect x="449.24" y="207.7" fill="none" width="26.2" height="10.8" />
                        <text transform="matrix(1 0 0 1 463.2407 215.8286)" fill="#6D6E70" font-family="'ITC-ITCAvantGardePro-Bk'"
                            font-size="11px">40</text>
                        <rect x="449.24" y="160.7" fill="none" width="26.2" height="10.8" />
                        <text transform="matrix(1 0 0 1 463.2407 168.7915)" fill="#6D6E70" font-family="'ITC-ITCAvantGardePro-Bk'"
                            font-size="11px">60</text>
                        <rect x="449.24" y="114.6" fill="none" width="26.2" height="9.9" />
                        <text transform="matrix(1 0 0 1 463.2407 122.7544)" fill="#6D6E70" font-family="'ITC-ITCAvantGardePro-Bk'"
                            font-size="11px">80</text>
                        <rect x="449.34" y="68.5" fill="none" width="26.1" height="10" />
                        <text transform="matrix(1 0 0 1 457.1464 76.6392)" fill="#6D6E70" font-family="'ITC-ITCAvantGardePro-Bk'"
                            font-size="11px">100</text>
                        <g>
                
                            <rect x="314.92" y="179.78" transform="matrix(1.432664e-03 -1 1 1.432664e-03 245.7672 621.6788)" fill="none"
                                width="238.5" height="16" />
                            <text transform="matrix(0 -1 1 0 436.9131 257.6748)" fill="#6D6E70" font-family="'MyriadPro'"
                                font-size="13px">Proportion of patients (%)</text>
                        </g>
                        <rect x="79.64" y="223.5" fill="none" width="285.8" height="33" />
                        <text transform="matrix(1 0 0 1 166.4606 235.2197)" fill="#6D6E70" font-family="'MyriadPro-Bold'"
                            font-size="14px">Difference: -0.4%</text>
                        <text transform="matrix(1 0 0 1 273.6605 235.2197)" fill="#6D6E70" font-family="'MyriadPro-Bold'"
                            font-size="13px"> </text>
                        <text transform="matrix(1 0 0 1 163.5605 248.2197)" fill="#6D6E70" font-family="'MyriadPro-Regular'"
                            font-size="13px">(95% CI: -2.8%–2.1%)</text>
                        <polyline fill="none" stroke="#6D6E70" stroke-width="0.4851" stroke-miterlimit="10" points="284.24,256.5 284.24,252.5
                                   161.24,252.5 161.24,256.5 	" />
                    </g>
                    <g id="Layer_5">
                        <defs>
                            <filter id="Adobe_OpacityMaskFilter_1__flair" filterUnits="userSpaceOnUse" x="667.44" y="91.1" width="13.3"
                                height="215.4">
                                <feColorMatrix type="matrix" values="1 0 0 0 0  0 1 0 0 0  0 0 1 0 0  0 0 0 1 0" />
                            </filter>
                        </defs>
                        <mask maskUnits="userSpaceOnUse" x="667.44" y="91.1" width="13.3" height="215.4" id="SVGID_3_flair">
                            <g filter="url(#Adobe_OpacityMaskFilter_1__flair)">
                                <path fill="#FFFFFF"
                                    d="M644.14,89.4h27.1c2.7,0,4.9,4.5,4.9,10v143v-1.2v65.3h-36.9v-64.1l0,0V99.5 C639.24,93.9,641.44,89.4,644.14,89.4z" />
                            </g>
                        </mask>
                
                        <linearGradient id="SVGID_6_flair" gradientUnits="userSpaceOnUse" x1="667.4614" y1="90.2" x2="680.731" y2="90.2"
                            gradientTransform="matrix(1 0 0 -1 0 289)">
                            <stop offset="0" style="stop-color:#2483C5;stop-opacity:0" />
                            <stop offset="0.1752" style="stop-color:#2475AE;stop-opacity:0.0876" />
                            <stop offset="0.5437" style="stop-color:#235172;stop-opacity:0.2719" />
                            <stop offset="1" style="stop-color:#231F20;stop-opacity:0.5" />
                        </linearGradient>
                        <polygon opacity="0.5" mask="url(#SVGID_3_flair)" fill="url(#SVGID_6_flair)" enable-background="new"
                            points="680.74,91.1 668.44,103.4 667.44,306.5 680.64,306.5" />
                    </g>
                </svg>