<?xml version="1.0" encoding="utf-8"?>
<!-- Generator: Adobe Illustrator 22.1.0, SVG Export Plug-In . SVG Version: 6.00 Build 0)  -->
<svg version="1.1" id="Layer_1" xmlns="http://www.w3.org/2000/svg" xmlns:xlink="http://www.w3.org/1999/xlink" x="0px" y="0px"
	 viewBox="0 0 343 343" style="enable-background:new 0 0 343 343;" xml:space="preserve">
<style type="text/css">
	.st0{fill:#ADA7A3;}
	.st1{fill:#A3A3A3;}
	.st2{fill:#FFFFFF;}
</style>
<g>
	<circle class="st0" cx="171.7" cy="171.6" r="171.6"/>
	<path class="st1" d="M233.6,129c-4-4.1-3.1-9.2-5.2-13.9C233.2,116.8,235.3,122.7,233.6,129z"/>
	<path class="st2" d="M127.1,42.2c-0.9,7.1-1.5,14.2-2.6,21.2c-0.5,3.4-4,4-7.1,1.4c-5.5-4.6-5.9-5-11.3-0.4
		c-5.1,4.4-9.7,9.6-13.8,14.9c-3.9,5-5,5.6-10.4,2.1c-1.1-0.7-2.2-1.3-3.2-2c-3.4-2.4-3.9-5.3-1.4-8.6c6.5-8.7,13.5-16.7,22.4-23.2
		c3.6-2.6,5.6-2.6,2.6-6.8c-0.4-0.5-0.8-1.1-0.9-1.7c-0.3-1.9-2.8-5.3-1.5-6.8s4-0.4,5.9,0c5.4,1,10.7,2.7,16.1,3.5
		C125.7,36.4,127.8,38,127.1,42.2z"/>
	<path class="st2" d="M73.7,150.3c4.9-5.2,10-10.2,14.7-15.5c2.3-2.6,0.5-5.6-3.4-6.4c-7.1-1.3-7.6-1.4-7.4-8.5
		c0.2-6.7,1.2-13.6,2.7-20.2c1.4-6.1,1.2-7.4-5-9.4c-1.2-0.4-2.4-0.9-3.6-1.2c-4-1.1-6.5,0.4-7.5,4.4c-2.5,10.5-4.3,21-3.7,32.1
		c0.2,4.4,1.5,6-3.6,6.3c-0.6,0-1.4,0-1.9,0.3c-1.6,1-5.9,1.2-6.2,3.1c-0.3,1.9,2.2,3.3,3.7,4.6c4.2,3.5,8.9,6.6,12.9,10.3
		C68.4,152.9,71,153.5,73.7,150.3z"/>
	<path class="st2" d="M183.5,308.5c-5,0-8.8,0.3-12.6-0.1c-7-0.8-12.4-6.4-13.8-13.2c-3.7-17.5-8.2-34.5-18.3-49.8
		c-5.9-8.9-9.4-19.4-14-29.2c-3-6.3-6.1-12.6-8.8-19.1c-5.9-13.9-11.8-27.8-17.2-41.9c-1.7-4.5-1.7-9.7-3-14.5
		c-1.6-5.9-4.1-11.7-5.6-17.6c-0.6-2.2-0.1-5.6,1.3-7.3c4.7-5.4,12.2-8.6,19.7-2.1c7,6.1,12,13.5,16.2,21.6
		c3.4,6.5,7.1,12.8,10.5,19.2c0.9,1.7,1.4,3.5,2.1,5.3c1,2.5,2.8,3.5,5.3,2.1c6.1-3.5,8.1-9.4,4.9-15.7c-3.5-6.9-7.4-13.6-11.2-20.4
		c-2.4-4.4-4-9.6-7.4-13c-4.6-4.7-10.3-8.4-15.9-12.1c-6.5-4.3-11-10.3-14.2-17.1c-2.5-5.3,5.1-12.8,12-11.7
		c5.3,0.8,10.6,2.2,15.8,3.9c9.1,2.9,18,6.3,27.1,9.3c1.3,0.4,3.2-0.1,4.4-0.8c5.7-3.3,11.6-6.3,16.7-10.3
		c7.4-5.8,16.9-3.8,22.4,4.2c2.4,3.5,4.7,5.4,9.3,4.9c5.3-0.6,11.6,4.7,13.9,10.6c1.1,2.8,1.8,5.9,3.3,8.4c1.1,1.9,3,4.1,5,4.7
		c7.4,2.1,9.8,8,11.1,14.3c2,9.9,1.8,19.9,0.8,30c-0.7,7.2,1.1,14.6,1.5,21.9c0.7,15.1,1.4,30.3,1.7,45.4c0.1,4.1-1.1,8.2-1.9,12.3
		c-2.4,12.8-0.3,25.5,1.4,38.1c1.1,8,3.1,15.9,4.8,23.8c0.9,4.3-0.4,7.4-4.8,8.4c-7.6,1.7-15.3,3.4-23,4.3
		C209.4,306.6,195.8,307.5,183.5,308.5z M104,117.5c-0.5,0.5-0.9,0.9-1.4,1.4c1,1.4,2.5,2.7,3,4.2c0.8,2.7,2.4,6.8,1.2,8.2
		c-3.6,4.2-2.9,7.9-1.2,12.4c0.9,2.5,0.7,5.3,1.3,8c0.9,4,1.5,8.1,3,11.9c2.8,7.4,6.1,14.6,9.3,21.9c6.5,14.9,12.7,29.9,19.6,44.6
		c4.5,9.6,10,18.8,15.2,28.2c6,10.8,8.1,22.8,10.6,34.6c1,4.7,3.2,6.6,8.1,6.8c21.7,1.2,42.9-2.9,64.3-5.1c3.1-0.3,4.5-2.2,4.1-5.3
		c-1.6-11-3.8-22-4.7-33.1c-0.7-8.8,0.1-17.7,0.4-26.5c0.1-3.7,1.1-7.3,1-10.9c-0.8-25.3-1.8-50.6-2.9-75.9c-0.1-1.5-2-3-3.3-4.3
		c-1.8-1.8-4.8-3.1-5.4-5.2c-2.3-7.4-3.5-15.1-5.7-22.6c-1.7-5.6-3.9-11.1-6.6-16.3c-0.9-1.7-3.9-2.3-5.9-3.4
		c0.4,2.2,0.4,4.5,1.1,6.5c1.7,4.8,4.2,9.3,5.5,14.2c0.5,1.9-1.2,4.4-1.9,6.6c-2-1.3-3.9-2.6-5.9-3.9c-0.2-0.2-0.3-0.6-0.4-0.9
		c-3-8.5-6-17.1-8.8-25.6c-2.4-7.3-8.7-10.6-15.7-7.5c-5,2.3-9.7,5.4-14.5,8.3c-1.3,0.8-3.1,2.5-3,3.5c0.2,1.4,2,2.7,3.6,4.7
		c1.3-2.9,1.7-5.2,3.1-6.5c1.4-1.4,3.6-2.2,5.6-2.6c0.5-0.1,2.5,2.3,2.2,3c-1.7,4.7-1.4,9,0.8,13.4c1.2,2.4,1.5,5.4,3,7.6
		c1.7,2.4,4.7,4,6.3,6.4c1,1.5,0.6,4,0.8,6c-1.9-0.1-3.8,0-5.6-0.4c-0.8-0.2-1.5-1.1-2.1-1.8c-7.6-8.1-15.3-16.2-22.8-24.5
		c-4.3-4.8-9.5-7.7-15.8-9.1c-6.4-1.4-12.5-3.8-18.8-5.3c-3.1-0.8-6.4-1-9.5-0.8c-1.5,0.1-4,1.6-4,2.5c0,1.6,1.1,3.7,2.5,4.7
		c1,0.7,3.3,0.3,4.5-0.4c2.7-1.5,4.3-0.7,5.4,1.7c0.7,1.4,1,3,1.5,4.5c2.1,5.8,6,8.4,12.1,8c3.3-0.2,4.8,1.3,4.8,4.4
		c0,8.5,3.7,15.7,8,22.7c3.2,5.1,6,10.5,8.8,15.9c2.7,5.2,2.1,10.3-2,14.6c-3.5,3.7-7.1,7.3-11,10.5c-2.5,2.1-5.7,2-7.5-0.9
		c-5.8-9.5-11.2-19.3-16.8-28.9c-3.3-5.8-6.4-11.7-10.1-17.2C109.5,121.4,106.4,119.6,104,117.5z M233.6,129
		c1.7-6.3-0.4-12.2-5.2-13.9C230.5,119.7,229.6,124.9,233.6,129z"/>
	<path class="st1" d="M104,117.5c2.5,2.2,5.5,4,7.3,6.6c3.7,5.5,6.8,11.5,10.1,17.2c5.6,9.7,11,19.4,16.8,28.9c1.8,2.9,5,3,7.5,0.9
		c3.9-3.3,7.5-6.8,11-10.5c4.1-4.3,4.7-9.3,2-14.6c-2.8-5.4-5.6-10.7-8.8-15.9c-4.3-7-8-14.2-8-22.7c0-3.2-1.5-4.7-4.8-4.4
		c-6.1,0.4-10.1-2.2-12.1-8c-0.5-1.5-0.8-3.1-1.5-4.5c-1.1-2.4-2.7-3.2-5.4-1.7c-1.2,0.7-3.5,1.1-4.5,0.4c-1.3-1-2.5-3.1-2.5-4.7
		c0-0.9,2.6-2.4,4-2.5c3.2-0.2,6.5,0,9.5,0.8c6.3,1.6,12.5,3.9,18.8,5.3c6.4,1.4,11.5,4.3,15.8,9.1c7.5,8.3,15.2,16.3,22.8,24.5
		c0.7,0.7,1.3,1.7,2.1,1.8c1.8,0.3,3.8,0.3,5.6,0.4c-0.2-2,0.2-4.5-0.8-6c-1.7-2.4-4.7-4-6.3-6.4c-1.5-2.2-1.8-5.2-3-7.6
		c-2.2-4.4-2.5-8.7-0.8-13.4c0.3-0.7-1.7-3.1-2.2-3c-2,0.5-4.2,1.2-5.6,2.6c-1.3,1.3-1.8,3.6-3.1,6.5c-1.7-2-3.5-3.3-3.6-4.7
		c-0.1-1.1,1.7-2.7,3-3.5c4.7-2.9,9.4-6,14.5-8.3c6.9-3.1,13.2,0.2,15.7,7.5c2.9,8.6,5.9,17.1,8.8,25.6c0.1,0.3,0.2,0.7,0.4,0.9
		c1.9,1.3,3.9,2.6,5.9,3.9c0.7-2.2,2.4-4.7,1.9-6.6c-1.3-4.9-3.8-9.4-5.5-14.2c-0.7-2-0.8-4.3-1.1-6.5c2,1.1,5,1.7,5.9,3.4
		c2.7,5.2,4.9,10.7,6.6,16.3c2.2,7.4,3.4,15.2,5.7,22.6c0.6,2.1,3.6,3.4,5.4,5.2c1.3,1.3,3.2,2.8,3.3,4.3
		c1.1,25.3,2.1,50.6,2.9,75.9c0.1,3.6-0.8,7.3-1,10.9c-0.3,8.8-1.1,17.7-0.4,26.5c0.9,11.1,3.1,22.1,4.7,33.1c0.5,3.1-1,5-4.1,5.3
		c-21.4,2.2-42.6,6.3-64.3,5.1c-4.8-0.3-7.1-2.1-8.1-6.8c-2.5-11.8-4.6-23.8-10.6-34.6c-5.2-9.3-10.7-18.5-15.2-28.2
		c-6.9-14.7-13.1-29.7-19.6-44.6c-3.2-7.3-6.5-14.5-9.3-21.9c-1.5-3.8-2.1-7.9-3-11.9c-0.6-2.6-0.4-5.5-1.3-8
		c-1.7-4.4-2.3-8.1,1.2-12.4c1.2-1.4-0.4-5.5-1.2-8.2c-0.5-1.6-1.9-2.8-3-4.2C103,118.4,103.5,117.9,104,117.5z"/>
</g>
</svg>
