<svg xmlns="http://www.w3.org/2000/svg" width="1144" height="116">
    <defs>
        <linearGradient id="a" x1="0%" x2="0%" y1="100%" y2="0%">
            <stop offset="0%" stop-color="#334658"/>
            <stop offset="100%" stop-color="#617A91"/>
        </linearGradient>
    </defs>
    <path fill="url(#a)" fill-rule="evenodd" d="M20 0h1104c11.046 0 20 8.954 20 20v76c0 11.046-8.954 20-20 20H20c-11.046 0-20-8.954-20-20V20C0 8.954 8.954 0 20 0z"/>
</svg>
